<?xml version="1.0"?>
<font>
  <info face="Trebuchet MS" size="32" bold="0" italic="0" charset="" unicode="1" stretchH="100" smooth="1" aa="2" padding="0,0,0,0" spacing="1,1" outline="0"/>
  <common lineHeight="32" base="25" scaleW="512" scaleH="256" pages="1" packed="0" alphaChnl="0" redChnl="4" greenChnl="4" blueChnl="4"/>
  <pages>
    <page id="0" file="TrebuchetMS_32_0.png" />
  </pages>
  <chars count="428">
    <char id="-1" x="291" y="215" width="10" height="10" xoffset="1" yoffset="11" xadvance="13" page="0" chnl="15" />
    <char id="32" x="509" y="26" width="2" height="1" xoffset="0" yoffset="31" xadvance="7" page="0" chnl="15" />
    <char id="33" x="468" y="118" width="5" height="20" xoffset="2" yoffset="6" xadvance="9" page="0" chnl="15" />
    <char id="34" x="466" y="213" width="7" height="5" xoffset="0" yoffset="6" xadvance="8" page="0" chnl="15" />
    <char id="35" x="333" y="97" width="14" height="20" xoffset="0" yoffset="6" xadvance="13" page="0" chnl="15" />
    <char id="36" x="488" y="0" width="11" height="25" xoffset="1" yoffset="4" xadvance="13" page="0" chnl="15" />
    <char id="37" x="285" y="98" width="15" height="20" xoffset="0" yoffset="6" xadvance="15" page="0" chnl="15" />
    <char id="38" x="234" y="98" width="16" height="20" xoffset="1" yoffset="6" xadvance="18" page="0" chnl="15" />
    <char id="39" x="508" y="178" width="3" height="5" xoffset="0" yoffset="6" xadvance="4" page="0" chnl="15" />
    <char id="40" x="50" y="26" width="6" height="25" xoffset="2" yoffset="6" xadvance="9" page="0" chnl="15" />
    <char id="41" x="43" y="26" width="6" height="25" xoffset="2" yoffset="6" xadvance="9" page="0" chnl="15" />
    <char id="42" x="339" y="215" width="9" height="8" xoffset="0" yoffset="6" xadvance="9" page="0" chnl="15" />
    <char id="43" x="195" y="216" width="12" height="12" xoffset="1" yoffset="11" xadvance="13" page="0" chnl="15" />
    <char id="44" x="322" y="215" width="5" height="9" xoffset="2" yoffset="21" xadvance="9" page="0" chnl="15" />
    <char id="45" x="41" y="239" width="6" height="3" xoffset="1" yoffset="16" xadvance="9" page="0" chnl="15" />
    <char id="46" x="491" y="213" width="5" height="4" xoffset="2" yoffset="22" xadvance="9" page="0" chnl="15" />
    <char id="47" x="433" y="159" width="10" height="19" xoffset="2" yoffset="6" xadvance="13" page="0" chnl="15" />
    <char id="48" x="70" y="122" width="13" height="20" xoffset="0" yoffset="6" xadvance="13" page="0" chnl="15" />
    <char id="49" x="483" y="159" width="7" height="19" xoffset="2" yoffset="6" xadvance="13" page="0" chnl="15" />
    <char id="50" x="211" y="160" width="12" height="19" xoffset="0" yoffset="6" xadvance="13" page="0" chnl="15" />
    <char id="51" x="238" y="119" width="11" height="20" xoffset="1" yoffset="6" xadvance="13" page="0" chnl="15" />
    <char id="52" x="379" y="139" width="14" height="19" xoffset="0" yoffset="6" xadvance="13" page="0" chnl="15" />
    <char id="53" x="274" y="119" width="11" height="20" xoffset="1" yoffset="6" xadvance="13" page="0" chnl="15" />
    <char id="54" x="0" y="125" width="13" height="20" xoffset="0" yoffset="6" xadvance="13" page="0" chnl="15" />
    <char id="55" x="114" y="161" width="13" height="19" xoffset="0" yoffset="6" xadvance="13" page="0" chnl="15" />
    <char id="56" x="123" y="120" width="12" height="20" xoffset="1" yoffset="6" xadvance="13" page="0" chnl="15" />
    <char id="57" x="136" y="120" width="12" height="20" xoffset="0" yoffset="6" xadvance="13" page="0" chnl="15" />
    <char id="58" x="382" y="198" width="5" height="15" xoffset="2" yoffset="11" xadvance="9" page="0" chnl="15" />
    <char id="59" x="0" y="186" width="5" height="19" xoffset="2" yoffset="11" xadvance="9" page="0" chnl="15" />
    <char id="60" x="269" y="215" width="10" height="11" xoffset="1" yoffset="12" xadvance="13" page="0" chnl="15" />
    <char id="61" x="349" y="214" width="12" height="7" xoffset="1" yoffset="13" xadvance="13" page="0" chnl="15" />
    <char id="62" x="280" y="215" width="10" height="11" xoffset="1" yoffset="12" xadvance="13" page="0" chnl="15" />
    <char id="63" x="409" y="118" width="9" height="20" xoffset="0" yoffset="6" xadvance="9" page="0" chnl="15" />
    <char id="64" x="80" y="143" width="18" height="19" xoffset="1" yoffset="8" xadvance="19" page="0" chnl="15" />
    <char id="65" x="220" y="140" width="16" height="19" xoffset="0" yoffset="6" xadvance="15" page="0" chnl="15" />
    <char id="66" x="142" y="161" width="13" height="19" xoffset="1" yoffset="6" xadvance="14" page="0" chnl="15" />
    <char id="67" x="317" y="97" width="15" height="20" xoffset="0" yoffset="6" xadvance="15" page="0" chnl="15" />
    <char id="68" x="439" y="139" width="14" height="19" xoffset="1" yoffset="6" xadvance="15" page="0" chnl="15" />
    <char id="69" x="465" y="179" width="12" height="18" xoffset="1" yoffset="7" xadvance="13" page="0" chnl="15" />
    <char id="70" x="478" y="179" width="12" height="18" xoffset="1" yoffset="7" xadvance="13" page="0" chnl="15" />
    <char id="71" x="301" y="97" width="15" height="20" xoffset="0" yoffset="6" xadvance="17" page="0" chnl="15" />
    <char id="72" x="305" y="180" width="14" height="18" xoffset="1" yoffset="7" xadvance="16" page="0" chnl="15" />
    <char id="73" x="507" y="96" width="3" height="18" xoffset="2" yoffset="7" xadvance="7" page="0" chnl="15" />
    <char id="74" x="422" y="159" width="10" height="19" xoffset="0" yoffset="7" xadvance="12" page="0" chnl="15" />
    <char id="75" x="335" y="179" width="14" height="18" xoffset="1" yoffset="7" xadvance="14" page="0" chnl="15" />
    <char id="76" x="65" y="204" width="12" height="18" xoffset="1" yoffset="7" xadvance="13" page="0" chnl="15" />
    <char id="77" x="61" y="144" width="18" height="19" xoffset="0" yoffset="7" xadvance="18" page="0" chnl="15" />
    <char id="78" x="15" y="166" width="14" height="19" xoffset="1" yoffset="7" xadvance="16" page="0" chnl="15" />
    <char id="79" x="268" y="98" width="16" height="20" xoffset="0" yoffset="6" xadvance="17" page="0" chnl="15" />
    <char id="80" x="302" y="160" width="12" height="19" xoffset="1" yoffset="6" xadvance="14" page="0" chnl="15" />
    <char id="81" x="280" y="51" width="19" height="23" xoffset="0" yoffset="6" xadvance="17" page="0" chnl="15" />
    <char id="82" x="394" y="139" width="14" height="19" xoffset="1" yoffset="6" xadvance="15" page="0" chnl="15" />
    <char id="83" x="250" y="119" width="11" height="20" xoffset="0" yoffset="6" xadvance="12" page="0" chnl="15" />
    <char id="84" x="147" y="181" width="15" height="18" xoffset="0" yoffset="7" xadvance="15" page="0" chnl="15" />
    <char id="85" x="469" y="139" width="14" height="19" xoffset="1" yoffset="7" xadvance="16" page="0" chnl="15" />
    <char id="86" x="317" y="139" width="15" height="19" xoffset="0" yoffset="7" xadvance="15" page="0" chnl="15" />
    <char id="87" x="474" y="118" width="23" height="19" xoffset="0" yoffset="7" xadvance="21" page="0" chnl="15" />
    <char id="88" x="349" y="139" width="14" height="19" xoffset="0" yoffset="6" xadvance="14" page="0" chnl="15" />
    <char id="89" x="259" y="180" width="15" height="18" xoffset="0" yoffset="7" xadvance="14" page="0" chnl="15" />
    <char id="90" x="78" y="204" width="12" height="18" xoffset="1" yoffset="7" xadvance="14" page="0" chnl="15" />
    <char id="91" x="251" y="51" width="7" height="24" xoffset="2" yoffset="6" xadvance="9" page="0" chnl="15" />
    <char id="92" x="454" y="159" width="9" height="19" xoffset="0" yoffset="6" xadvance="9" page="0" chnl="15" />
    <char id="93" x="259" y="51" width="7" height="24" xoffset="0" yoffset="6" xadvance="9" page="0" chnl="15" />
    <char id="94" x="328" y="215" width="10" height="8" xoffset="1" yoffset="6" xadvance="13" page="0" chnl="15" />
    <char id="95" x="48" y="239" width="15" height="2" xoffset="0" yoffset="26" xadvance="13" page="0" chnl="15" />
    <char id="96" x="485" y="213" width="5" height="4" xoffset="4" yoffset="5" xadvance="13" page="0" chnl="15" />
    <char id="97" x="318" y="199" width="13" height="15" xoffset="0" yoffset="11" xadvance="13" page="0" chnl="15" />
    <char id="98" x="188" y="119" width="12" height="20" xoffset="1" yoffset="6" xadvance="14" page="0" chnl="15" />
    <char id="99" x="345" y="198" width="12" height="15" xoffset="0" yoffset="11" xadvance="12" page="0" chnl="15" />
    <char id="100" x="328" y="159" width="12" height="19" xoffset="0" yoffset="6" xadvance="14" page="0" chnl="15" />
    <char id="101" x="304" y="199" width="13" height="15" xoffset="0" yoffset="11" xadvance="14" page="0" chnl="15" />
    <char id="102" x="389" y="159" width="10" height="19" xoffset="0" yoffset="6" xadvance="9" page="0" chnl="15" />
    <char id="103" x="289" y="160" width="12" height="19" xoffset="0" yoffset="11" xadvance="13" page="0" chnl="15" />
    <char id="104" x="341" y="159" width="11" height="19" xoffset="1" yoffset="6" xadvance="14" page="0" chnl="15" />
    <char id="105" x="491" y="158" width="6" height="19" xoffset="0" yoffset="6" xadvance="7" page="0" chnl="15" />
    <char id="106" x="242" y="51" width="8" height="24" xoffset="0" yoffset="6" xadvance="9" page="0" chnl="15" />
    <char id="107" x="237" y="160" width="12" height="19" xoffset="1" yoffset="6" xadvance="13" page="0" chnl="15" />
    <char id="108" x="454" y="118" width="6" height="20" xoffset="1" yoffset="6" xadvance="7" page="0" chnl="15" />
    <char id="109" x="408" y="198" width="18" height="14" xoffset="1" yoffset="11" xadvance="21" page="0" chnl="15" />
    <char id="110" x="132" y="219" width="11" height="14" xoffset="1" yoffset="11" xadvance="14" page="0" chnl="15" />
    <char id="111" x="290" y="199" width="13" height="15" xoffset="0" yoffset="11" xadvance="13" page="0" chnl="15" />
    <char id="112" x="263" y="160" width="12" height="19" xoffset="1" yoffset="11" xadvance="14" page="0" chnl="15" />
    <char id="113" x="156" y="161" width="13" height="19" xoffset="0" yoffset="11" xadvance="14" page="0" chnl="15" />
    <char id="114" x="144" y="219" width="9" height="14" xoffset="1" yoffset="11" xadvance="10" page="0" chnl="15" />
    <char id="115" x="371" y="198" width="10" height="15" xoffset="0" yoffset="11" xadvance="10" page="0" chnl="15" />
    <char id="116" x="125" y="200" width="10" height="18" xoffset="0" yoffset="8" xadvance="10" page="0" chnl="15" />
    <char id="117" x="358" y="198" width="12" height="15" xoffset="1" yoffset="11" xadvance="14" page="0" chnl="15" />
    <char id="118" x="276" y="199" width="13" height="15" xoffset="0" yoffset="11" xadvance="12" page="0" chnl="15" />
    <char id="119" x="242" y="199" width="19" height="15" xoffset="0" yoffset="11" xadvance="19" page="0" chnl="15" />
    <char id="120" x="486" y="198" width="13" height="14" xoffset="0" yoffset="11" xadvance="13" page="0" chnl="15" />
    <char id="121" x="170" y="161" width="13" height="19" xoffset="0" yoffset="11" xadvance="12" page="0" chnl="15" />
    <char id="122" x="69" y="223" width="12" height="14" xoffset="0" yoffset="11" xadvance="12" page="0" chnl="15" />
    <char id="123" x="190" y="51" width="10" height="24" xoffset="0" yoffset="6" xadvance="9" page="0" chnl="15" />
    <char id="124" x="158" y="76" width="3" height="22" xoffset="5" yoffset="7" xadvance="13" page="0" chnl="15" />
    <char id="125" x="179" y="51" width="10" height="24" xoffset="0" yoffset="6" xadvance="9" page="0" chnl="15" />
    <char id="126" x="23" y="239" width="10" height="3" xoffset="1" yoffset="16" xadvance="13" page="0" chnl="15" />
    <char id="160" x="81" y="120" width="2" height="1" xoffset="0" yoffset="31" xadvance="7" page="0" chnl="15" />
    <char id="161" x="498" y="158" width="5" height="19" xoffset="2" yoffset="11" xadvance="9" page="0" chnl="15" />
    <char id="162" x="184" y="200" width="10" height="17" xoffset="2" yoffset="10" xadvance="13" page="0" chnl="15" />
    <char id="163" x="198" y="160" width="12" height="19" xoffset="1" yoffset="6" xadvance="13" page="0" chnl="15" />
    <char id="164" x="167" y="218" width="13" height="13" xoffset="0" yoffset="9" xadvance="13" page="0" chnl="15" />
    <char id="165" x="179" y="181" width="15" height="18" xoffset="0" yoffset="7" xadvance="14" page="0" chnl="15" />
    <char id="166" x="154" y="76" width="3" height="22" xoffset="5" yoffset="7" xadvance="13" page="0" chnl="15" />
    <char id="167" x="298" y="119" width="11" height="20" xoffset="0" yoffset="6" xadvance="11" page="0" chnl="15" />
    <char id="168" x="12" y="240" width="10" height="3" xoffset="2" yoffset="6" xadvance="13" page="0" chnl="15" />
    <char id="169" x="165" y="200" width="18" height="17" xoffset="1" yoffset="8" xadvance="18" page="0" chnl="15" />
    <char id="170" x="312" y="215" width="9" height="9" xoffset="0" yoffset="6" xadvance="9" page="0" chnl="15" />
    <char id="171" x="398" y="213" width="10" height="7" xoffset="1" yoffset="14" xadvance="13" page="0" chnl="15" />
    <char id="172" x="362" y="214" width="12" height="7" xoffset="1" yoffset="13" xadvance="13" page="0" chnl="15" />
    <char id="173" x="34" y="239" width="6" height="3" xoffset="1" yoffset="16" xadvance="9" page="0" chnl="15" />
    <char id="174" x="146" y="200" width="18" height="17" xoffset="1" yoffset="8" xadvance="18" page="0" chnl="15" />
    <char id="175" x="64" y="238" width="15" height="2" xoffset="0" yoffset="4" xadvance="13" page="0" chnl="15" />
    <char id="176" x="447" y="213" width="6" height="6" xoffset="3" yoffset="6" xadvance="13" page="0" chnl="15" />
    <char id="177" x="332" y="199" width="12" height="15" xoffset="1" yoffset="11" xadvance="13" page="0" chnl="15" />
    <char id="178" x="234" y="215" width="8" height="12" xoffset="1" yoffset="6" xadvance="11" page="0" chnl="15" />
    <char id="179" x="243" y="215" width="7" height="12" xoffset="2" yoffset="6" xadvance="11" page="0" chnl="15" />
    <char id="180" x="0" y="240" width="5" height="4" xoffset="4" yoffset="5" xadvance="13" page="0" chnl="15" />
    <char id="181" x="214" y="119" width="11" height="20" xoffset="1" yoffset="11" xadvance="14" page="0" chnl="15" />
    <char id="182" x="121" y="76" width="11" height="22" xoffset="1" yoffset="6" xadvance="13" page="0" chnl="15" />
    <char id="183" x="6" y="240" width="5" height="4" xoffset="2" yoffset="15" xadvance="9" page="0" chnl="15" />
    <char id="184" x="474" y="213" width="4" height="5" xoffset="4" yoffset="26" xadvance="13" page="0" chnl="15" />
    <char id="185" x="251" y="215" width="5" height="12" xoffset="2" yoffset="6" xadvance="11" page="0" chnl="15" />
    <char id="186" x="302" y="215" width="9" height="9" xoffset="0" yoffset="6" xadvance="9" page="0" chnl="15" />
    <char id="187" x="375" y="214" width="11" height="7" xoffset="1" yoffset="14" xadvance="13" page="0" chnl="15" />
    <char id="188" x="195" y="98" width="19" height="20" xoffset="0" yoffset="6" xadvance="21" page="0" chnl="15" />
    <char id="189" x="135" y="99" width="19" height="20" xoffset="1" yoffset="6" xadvance="21" page="0" chnl="15" />
    <char id="190" x="215" y="98" width="18" height="20" xoffset="1" yoffset="6" xadvance="21" page="0" chnl="15" />
    <char id="191" x="444" y="159" width="9" height="19" xoffset="0" yoffset="11" xadvance="9" page="0" chnl="15" />
    <char id="192" x="190" y="26" width="16" height="24" xoffset="0" yoffset="1" xadvance="15" page="0" chnl="15" />
    <char id="193" x="105" y="26" width="16" height="24" xoffset="0" yoffset="1" xadvance="15" page="0" chnl="15" />
    <char id="194" x="173" y="26" width="16" height="24" xoffset="0" yoffset="1" xadvance="15" page="0" chnl="15" />
    <char id="195" x="91" y="76" width="16" height="22" xoffset="0" yoffset="3" xadvance="15" page="0" chnl="15" />
    <char id="196" x="317" y="51" width="16" height="23" xoffset="0" yoffset="2" xadvance="15" page="0" chnl="15" />
    <char id="197" x="334" y="51" width="16" height="23" xoffset="0" yoffset="2" xadvance="15" page="0" chnl="15" />
    <char id="198" x="6" y="186" width="22" height="18" xoffset="0" yoffset="7" xadvance="22" page="0" chnl="15" />
    <char id="199" x="182" y="0" width="15" height="25" xoffset="0" yoffset="6" xadvance="15" page="0" chnl="15" />
    <char id="200" x="13" y="54" width="12" height="24" xoffset="1" yoffset="1" xadvance="13" page="0" chnl="15" />
    <char id="201" x="130" y="51" width="12" height="24" xoffset="1" yoffset="1" xadvance="13" page="0" chnl="15" />
    <char id="202" x="104" y="51" width="12" height="24" xoffset="1" yoffset="1" xadvance="13" page="0" chnl="15" />
    <char id="203" x="487" y="51" width="12" height="23" xoffset="1" yoffset="2" xadvance="13" page="0" chnl="15" />
    <char id="204" x="274" y="51" width="5" height="24" xoffset="0" yoffset="1" xadvance="7" page="0" chnl="15" />
    <char id="205" x="267" y="51" width="6" height="24" xoffset="2" yoffset="1" xadvance="7" page="0" chnl="15" />
    <char id="206" x="201" y="51" width="10" height="24" xoffset="-1" yoffset="1" xadvance="7" page="0" chnl="15" />
    <char id="207" x="39" y="77" width="10" height="23" xoffset="-1" yoffset="2" xadvance="7" page="0" chnl="15" />
    <char id="208" x="301" y="140" width="15" height="19" xoffset="0" yoffset="6" xadvance="15" page="0" chnl="15" />
    <char id="209" x="415" y="51" width="14" height="23" xoffset="1" yoffset="3" xadvance="16" page="0" chnl="15" />
    <char id="210" x="83" y="0" width="16" height="25" xoffset="0" yoffset="1" xadvance="17" page="0" chnl="15" />
    <char id="211" x="49" y="0" width="16" height="25" xoffset="0" yoffset="1" xadvance="17" page="0" chnl="15" />
    <char id="212" x="66" y="0" width="16" height="25" xoffset="0" yoffset="1" xadvance="17" page="0" chnl="15" />
    <char id="213" x="300" y="51" width="16" height="23" xoffset="0" yoffset="3" xadvance="17" page="0" chnl="15" />
    <char id="214" x="122" y="26" width="16" height="24" xoffset="0" yoffset="2" xadvance="17" page="0" chnl="15" />
    <char id="215" x="257" y="215" width="11" height="11" xoffset="1" yoffset="12" xadvance="13" page="0" chnl="15" />
    <char id="216" x="251" y="98" width="16" height="20" xoffset="0" yoffset="6" xadvance="16" page="0" chnl="15" />
    <char id="217" x="367" y="0" width="14" height="25" xoffset="1" yoffset="1" xadvance="16" page="0" chnl="15" />
    <char id="218" x="337" y="0" width="14" height="25" xoffset="1" yoffset="1" xadvance="16" page="0" chnl="15" />
    <char id="219" x="262" y="0" width="14" height="25" xoffset="1" yoffset="1" xadvance="16" page="0" chnl="15" />
    <char id="220" x="334" y="26" width="14" height="24" xoffset="1" yoffset="2" xadvance="16" page="0" chnl="15" />
    <char id="221" x="239" y="26" width="15" height="24" xoffset="0" yoffset="1" xadvance="14" page="0" chnl="15" />
    <char id="222" x="491" y="178" width="12" height="18" xoffset="1" yoffset="7" xadvance="14" page="0" chnl="15" />
    <char id="223" x="201" y="119" width="12" height="20" xoffset="1" yoffset="6" xadvance="14" page="0" chnl="15" />
    <char id="224" x="303" y="75" width="13" height="21" xoffset="0" yoffset="5" xadvance="13" page="0" chnl="15" />
    <char id="225" x="331" y="75" width="13" height="21" xoffset="0" yoffset="5" xadvance="13" page="0" chnl="15" />
    <char id="226" x="247" y="76" width="13" height="21" xoffset="0" yoffset="5" xadvance="13" page="0" chnl="15" />
    <char id="227" x="451" y="97" width="13" height="20" xoffset="0" yoffset="6" xadvance="13" page="0" chnl="15" />
    <char id="228" x="465" y="97" width="13" height="20" xoffset="0" yoffset="6" xadvance="13" page="0" chnl="15" />
    <char id="229" x="460" y="51" width="13" height="23" xoffset="0" yoffset="3" xadvance="13" page="0" chnl="15" />
    <char id="230" x="219" y="199" width="22" height="15" xoffset="0" yoffset="11" xadvance="22" page="0" chnl="15" />
    <char id="231" x="149" y="120" width="12" height="20" xoffset="0" yoffset="11" xadvance="12" page="0" chnl="15" />
    <char id="232" x="275" y="76" width="13" height="21" xoffset="0" yoffset="5" xadvance="14" page="0" chnl="15" />
    <char id="233" x="261" y="76" width="13" height="21" xoffset="0" yoffset="5" xadvance="14" page="0" chnl="15" />
    <char id="234" x="345" y="75" width="13" height="21" xoffset="0" yoffset="5" xadvance="14" page="0" chnl="15" />
    <char id="235" x="423" y="97" width="13" height="20" xoffset="0" yoffset="6" xadvance="14" page="0" chnl="15" />
    <char id="236" x="461" y="118" width="6" height="20" xoffset="0" yoffset="5" xadvance="7" page="0" chnl="15" />
    <char id="237" x="438" y="118" width="7" height="20" xoffset="0" yoffset="5" xadvance="7" page="0" chnl="15" />
    <char id="238" x="368" y="118" width="10" height="20" xoffset="-1" yoffset="5" xadvance="7" page="0" chnl="15" />
    <char id="239" x="411" y="159" width="10" height="19" xoffset="0" yoffset="6" xadvance="7" page="0" chnl="15" />
    <char id="240" x="437" y="97" width="13" height="20" xoffset="0" yoffset="6" xadvance="14" page="0" chnl="15" />
    <char id="241" x="353" y="159" width="11" height="19" xoffset="1" yoffset="6" xadvance="14" page="0" chnl="15" />
    <char id="242" x="387" y="75" width="13" height="21" xoffset="0" yoffset="5" xadvance="13" page="0" chnl="15" />
    <char id="243" x="219" y="76" width="13" height="21" xoffset="0" yoffset="5" xadvance="13" page="0" chnl="15" />
    <char id="244" x="233" y="76" width="13" height="21" xoffset="0" yoffset="5" xadvance="13" page="0" chnl="15" />
    <char id="245" x="493" y="97" width="13" height="20" xoffset="0" yoffset="6" xadvance="13" page="0" chnl="15" />
    <char id="246" x="479" y="97" width="13" height="20" xoffset="0" yoffset="6" xadvance="13" page="0" chnl="15" />
    <char id="247" x="56" y="223" width="12" height="14" xoffset="1" yoffset="10" xadvance="13" page="0" chnl="15" />
    <char id="248" x="262" y="199" width="13" height="15" xoffset="0" yoffset="11" xadvance="14" page="0" chnl="15" />
    <char id="249" x="493" y="75" width="12" height="21" xoffset="1" yoffset="5" xadvance="14" page="0" chnl="15" />
    <char id="250" x="441" y="75" width="12" height="21" xoffset="1" yoffset="5" xadvance="14" page="0" chnl="15" />
    <char id="251" x="467" y="75" width="12" height="21" xoffset="1" yoffset="5" xadvance="14" page="0" chnl="15" />
    <char id="252" x="84" y="120" width="12" height="20" xoffset="1" yoffset="6" xadvance="14" page="0" chnl="15" />
    <char id="253" x="410" y="0" width="13" height="25" xoffset="0" yoffset="5" xadvance="12" page="0" chnl="15" />
    <char id="254" x="117" y="51" width="12" height="24" xoffset="1" yoffset="6" xadvance="14" page="0" chnl="15" />
    <char id="255" x="482" y="26" width="13" height="24" xoffset="0" yoffset="6" xadvance="12" page="0" chnl="15" />
    <char id="256" x="74" y="76" width="16" height="22" xoffset="0" yoffset="3" xadvance="15" page="0" chnl="15" />
    <char id="257" x="498" y="118" width="13" height="19" xoffset="0" yoffset="7" xadvance="13" page="0" chnl="15" />
    <char id="258" x="156" y="26" width="16" height="24" xoffset="0" yoffset="1" xadvance="15" page="0" chnl="15" />
    <char id="259" x="401" y="75" width="13" height="21" xoffset="0" yoffset="5" xadvance="13" page="0" chnl="15" />
    <char id="260" x="87" y="26" width="17" height="24" xoffset="0" yoffset="6" xadvance="15" page="0" chnl="15" />
    <char id="261" x="269" y="140" width="15" height="19" xoffset="0" yoffset="11" xadvance="13" page="0" chnl="15" />
    <char id="262" x="246" y="0" width="15" height="25" xoffset="0" yoffset="1" xadvance="15" page="0" chnl="15" />
    <char id="263" x="454" y="75" width="12" height="21" xoffset="0" yoffset="5" xadvance="12" page="0" chnl="15" />
    <char id="264" x="198" y="0" width="15" height="25" xoffset="0" yoffset="1" xadvance="15" page="0" chnl="15" />
    <char id="265" x="480" y="75" width="12" height="21" xoffset="0" yoffset="5" xadvance="12" page="0" chnl="15" />
    <char id="266" x="271" y="26" width="15" height="24" xoffset="0" yoffset="2" xadvance="15" page="0" chnl="15" />
    <char id="267" x="175" y="119" width="12" height="20" xoffset="0" yoffset="6" xadvance="12" page="0" chnl="15" />
    <char id="268" x="230" y="0" width="15" height="25" xoffset="0" yoffset="1" xadvance="15" page="0" chnl="15" />
    <char id="269" x="415" y="75" width="12" height="21" xoffset="0" yoffset="5" xadvance="12" page="0" chnl="15" />
    <char id="270" x="319" y="26" width="14" height="24" xoffset="1" yoffset="1" xadvance="15" page="0" chnl="15" />
    <char id="271" x="42" y="145" width="18" height="19" xoffset="0" yoffset="6" xadvance="17" page="0" chnl="15" />
    <char id="272" x="253" y="140" width="15" height="19" xoffset="0" yoffset="6" xadvance="15" page="0" chnl="15" />
    <char id="273" x="484" y="138" width="14" height="19" xoffset="0" yoffset="6" xadvance="14" page="0" chnl="15" />
    <char id="274" x="108" y="76" width="12" height="22" xoffset="1" yoffset="3" xadvance="13" page="0" chnl="15" />
    <char id="275" x="30" y="166" width="13" height="19" xoffset="0" yoffset="7" xadvance="14" page="0" chnl="15" />
    <char id="276" x="26" y="53" width="12" height="24" xoffset="1" yoffset="1" xadvance="13" page="0" chnl="15" />
    <char id="277" x="317" y="75" width="13" height="21" xoffset="0" yoffset="5" xadvance="14" page="0" chnl="15" />
    <char id="278" x="0" y="79" width="12" height="23" xoffset="1" yoffset="2" xadvance="13" page="0" chnl="15" />
    <char id="279" x="28" y="125" width="13" height="20" xoffset="0" yoffset="6" xadvance="14" page="0" chnl="15" />
    <char id="280" x="13" y="79" width="12" height="23" xoffset="1" yoffset="7" xadvance="13" page="0" chnl="15" />
    <char id="281" x="58" y="165" width="13" height="19" xoffset="0" yoffset="11" xadvance="14" page="0" chnl="15" />
    <char id="282" x="65" y="51" width="12" height="24" xoffset="1" yoffset="1" xadvance="13" page="0" chnl="15" />
    <char id="283" x="373" y="75" width="13" height="21" xoffset="0" yoffset="5" xadvance="14" page="0" chnl="15" />
    <char id="284" x="134" y="0" width="15" height="25" xoffset="0" yoffset="1" xadvance="17" page="0" chnl="15" />
    <char id="285" x="450" y="0" width="12" height="25" xoffset="0" yoffset="5" xadvance="13" page="0" chnl="15" />
    <char id="286" x="214" y="0" width="15" height="25" xoffset="0" yoffset="1" xadvance="17" page="0" chnl="15" />
    <char id="287" x="424" y="0" width="12" height="25" xoffset="0" yoffset="5" xadvance="13" page="0" chnl="15" />
    <char id="288" x="255" y="26" width="15" height="24" xoffset="0" yoffset="2" xadvance="17" page="0" chnl="15" />
    <char id="289" x="91" y="51" width="12" height="24" xoffset="0" yoffset="6" xadvance="13" page="0" chnl="15" />
    <char id="290" x="166" y="0" width="15" height="25" xoffset="0" yoffset="6" xadvance="17" page="0" chnl="15" />
    <char id="291" x="0" y="0" width="12" height="27" xoffset="0" yoffset="3" xadvance="13" page="0" chnl="15" />
    <char id="292" x="379" y="26" width="14" height="24" xoffset="1" yoffset="1" xadvance="16" page="0" chnl="15" />
    <char id="293" x="167" y="51" width="11" height="24" xoffset="1" yoffset="1" xadvance="14" page="0" chnl="15" />
    <char id="294" x="71" y="185" width="18" height="18" xoffset="0" yoffset="7" xadvance="17" page="0" chnl="15" />
    <char id="295" x="454" y="139" width="14" height="19" xoffset="0" yoffset="6" xadvance="14" page="0" chnl="15" />
    <char id="296" x="144" y="76" width="9" height="22" xoffset="0" yoffset="3" xadvance="7" page="0" chnl="15" />
    <char id="297" x="464" y="159" width="9" height="19" xoffset="0" yoffset="6" xadvance="7" page="0" chnl="15" />
    <char id="298" x="133" y="76" width="10" height="22" xoffset="-1" yoffset="3" xadvance="7" page="0" chnl="15" />
    <char id="299" x="103" y="202" width="10" height="18" xoffset="-1" yoffset="7" xadvance="7" page="0" chnl="15" />
    <char id="300" x="223" y="51" width="9" height="24" xoffset="-1" yoffset="1" xadvance="7" page="0" chnl="15" />
    <char id="301" x="389" y="118" width="9" height="20" xoffset="0" yoffset="5" xadvance="7" page="0" chnl="15" />
    <char id="302" x="61" y="77" width="7" height="23" xoffset="1" yoffset="7" xadvance="7" page="0" chnl="15" />
    <char id="303" x="233" y="51" width="8" height="24" xoffset="0" yoffset="6" xadvance="7" page="0" chnl="15" />
    <char id="304" x="69" y="76" width="4" height="23" xoffset="2" yoffset="2" xadvance="7" page="0" chnl="15" />
    <char id="305" x="154" y="218" width="6" height="14" xoffset="0" yoffset="11" xadvance="7" page="0" chnl="15" />
    <char id="306" x="237" y="140" width="15" height="19" xoffset="2" yoffset="7" xadvance="18" page="0" chnl="15" />
    <char id="307" x="468" y="26" width="13" height="24" xoffset="0" yoffset="6" xadvance="15" page="0" chnl="15" />
    <char id="308" x="437" y="0" width="12" height="25" xoffset="0" yoffset="1" xadvance="12" page="0" chnl="15" />
    <char id="309" x="24" y="27" width="10" height="25" xoffset="0" yoffset="5" xadvance="9" page="0" chnl="15" />
    <char id="310" x="349" y="26" width="14" height="24" xoffset="1" yoffset="7" xadvance="14" page="0" chnl="15" />
    <char id="311" x="463" y="0" width="12" height="25" xoffset="1" yoffset="6" xadvance="13" page="0" chnl="15" />
    <char id="312" x="472" y="198" width="13" height="14" xoffset="1" yoffset="11" xadvance="14" page="0" chnl="15" />
    <char id="313" x="0" y="54" width="12" height="24" xoffset="1" yoffset="1" xadvance="13" page="0" chnl="15" />
    <char id="314" x="35" y="26" width="7" height="25" xoffset="1" yoffset="1" xadvance="7" page="0" chnl="15" />
    <char id="315" x="78" y="51" width="12" height="24" xoffset="1" yoffset="7" xadvance="13" page="0" chnl="15" />
    <char id="316" x="57" y="26" width="6" height="25" xoffset="1" yoffset="6" xadvance="7" page="0" chnl="15" />
    <char id="317" x="499" y="138" width="12" height="19" xoffset="1" yoffset="6" xadvance="13" page="0" chnl="15" />
    <char id="318" x="429" y="118" width="8" height="20" xoffset="1" yoffset="6" xadvance="7" page="0" chnl="15" />
    <char id="319" x="452" y="179" width="12" height="18" xoffset="1" yoffset="7" xadvance="13" page="0" chnl="15" />
    <char id="320" x="399" y="118" width="9" height="20" xoffset="1" yoffset="6" xadvance="8" page="0" chnl="15" />
    <char id="321" x="350" y="179" width="14" height="18" xoffset="0" yoffset="7" xadvance="13" page="0" chnl="15" />
    <char id="322" x="446" y="118" width="7" height="20" xoffset="0" yoffset="6" xadvance="7" page="0" chnl="15" />
    <char id="323" x="307" y="0" width="14" height="25" xoffset="1" yoffset="1" xadvance="16" page="0" chnl="15" />
    <char id="324" x="310" y="118" width="11" height="20" xoffset="1" yoffset="5" xadvance="14" page="0" chnl="15" />
    <char id="325" x="364" y="26" width="14" height="24" xoffset="1" yoffset="7" xadvance="16" page="0" chnl="15" />
    <char id="326" x="334" y="118" width="11" height="20" xoffset="1" yoffset="11" xadvance="14" page="0" chnl="15" />
    <char id="327" x="322" y="0" width="14" height="25" xoffset="1" yoffset="1" xadvance="16" page="0" chnl="15" />
    <char id="328" x="226" y="119" width="11" height="20" xoffset="1" yoffset="5" xadvance="14" page="0" chnl="15" />
    <char id="329" x="333" y="139" width="15" height="19" xoffset="0" yoffset="6" xadvance="16" page="0" chnl="15" />
    <char id="330" x="363" y="97" width="14" height="20" xoffset="1" yoffset="6" xadvance="16" page="0" chnl="15" />
    <char id="331" x="365" y="159" width="11" height="19" xoffset="1" yoffset="11" xadvance="14" page="0" chnl="15" />
    <char id="332" x="351" y="51" width="16" height="23" xoffset="0" yoffset="3" xadvance="17" page="0" chnl="15" />
    <char id="333" x="72" y="164" width="13" height="19" xoffset="0" yoffset="7" xadvance="13" page="0" chnl="15" />
    <char id="334" x="100" y="0" width="16" height="25" xoffset="0" yoffset="1" xadvance="17" page="0" chnl="15" />
    <char id="335" x="359" y="75" width="13" height="21" xoffset="0" yoffset="5" xadvance="13" page="0" chnl="15" />
    <char id="336" x="139" y="26" width="16" height="24" xoffset="0" yoffset="2" xadvance="17" page="0" chnl="15" />
    <char id="337" x="205" y="76" width="13" height="21" xoffset="0" yoffset="5" xadvance="13" page="0" chnl="15" />
    <char id="338" x="109" y="99" width="25" height="20" xoffset="0" yoffset="6" xadvance="25" page="0" chnl="15" />
    <char id="339" x="195" y="200" width="23" height="15" xoffset="0" yoffset="11" xadvance="23" page="0" chnl="15" />
    <char id="340" x="424" y="26" width="14" height="24" xoffset="1" yoffset="1" xadvance="15" page="0" chnl="15" />
    <char id="341" x="379" y="118" width="9" height="20" xoffset="1" yoffset="5" xadvance="10" page="0" chnl="15" />
    <char id="342" x="277" y="0" width="14" height="25" xoffset="1" yoffset="6" xadvance="15" page="0" chnl="15" />
    <char id="343" x="419" y="118" width="9" height="20" xoffset="1" yoffset="11" xadvance="10" page="0" chnl="15" />
    <char id="344" x="394" y="26" width="14" height="24" xoffset="1" yoffset="1" xadvance="15" page="0" chnl="15" />
    <char id="345" x="357" y="118" width="10" height="20" xoffset="1" yoffset="5" xadvance="10" page="0" chnl="15" />
    <char id="346" x="476" y="0" width="11" height="25" xoffset="0" yoffset="1" xadvance="12" page="0" chnl="15" />
    <char id="347" x="37" y="102" width="10" height="21" xoffset="0" yoffset="5" xadvance="10" page="0" chnl="15" />
    <char id="348" x="12" y="28" width="11" height="25" xoffset="0" yoffset="1" xadvance="12" page="0" chnl="15" />
    <char id="349" x="48" y="101" width="10" height="21" xoffset="0" yoffset="5" xadvance="10" page="0" chnl="15" />
    <char id="350" x="0" y="28" width="11" height="25" xoffset="0" yoffset="6" xadvance="12" page="0" chnl="15" />
    <char id="351" x="346" y="118" width="10" height="20" xoffset="0" yoffset="11" xadvance="10" page="0" chnl="15" />
    <char id="352" x="500" y="0" width="11" height="25" xoffset="0" yoffset="1" xadvance="12" page="0" chnl="15" />
    <char id="353" x="59" y="101" width="10" height="21" xoffset="0" yoffset="5" xadvance="10" page="0" chnl="15" />
    <char id="354" x="207" y="26" width="15" height="24" xoffset="0" yoffset="7" xadvance="15" page="0" chnl="15" />
    <char id="355" x="500" y="51" width="10" height="23" xoffset="0" yoffset="8" xadvance="10" page="0" chnl="15" />
    <char id="356" x="303" y="26" width="15" height="24" xoffset="0" yoffset="1" xadvance="15" page="0" chnl="15" />
    <char id="357" x="86" y="163" width="13" height="19" xoffset="0" yoffset="7" xadvance="12" page="0" chnl="15" />
    <char id="358" x="163" y="181" width="15" height="18" xoffset="0" yoffset="7" xadvance="15" page="0" chnl="15" />
    <char id="359" x="114" y="200" width="10" height="18" xoffset="0" yoffset="8" xadvance="10" page="0" chnl="15" />
    <char id="360" x="430" y="51" width="14" height="23" xoffset="1" yoffset="3" xadvance="16" page="0" chnl="15" />
    <char id="361" x="162" y="120" width="12" height="20" xoffset="1" yoffset="6" xadvance="14" page="0" chnl="15" />
    <char id="362" x="400" y="51" width="14" height="23" xoffset="1" yoffset="3" xadvance="16" page="0" chnl="15" />
    <char id="363" x="224" y="160" width="12" height="19" xoffset="1" yoffset="7" xadvance="14" page="0" chnl="15" />
    <char id="364" x="352" y="0" width="14" height="25" xoffset="1" yoffset="1" xadvance="16" page="0" chnl="15" />
    <char id="365" x="428" y="75" width="12" height="21" xoffset="1" yoffset="5" xadvance="14" page="0" chnl="15" />
    <char id="366" x="292" y="0" width="14" height="25" xoffset="1" yoffset="1" xadvance="16" page="0" chnl="15" />
    <char id="367" x="26" y="78" width="12" height="23" xoffset="1" yoffset="3" xadvance="14" page="0" chnl="15" />
    <char id="368" x="409" y="26" width="14" height="24" xoffset="1" yoffset="2" xadvance="16" page="0" chnl="15" />
    <char id="369" x="0" y="103" width="12" height="21" xoffset="1" yoffset="5" xadvance="14" page="0" chnl="15" />
    <char id="370" x="445" y="51" width="14" height="23" xoffset="1" yoffset="7" xadvance="16" page="0" chnl="15" />
    <char id="371" x="424" y="139" width="14" height="19" xoffset="1" yoffset="11" xadvance="14" page="0" chnl="15" />
    <char id="372" x="25" y="0" width="23" height="25" xoffset="0" yoffset="1" xadvance="21" page="0" chnl="15" />
    <char id="373" x="185" y="76" width="19" height="21" xoffset="0" yoffset="5" xadvance="19" page="0" chnl="15" />
    <char id="374" x="223" y="26" width="15" height="24" xoffset="0" yoffset="1" xadvance="14" page="0" chnl="15" />
    <char id="375" x="382" y="0" width="13" height="25" xoffset="0" yoffset="5" xadvance="12" page="0" chnl="15" />
    <char id="376" x="384" y="51" width="15" height="23" xoffset="0" yoffset="2" xadvance="14" page="0" chnl="15" />
    <char id="377" x="39" y="52" width="12" height="24" xoffset="1" yoffset="1" xadvance="14" page="0" chnl="15" />
    <char id="378" x="110" y="120" width="12" height="20" xoffset="0" yoffset="5" xadvance="12" page="0" chnl="15" />
    <char id="379" x="474" y="51" width="12" height="23" xoffset="1" yoffset="2" xadvance="14" page="0" chnl="15" />
    <char id="380" x="315" y="160" width="12" height="19" xoffset="0" yoffset="6" xadvance="12" page="0" chnl="15" />
    <char id="381" x="496" y="26" width="12" height="24" xoffset="1" yoffset="1" xadvance="14" page="0" chnl="15" />
    <char id="382" x="97" y="120" width="12" height="20" xoffset="0" yoffset="5" xadvance="12" page="0" chnl="15" />
    <char id="383" x="474" y="159" width="8" height="19" xoffset="1" yoffset="6" xadvance="8" page="0" chnl="15" />
    <char id="402" x="454" y="26" width="13" height="24" xoffset="-2" yoffset="6" xadvance="10" page="0" chnl="15" />
    <char id="506" x="287" y="26" width="15" height="24" xoffset="0" yoffset="1" xadvance="15" page="0" chnl="15" />
    <char id="507" x="396" y="0" width="13" height="25" xoffset="0" yoffset="1" xadvance="13" page="0" chnl="15" />
    <char id="508" x="64" y="26" width="22" height="24" xoffset="0" yoffset="1" xadvance="22" page="0" chnl="15" />
    <char id="509" x="162" y="76" width="22" height="21" xoffset="0" yoffset="5" xadvance="22" page="0" chnl="15" />
    <char id="510" x="117" y="0" width="16" height="25" xoffset="0" yoffset="1" xadvance="16" page="0" chnl="15" />
    <char id="511" x="289" y="75" width="13" height="21" xoffset="0" yoffset="5" xadvance="14" page="0" chnl="15" />
    <char id="536" x="13" y="0" width="11" height="26" xoffset="0" yoffset="6" xadvance="12" page="0" chnl="15" />
    <char id="537" x="70" y="100" width="10" height="21" xoffset="0" yoffset="11" xadvance="10" page="0" chnl="15" />
    <char id="538" x="150" y="0" width="15" height="25" xoffset="0" yoffset="7" xadvance="15" page="0" chnl="15" />
    <char id="539" x="212" y="51" width="10" height="24" xoffset="0" yoffset="8" xadvance="10" page="0" chnl="15" />
    <char id="894" x="504" y="158" width="5" height="19" xoffset="2" yoffset="11" xadvance="9" page="0" chnl="15" />
    <char id="900" x="497" y="213" width="5" height="4" xoffset="4" yoffset="5" xadvance="13" page="0" chnl="15" />
    <char id="901" x="454" y="213" width="11" height="5" xoffset="1" yoffset="4" xadvance="13" page="0" chnl="15" />
    <char id="902" x="135" y="141" width="16" height="19" xoffset="0" yoffset="6" xadvance="15" page="0" chnl="15" />
    <char id="903" x="479" y="213" width="5" height="4" xoffset="2" yoffset="15" xadvance="9" page="0" chnl="15" />
    <char id="904" x="109" y="181" width="18" height="18" xoffset="-1" yoffset="7" xadvance="16" page="0" chnl="15" />
    <char id="905" x="50" y="185" width="20" height="18" xoffset="-1" yoffset="7" xadvance="19" page="0" chnl="15" />
    <char id="906" x="136" y="200" width="9" height="18" xoffset="-1" yoffset="7" xadvance="9" page="0" chnl="15" />
    <char id="908" x="0" y="146" width="20" height="19" xoffset="-1" yoffset="6" xadvance="18" page="0" chnl="15" />
    <char id="910" x="29" y="186" width="20" height="18" xoffset="-1" yoffset="7" xadvance="18" page="0" chnl="15" />
    <char id="911" x="21" y="146" width="20" height="19" xoffset="-1" yoffset="6" xadvance="19" page="0" chnl="15" />
    <char id="912" x="13" y="103" width="11" height="21" xoffset="-2" yoffset="4" xadvance="7" page="0" chnl="15" />
    <char id="913" x="169" y="141" width="16" height="19" xoffset="0" yoffset="6" xadvance="15" page="0" chnl="15" />
    <char id="914" x="424" y="179" width="13" height="18" xoffset="1" yoffset="7" xadvance="14" page="0" chnl="15" />
    <char id="915" x="0" y="206" width="12" height="18" xoffset="1" yoffset="7" xadvance="13" page="0" chnl="15" />
    <char id="916" x="227" y="180" width="15" height="18" xoffset="0" yoffset="7" xadvance="15" page="0" chnl="15" />
    <char id="917" x="13" y="205" width="12" height="18" xoffset="1" yoffset="7" xadvance="13" page="0" chnl="15" />
    <char id="918" x="26" y="205" width="12" height="18" xoffset="1" yoffset="7" xadvance="14" page="0" chnl="15" />
    <char id="919" x="395" y="179" width="14" height="18" xoffset="1" yoffset="7" xadvance="16" page="0" chnl="15" />
    <char id="920" x="117" y="141" width="17" height="19" xoffset="0" yoffset="6" xadvance="17" page="0" chnl="15" />
    <char id="921" x="504" y="178" width="3" height="18" xoffset="2" yoffset="7" xadvance="7" page="0" chnl="15" />
    <char id="922" x="365" y="179" width="14" height="18" xoffset="1" yoffset="7" xadvance="14" page="0" chnl="15" />
    <char id="923" x="285" y="140" width="15" height="19" xoffset="0" yoffset="6" xadvance="15" page="0" chnl="15" />
    <char id="924" x="128" y="181" width="18" height="18" xoffset="0" yoffset="7" xadvance="18" page="0" chnl="15" />
    <char id="925" x="380" y="179" width="14" height="18" xoffset="1" yoffset="7" xadvance="16" page="0" chnl="15" />
    <char id="926" x="410" y="179" width="13" height="18" xoffset="1" yoffset="7" xadvance="15" page="0" chnl="15" />
    <char id="927" x="152" y="141" width="16" height="19" xoffset="0" yoffset="6" xadvance="17" page="0" chnl="15" />
    <char id="928" x="438" y="179" width="13" height="18" xoffset="1" yoffset="7" xadvance="16" page="0" chnl="15" />
    <char id="929" x="39" y="205" width="12" height="18" xoffset="1" yoffset="7" xadvance="14" page="0" chnl="15" />
    <char id="931" x="275" y="180" width="14" height="18" xoffset="0" yoffset="7" xadvance="14" page="0" chnl="15" />
    <char id="932" x="211" y="180" width="15" height="18" xoffset="0" yoffset="7" xadvance="15" page="0" chnl="15" />
    <char id="933" x="195" y="181" width="15" height="18" xoffset="0" yoffset="7" xadvance="14" page="0" chnl="15" />
    <char id="934" x="155" y="99" width="19" height="20" xoffset="0" yoffset="6" xadvance="19" page="0" chnl="15" />
    <char id="935" x="290" y="180" width="14" height="18" xoffset="0" yoffset="7" xadvance="14" page="0" chnl="15" />
    <char id="936" x="90" y="183" width="18" height="18" xoffset="1" yoffset="7" xadvance="19" page="0" chnl="15" />
    <char id="937" x="186" y="140" width="16" height="19" xoffset="0" yoffset="6" xadvance="17" page="0" chnl="15" />
    <char id="938" x="50" y="77" width="10" height="23" xoffset="-1" yoffset="2" xadvance="7" page="0" chnl="15" />
    <char id="939" x="368" y="51" width="15" height="23" xoffset="0" yoffset="2" xadvance="14" page="0" chnl="15" />
    <char id="940" x="348" y="97" width="14" height="20" xoffset="0" yoffset="5" xadvance="15" page="0" chnl="15" />
    <char id="941" x="286" y="119" width="11" height="20" xoffset="0" yoffset="5" xadvance="12" page="0" chnl="15" />
    <char id="942" x="143" y="51" width="11" height="24" xoffset="1" yoffset="5" xadvance="14" page="0" chnl="15" />
    <char id="943" x="506" y="75" width="5" height="20" xoffset="1" yoffset="5" xadvance="7" page="0" chnl="15" />
    <char id="944" x="25" y="103" width="11" height="21" xoffset="1" yoffset="4" xadvance="14" page="0" chnl="15" />
    <char id="945" x="427" y="198" width="14" height="14" xoffset="0" yoffset="11" xadvance="15" page="0" chnl="15" />
    <char id="946" x="44" y="165" width="13" height="19" xoffset="1" yoffset="6" xadvance="14" page="0" chnl="15" />
    <char id="947" x="364" y="139" width="14" height="19" xoffset="0" yoffset="11" xadvance="14" page="0" chnl="15" />
    <char id="948" x="100" y="161" width="13" height="19" xoffset="0" yoffset="6" xadvance="14" page="0" chnl="15" />
    <char id="949" x="120" y="219" width="11" height="14" xoffset="0" yoffset="11" xadvance="12" page="0" chnl="15" />
    <char id="950" x="52" y="52" width="12" height="24" xoffset="0" yoffset="6" xadvance="11" page="0" chnl="15" />
    <char id="951" x="91" y="202" width="11" height="18" xoffset="1" yoffset="11" xadvance="14" page="0" chnl="15" />
    <char id="952" x="128" y="161" width="13" height="19" xoffset="0" yoffset="6" xadvance="14" page="0" chnl="15" />
    <char id="953" x="161" y="218" width="5" height="14" xoffset="1" yoffset="11" xadvance="7" page="0" chnl="15" />
    <char id="954" x="14" y="224" width="13" height="14" xoffset="1" yoffset="11" xadvance="14" page="0" chnl="15" />
    <char id="955" x="409" y="139" width="14" height="19" xoffset="0" yoffset="6" xadvance="13" page="0" chnl="15" />
    <char id="956" x="262" y="119" width="11" height="20" xoffset="1" yoffset="11" xadvance="14" page="0" chnl="15" />
    <char id="957" x="28" y="224" width="13" height="14" xoffset="0" yoffset="11" xadvance="12" page="0" chnl="15" />
    <char id="958" x="155" y="51" width="11" height="24" xoffset="0" yoffset="6" xadvance="11" page="0" chnl="15" />
    <char id="959" x="42" y="224" width="13" height="14" xoffset="0" yoffset="11" xadvance="14" page="0" chnl="15" />
    <char id="960" x="457" y="198" width="14" height="14" xoffset="1" yoffset="11" xadvance="15" page="0" chnl="15" />
    <char id="961" x="184" y="161" width="13" height="19" xoffset="1" yoffset="11" xadvance="14" page="0" chnl="15" />
    <char id="962" x="250" y="160" width="12" height="19" xoffset="0" yoffset="11" xadvance="11" page="0" chnl="15" />
    <char id="963" x="442" y="198" width="14" height="14" xoffset="0" yoffset="11" xadvance="14" page="0" chnl="15" />
    <char id="964" x="500" y="197" width="11" height="14" xoffset="0" yoffset="11" xadvance="11" page="0" chnl="15" />
    <char id="965" x="108" y="221" width="11" height="14" xoffset="1" yoffset="11" xadvance="14" page="0" chnl="15" />
    <char id="966" x="99" y="141" width="17" height="19" xoffset="0" yoffset="11" xadvance="18" page="0" chnl="15" />
    <char id="967" x="0" y="225" width="13" height="14" xoffset="0" yoffset="11" xadvance="13" page="0" chnl="15" />
    <char id="968" x="203" y="140" width="16" height="19" xoffset="1" yoffset="11" xadvance="18" page="0" chnl="15" />
    <char id="969" x="388" y="198" width="19" height="14" xoffset="0" yoffset="11" xadvance="19" page="0" chnl="15" />
    <char id="970" x="400" y="159" width="10" height="19" xoffset="-1" yoffset="6" xadvance="7" page="0" chnl="15" />
    <char id="971" x="377" y="159" width="11" height="19" xoffset="1" yoffset="6" xadvance="14" page="0" chnl="15" />
    <char id="972" x="14" y="125" width="13" height="20" xoffset="0" yoffset="5" xadvance="14" page="0" chnl="15" />
    <char id="973" x="322" y="118" width="11" height="20" xoffset="1" yoffset="5" xadvance="14" page="0" chnl="15" />
    <char id="974" x="175" y="98" width="19" height="20" xoffset="0" yoffset="5" xadvance="19" page="0" chnl="15" />
    <char id="8355" x="320" y="180" width="14" height="18" xoffset="0" yoffset="7" xadvance="13" page="0" chnl="15" />
    <char id="8356" x="276" y="160" width="12" height="19" xoffset="1" yoffset="6" xadvance="13" page="0" chnl="15" />
    <char id="8359" x="81" y="99" width="27" height="20" xoffset="1" yoffset="6" xadvance="28" page="0" chnl="15" />
    <char id="8364" x="378" y="97" width="14" height="20" xoffset="0" yoffset="6" xadvance="13" page="0" chnl="15" />
    <char id="8706" x="42" y="124" width="13" height="20" xoffset="0" yoffset="6" xadvance="14" page="0" chnl="15" />
    <char id="8710" x="243" y="180" width="15" height="18" xoffset="0" yoffset="7" xadvance="15" page="0" chnl="15" />
    <char id="8719" x="393" y="97" width="14" height="20" xoffset="0" yoffset="7" xadvance="14" page="0" chnl="15" />
    <char id="8721" x="56" y="123" width="13" height="20" xoffset="0" yoffset="7" xadvance="13" page="0" chnl="15" />
    <char id="8722" x="80" y="238" width="12" height="2" xoffset="1" yoffset="16" xadvance="13" page="0" chnl="15" />
    <char id="8725" x="408" y="97" width="14" height="20" xoffset="0" yoffset="6" xadvance="13" page="0" chnl="15" />
    <char id="8729" x="503" y="212" width="5" height="4" xoffset="2" yoffset="15" xadvance="9" page="0" chnl="15" />
    <char id="8730" x="0" y="166" width="14" height="19" xoffset="0" yoffset="6" xadvance="13" page="0" chnl="15" />
    <char id="8734" x="433" y="213" width="13" height="6" xoffset="0" yoffset="14" xadvance="13" page="0" chnl="15" />
    <char id="8747" x="439" y="26" width="14" height="24" xoffset="0" yoffset="6" xadvance="13" page="0" chnl="15" />
    <char id="8776" x="387" y="214" width="10" height="7" xoffset="1" yoffset="14" xadvance="13" page="0" chnl="15" />
    <char id="8800" x="221" y="215" width="12" height="12" xoffset="1" yoffset="11" xadvance="13" page="0" chnl="15" />
    <char id="8804" x="82" y="223" width="12" height="14" xoffset="1" yoffset="12" xadvance="13" page="0" chnl="15" />
    <char id="8805" x="95" y="221" width="12" height="14" xoffset="1" yoffset="12" xadvance="13" page="0" chnl="15" />
    <char id="9633" x="181" y="218" width="13" height="12" xoffset="1" yoffset="13" xadvance="15" page="0" chnl="15" />
    <char id="9642" x="409" y="213" width="7" height="7" xoffset="1" yoffset="13" xadvance="9" page="0" chnl="15" />
    <char id="9643" x="417" y="213" width="7" height="7" xoffset="1" yoffset="13" xadvance="9" page="0" chnl="15" />
    <char id="9674" x="52" y="204" width="12" height="18" xoffset="0" yoffset="7" xadvance="12" page="0" chnl="15" />
    <char id="9679" x="208" y="216" width="12" height="12" xoffset="2" yoffset="12" xadvance="15" page="0" chnl="15" />
    <char id="9702" x="425" y="213" width="7" height="7" xoffset="1" yoffset="13" xadvance="9" page="0" chnl="15" />
  </chars>
  <kernings count="96">
    <kerning first="32" second="65" amount="-1" />
    <kerning first="121" second="46" amount="-3" />
    <kerning first="121" second="44" amount="-3" />
    <kerning first="65" second="32" amount="-1" />
    <kerning first="65" second="84" amount="-2" />
    <kerning first="65" second="86" amount="-2" />
    <kerning first="65" second="87" amount="-2" />
    <kerning first="65" second="89" amount="-3" />
    <kerning first="65" second="118" amount="-1" />
    <kerning first="65" second="119" amount="-1" />
    <kerning first="65" second="121" amount="-1" />
    <kerning first="119" second="46" amount="-3" />
    <kerning first="70" second="44" amount="-5" />
    <kerning first="70" second="46" amount="-5" />
    <kerning first="70" second="65" amount="-3" />
    <kerning first="75" second="101" amount="-1" />
    <kerning first="75" second="105" amount="-1" />
    <kerning first="75" second="110" amount="-1" />
    <kerning first="75" second="111" amount="-1" />
    <kerning first="75" second="117" amount="-1" />
    <kerning first="75" second="119" amount="-1" />
    <kerning first="76" second="32" amount="-1" />
    <kerning first="76" second="84" amount="-3" />
    <kerning first="76" second="86" amount="-4" />
    <kerning first="76" second="87" amount="-3" />
    <kerning first="76" second="89" amount="-3" />
    <kerning first="76" second="121" amount="-2" />
    <kerning first="119" second="44" amount="-3" />
    <kerning first="118" second="46" amount="-3" />
    <kerning first="80" second="44" amount="-5" />
    <kerning first="80" second="46" amount="-5" />
    <kerning first="80" second="65" amount="-3" />
    <kerning first="80" second="97" amount="-1" />
    <kerning first="80" second="101" amount="-1" />
    <kerning first="80" second="104" amount="-1" />
    <kerning first="80" second="105" amount="-1" />
    <kerning first="80" second="111" amount="-1" />
    <kerning first="80" second="114" amount="-1" />
    <kerning first="82" second="84" amount="-1" />
    <kerning first="82" second="86" amount="-1" />
    <kerning first="82" second="87" amount="-2" />
    <kerning first="82" second="89" amount="-2" />
    <kerning first="82" second="101" amount="-1" />
    <kerning first="82" second="111" amount="-1" />
    <kerning first="82" second="117" amount="-1" />
    <kerning first="118" second="44" amount="-3" />
    <kerning first="84" second="44" amount="-4" />
    <kerning first="114" second="46" amount="-3" />
    <kerning first="84" second="46" amount="-4" />
    <kerning first="84" second="58" amount="-3" />
    <kerning first="84" second="59" amount="-3" />
    <kerning first="84" second="65" amount="-2" />
    <kerning first="84" second="79" amount="-1" />
    <kerning first="84" second="97" amount="-3" />
    <kerning first="84" second="99" amount="-3" />
    <kerning first="84" second="101" amount="-3" />
    <kerning first="84" second="105" amount="-1" />
    <kerning first="84" second="111" amount="-3" />
    <kerning first="84" second="114" amount="-3" />
    <kerning first="84" second="115" amount="-3" />
    <kerning first="84" second="117" amount="-3" />
    <kerning first="84" second="119" amount="-4" />
    <kerning first="84" second="121" amount="-3" />
    <kerning first="86" second="44" amount="-4" />
    <kerning first="114" second="44" amount="-4" />
    <kerning first="86" second="46" amount="-4" />
    <kerning first="86" second="58" amount="-1" />
    <kerning first="86" second="59" amount="-1" />
    <kerning first="86" second="65" amount="-3" />
    <kerning first="86" second="97" amount="-2" />
    <kerning first="86" second="101" amount="-2" />
    <kerning first="89" second="118" amount="-1" />
    <kerning first="86" second="111" amount="-2" />
    <kerning first="86" second="114" amount="-1" />
    <kerning first="86" second="117" amount="-2" />
    <kerning first="86" second="121" amount="-1" />
    <kerning first="87" second="44" amount="-2" />
    <kerning first="89" second="117" amount="-2" />
    <kerning first="87" second="46" amount="-2" />
    <kerning first="89" second="113" amount="-3" />
    <kerning first="89" second="112" amount="-2" />
    <kerning first="87" second="65" amount="-2" />
    <kerning first="87" second="97" amount="-1" />
    <kerning first="87" second="101" amount="-1" />
    <kerning first="89" second="111" amount="-3" />
    <kerning first="87" second="111" amount="-1" />
    <kerning first="87" second="114" amount="-1" />
    <kerning first="87" second="117" amount="-1" />
    <kerning first="89" second="105" amount="-1" />
    <kerning first="89" second="101" amount="-3" />
    <kerning first="89" second="44" amount="-4" />
    <kerning first="89" second="97" amount="-2" />
    <kerning first="89" second="46" amount="-4" />
    <kerning first="89" second="58" amount="-2" />
    <kerning first="89" second="59" amount="-2" />
    <kerning first="89" second="65" amount="-3" />
  </kernings>
</font>
