<?xml version="1.0"?>
<font>
  <info face="Trebuchet MS" size="24" bold="0" italic="1" charset="" unicode="1" stretchH="100" smooth="1" aa="2" padding="0,0,0,0" spacing="1,1" outline="0"/>
  <common lineHeight="24" base="19" scaleW="512" scaleH="256" pages="1" packed="0" alphaChnl="0" redChnl="4" greenChnl="4" blueChnl="4"/>
  <pages>
    <page id="0" file="TrebuchetMS_24_italic_0.png" />
  </pages>
  <chars count="428">
    <char id="-1" x="42" y="150" width="8" height="8" xoffset="1" yoffset="8" xadvance="10" page="0" chnl="15" />
    <char id="32" x="508" y="66" width="2" height="1" xoffset="0" yoffset="23" xadvance="6" page="0" chnl="15" />
    <char id="33" x="279" y="73" width="5" height="15" xoffset="1" yoffset="4" xadvance="7" page="0" chnl="15" />
    <char id="34" x="180" y="146" width="6" height="4" xoffset="1" yoffset="4" xadvance="6" page="0" chnl="15" />
    <char id="35" x="315" y="57" width="11" height="15" xoffset="0" yoffset="4" xadvance="10" page="0" chnl="15" />
    <char id="36" x="41" y="39" width="9" height="18" xoffset="1" yoffset="3" xadvance="9" page="0" chnl="15" />
    <char id="37" x="212" y="89" width="13" height="14" xoffset="0" yoffset="5" xadvance="11" page="0" chnl="15" />
    <char id="38" x="95" y="58" width="13" height="15" xoffset="1" yoffset="4" xadvance="14" page="0" chnl="15" />
    <char id="39" x="508" y="59" width="3" height="4" xoffset="1" yoffset="4" xadvance="3" page="0" chnl="15" />
    <char id="40" x="108" y="39" width="7" height="18" xoffset="1" yoffset="5" xadvance="7" page="0" chnl="15" />
    <char id="41" x="100" y="39" width="7" height="18" xoffset="0" yoffset="5" xadvance="7" page="0" chnl="15" />
    <char id="42" x="78" y="147" width="7" height="7" xoffset="1" yoffset="4" xadvance="7" page="0" chnl="15" />
    <char id="43" x="473" y="130" width="9" height="9" xoffset="0" yoffset="8" xadvance="10" page="0" chnl="15" />
    <char id="44" x="125" y="146" width="4" height="6" xoffset="1" yoffset="16" xadvance="7" page="0" chnl="15" />
    <char id="45" x="287" y="145" width="5" height="2" xoffset="1" yoffset="12" xadvance="7" page="0" chnl="15" />
    <char id="46" x="237" y="145" width="4" height="3" xoffset="1" yoffset="16" xadvance="7" page="0" chnl="15" />
    <char id="47" x="385" y="118" width="7" height="14" xoffset="1" yoffset="5" xadvance="10" page="0" chnl="15" />
    <char id="48" x="318" y="103" width="11" height="14" xoffset="0" yoffset="5" xadvance="10" page="0" chnl="15" />
    <char id="49" x="393" y="118" width="6" height="14" xoffset="3" yoffset="5" xadvance="10" page="0" chnl="15" />
    <char id="50" x="88" y="120" width="10" height="14" xoffset="0" yoffset="5" xadvance="10" page="0" chnl="15" />
    <char id="51" x="99" y="120" width="10" height="14" xoffset="0" yoffset="5" xadvance="10" page="0" chnl="15" />
    <char id="52" x="110" y="120" width="10" height="14" xoffset="0" yoffset="5" xadvance="10" page="0" chnl="15" />
    <char id="53" x="121" y="120" width="10" height="14" xoffset="0" yoffset="5" xadvance="10" page="0" chnl="15" />
    <char id="54" x="132" y="120" width="10" height="14" xoffset="0" yoffset="5" xadvance="10" page="0" chnl="15" />
    <char id="55" x="402" y="103" width="11" height="14" xoffset="0" yoffset="5" xadvance="10" page="0" chnl="15" />
    <char id="56" x="143" y="120" width="10" height="14" xoffset="0" yoffset="5" xadvance="10" page="0" chnl="15" />
    <char id="57" x="295" y="119" width="9" height="14" xoffset="1" yoffset="5" xadvance="10" page="0" chnl="15" />
    <char id="58" x="445" y="131" width="5" height="10" xoffset="1" yoffset="9" xadvance="7" page="0" chnl="15" />
    <char id="59" x="43" y="136" width="5" height="13" xoffset="1" yoffset="9" xadvance="7" page="0" chnl="15" />
    <char id="60" x="51" y="149" width="8" height="8" xoffset="1" yoffset="9" xadvance="10" page="0" chnl="15" />
    <char id="61" x="141" y="146" width="9" height="5" xoffset="1" yoffset="10" xadvance="10" page="0" chnl="15" />
    <char id="62" x="33" y="150" width="8" height="8" xoffset="2" yoffset="9" xadvance="10" page="0" chnl="15" />
    <char id="63" x="377" y="118" width="7" height="14" xoffset="1" yoffset="5" xadvance="7" page="0" chnl="15" />
    <char id="64" x="18" y="59" width="15" height="15" xoffset="0" yoffset="6" xadvance="15" page="0" chnl="15" />
    <char id="65" x="104" y="105" width="12" height="14" xoffset="0" yoffset="5" xadvance="12" page="0" chnl="15" />
    <char id="66" x="234" y="104" width="11" height="14" xoffset="0" yoffset="5" xadvance="11" page="0" chnl="15" />
    <char id="67" x="246" y="104" width="11" height="14" xoffset="1" yoffset="5" xadvance="11" page="0" chnl="15" />
    <char id="68" x="184" y="89" width="13" height="14" xoffset="0" yoffset="5" xadvance="12" page="0" chnl="15" />
    <char id="69" x="117" y="105" width="12" height="14" xoffset="0" yoffset="5" xadvance="10" page="0" chnl="15" />
    <char id="70" x="39" y="106" width="12" height="14" xoffset="0" yoffset="5" xadvance="10" page="0" chnl="15" />
    <char id="71" x="26" y="106" width="12" height="14" xoffset="0" yoffset="5" xadvance="13" page="0" chnl="15" />
    <char id="72" x="394" y="88" width="13" height="14" xoffset="0" yoffset="5" xadvance="13" page="0" chnl="15" />
    <char id="73" x="406" y="118" width="5" height="14" xoffset="0" yoffset="5" xadvance="5" page="0" chnl="15" />
    <char id="74" x="242" y="119" width="10" height="14" xoffset="0" yoffset="5" xadvance="9" page="0" chnl="15" />
    <char id="75" x="0" y="106" width="12" height="14" xoffset="0" yoffset="5" xadvance="11" page="0" chnl="15" />
    <char id="76" x="253" y="119" width="10" height="14" xoffset="0" yoffset="5" xadvance="10" page="0" chnl="15" />
    <char id="77" x="16" y="91" width="15" height="14" xoffset="0" yoffset="5" xadvance="15" page="0" chnl="15" />
    <char id="78" x="408" y="87" width="13" height="14" xoffset="0" yoffset="5" xadvance="12" page="0" chnl="15" />
    <char id="79" x="296" y="88" width="13" height="14" xoffset="0" yoffset="5" xadvance="13" page="0" chnl="15" />
    <char id="80" x="169" y="105" width="12" height="14" xoffset="0" yoffset="5" xadvance="10" page="0" chnl="15" />
    <char id="81" x="428" y="0" width="15" height="18" xoffset="0" yoffset="5" xadvance="13" page="0" chnl="15" />
    <char id="82" x="366" y="103" width="11" height="14" xoffset="0" yoffset="5" xadvance="11" page="0" chnl="15" />
    <char id="83" x="315" y="118" width="9" height="14" xoffset="0" yoffset="5" xadvance="9" page="0" chnl="15" />
    <char id="84" x="435" y="87" width="12" height="14" xoffset="1" yoffset="5" xadvance="11" page="0" chnl="15" />
    <char id="85" x="78" y="105" width="12" height="14" xoffset="1" yoffset="5" xadvance="12" page="0" chnl="15" />
    <char id="86" x="487" y="86" width="12" height="14" xoffset="1" yoffset="5" xadvance="11" page="0" chnl="15" />
    <char id="87" x="370" y="73" width="17" height="14" xoffset="1" yoffset="5" xadvance="16" page="0" chnl="15" />
    <char id="88" x="124" y="90" width="14" height="14" xoffset="-1" yoffset="5" xadvance="11" page="0" chnl="15" />
    <char id="89" x="182" y="105" width="12" height="14" xoffset="1" yoffset="5" xadvance="11" page="0" chnl="15" />
    <char id="90" x="306" y="103" width="11" height="14" xoffset="0" yoffset="5" xadvance="10" page="0" chnl="15" />
    <char id="91" x="11" y="40" width="9" height="18" xoffset="0" yoffset="5" xadvance="7" page="0" chnl="15" />
    <char id="92" x="418" y="117" width="5" height="14" xoffset="1" yoffset="5" xadvance="7" page="0" chnl="15" />
    <char id="93" x="61" y="39" width="9" height="18" xoffset="0" yoffset="5" xadvance="7" page="0" chnl="15" />
    <char id="94" x="116" y="146" width="8" height="6" xoffset="2" yoffset="4" xadvance="10" page="0" chnl="15" />
    <char id="95" x="247" y="145" width="11" height="2" xoffset="0" yoffset="20" xadvance="10" page="0" chnl="15" />
    <char id="96" x="508" y="54" width="3" height="4" xoffset="4" yoffset="4" xadvance="10" page="0" chnl="15" />
    <char id="97" x="341" y="133" width="10" height="10" xoffset="0" yoffset="9" xadvance="10" page="0" chnl="15" />
    <char id="98" x="147" y="58" width="11" height="15" xoffset="0" yoffset="4" xadvance="11" page="0" chnl="15" />
    <char id="99" x="396" y="133" width="9" height="10" xoffset="0" yoffset="9" xadvance="9" page="0" chnl="15" />
    <char id="100" x="499" y="38" width="12" height="15" xoffset="0" yoffset="4" xadvance="11" page="0" chnl="15" />
    <char id="101" x="319" y="133" width="10" height="10" xoffset="0" yoffset="9" xadvance="10" page="0" chnl="15" />
    <char id="102" x="333" y="0" width="10" height="19" xoffset="0" yoffset="4" xadvance="8" page="0" chnl="15" />
    <char id="103" x="351" y="57" width="11" height="15" xoffset="0" yoffset="8" xadvance="10" page="0" chnl="15" />
    <char id="104" x="77" y="74" width="10" height="15" xoffset="0" yoffset="4" xadvance="11" page="0" chnl="15" />
    <char id="105" x="400" y="118" width="5" height="14" xoffset="1" yoffset="5" xadvance="6" page="0" chnl="15" />
    <char id="106" x="51" y="39" width="9" height="18" xoffset="-2" yoffset="5" xadvance="7" page="0" chnl="15" />
    <char id="107" x="88" y="74" width="10" height="15" xoffset="0" yoffset="4" xadvance="10" page="0" chnl="15" />
    <char id="108" x="273" y="73" width="5" height="15" xoffset="1" yoffset="4" xadvance="6" page="0" chnl="15" />
    <char id="109" x="158" y="135" width="15" height="10" xoffset="0" yoffset="9" xadvance="16" page="0" chnl="15" />
    <char id="110" x="352" y="133" width="10" height="10" xoffset="0" yoffset="9" xadvance="10" page="0" chnl="15" />
    <char id="111" x="374" y="133" width="10" height="10" xoffset="0" yoffset="9" xadvance="10" page="0" chnl="15" />
    <char id="112" x="156" y="105" width="12" height="14" xoffset="0" yoffset="9" xadvance="11" page="0" chnl="15" />
    <char id="113" x="500" y="86" width="11" height="14" xoffset="0" yoffset="9" xadvance="11" page="0" chnl="15" />
    <char id="114" x="436" y="131" width="8" height="10" xoffset="0" yoffset="9" xadvance="8" page="0" chnl="15" />
    <char id="115" x="416" y="133" width="9" height="10" xoffset="0" yoffset="9" xadvance="8" page="0" chnl="15" />
    <char id="116" x="29" y="136" width="7" height="13" xoffset="1" yoffset="6" xadvance="8" page="0" chnl="15" />
    <char id="117" x="238" y="134" width="11" height="10" xoffset="0" yoffset="9" xadvance="11" page="0" chnl="15" />
    <char id="118" x="250" y="134" width="11" height="10" xoffset="0" yoffset="9" xadvance="9" page="0" chnl="15" />
    <char id="119" x="126" y="135" width="15" height="10" xoffset="1" yoffset="9" xadvance="14" page="0" chnl="15" />
    <char id="120" x="262" y="134" width="11" height="10" xoffset="0" yoffset="9" xadvance="10" page="0" chnl="15" />
    <char id="121" x="474" y="101" width="11" height="14" xoffset="0" yoffset="9" xadvance="9" page="0" chnl="15" />
    <char id="122" x="226" y="134" width="11" height="10" xoffset="0" yoffset="9" xadvance="9" page="0" chnl="15" />
    <char id="123" x="81" y="39" width="9" height="18" xoffset="0" yoffset="5" xadvance="7" page="0" chnl="15" />
    <char id="124" x="449" y="38" width="2" height="17" xoffset="4" yoffset="5" xadvance="10" page="0" chnl="15" />
    <char id="125" x="31" y="39" width="9" height="18" xoffset="-1" yoffset="5" xadvance="7" page="0" chnl="15" />
    <char id="126" x="208" y="145" width="9" height="3" xoffset="1" yoffset="12" xadvance="10" page="0" chnl="15" />
    <char id="160" x="508" y="64" width="2" height="1" xoffset="0" yoffset="23" xadvance="6" page="0" chnl="15" />
    <char id="161" x="412" y="118" width="5" height="14" xoffset="1" yoffset="9" xadvance="7" page="0" chnl="15" />
    <char id="162" x="352" y="118" width="8" height="14" xoffset="1" yoffset="7" xadvance="10" page="0" chnl="15" />
    <char id="163" x="99" y="74" width="10" height="15" xoffset="0" yoffset="5" xadvance="10" page="0" chnl="15" />
    <char id="164" x="363" y="133" width="10" height="10" xoffset="0" yoffset="7" xadvance="10" page="0" chnl="15" />
    <char id="165" x="221" y="104" width="12" height="14" xoffset="1" yoffset="5" xadvance="11" page="0" chnl="15" />
    <char id="166" x="509" y="19" width="2" height="17" xoffset="4" yoffset="5" xadvance="10" page="0" chnl="15" />
    <char id="167" x="498" y="101" width="10" height="14" xoffset="0" yoffset="5" xadvance="9" page="0" chnl="15" />
    <char id="168" x="218" y="145" width="8" height="3" xoffset="3" yoffset="5" xadvance="10" page="0" chnl="15" />
    <char id="169" x="430" y="117" width="14" height="13" xoffset="0" yoffset="6" xadvance="14" page="0" chnl="15" />
    <char id="170" x="60" y="147" width="8" height="7" xoffset="2" yoffset="5" xadvance="9" page="0" chnl="15" />
    <char id="171" x="96" y="146" width="9" height="6" xoffset="1" yoffset="11" xadvance="10" page="0" chnl="15" />
    <char id="172" x="86" y="147" width="9" height="6" xoffset="1" yoffset="10" xadvance="10" page="0" chnl="15" />
    <char id="173" x="281" y="145" width="5" height="2" xoffset="1" yoffset="12" xadvance="7" page="0" chnl="15" />
    <char id="174" x="445" y="117" width="14" height="13" xoffset="0" yoffset="6" xadvance="14" page="0" chnl="15" />
    <char id="175" x="259" y="145" width="11" height="2" xoffset="0" yoffset="3" xadvance="10" page="0" chnl="15" />
    <char id="176" x="187" y="146" width="5" height="4" xoffset="3" yoffset="5" xadvance="10" page="0" chnl="15" />
    <char id="177" x="49" y="136" width="9" height="12" xoffset="1" yoffset="8" xadvance="10" page="0" chnl="15" />
    <char id="178" x="503" y="130" width="7" height="9" xoffset="2" yoffset="5" xadvance="9" page="0" chnl="15" />
    <char id="179" x="0" y="150" width="6" height="9" xoffset="2" yoffset="5" xadvance="9" page="0" chnl="15" />
    <char id="180" x="203" y="145" width="4" height="4" xoffset="5" yoffset="4" xadvance="10" page="0" chnl="15" />
    <char id="181" x="450" y="102" width="11" height="14" xoffset="0" yoffset="9" xadvance="11" page="0" chnl="15" />
    <char id="182" x="452" y="19" width="11" height="18" xoffset="1" yoffset="5" xadvance="11" page="0" chnl="15" />
    <char id="183" x="232" y="145" width="4" height="3" xoffset="1" yoffset="11" xadvance="7" page="0" chnl="15" />
    <char id="184" x="198" y="146" width="4" height="4" xoffset="2" yoffset="19" xadvance="10" page="0" chnl="15" />
    <char id="185" x="7" y="150" width="4" height="9" xoffset="3" yoffset="5" xadvance="9" page="0" chnl="15" />
    <char id="186" x="69" y="147" width="8" height="7" xoffset="2" yoffset="5" xadvance="9" page="0" chnl="15" />
    <char id="187" x="106" y="146" width="9" height="6" xoffset="1" yoffset="11" xadvance="10" page="0" chnl="15" />
    <char id="188" x="154" y="90" width="14" height="14" xoffset="1" yoffset="5" xadvance="16" page="0" chnl="15" />
    <char id="189" x="139" y="90" width="14" height="14" xoffset="1" yoffset="5" xadvance="16" page="0" chnl="15" />
    <char id="190" x="0" y="91" width="15" height="14" xoffset="1" yoffset="5" xadvance="16" page="0" chnl="15" />
    <char id="191" x="369" y="118" width="7" height="14" xoffset="0" yoffset="9" xadvance="7" page="0" chnl="15" />
    <char id="192" x="266" y="20" width="12" height="18" xoffset="0" yoffset="1" xadvance="12" page="0" chnl="15" />
    <char id="193" x="84" y="20" width="12" height="18" xoffset="0" yoffset="1" xadvance="12" page="0" chnl="15" />
    <char id="194" x="73" y="0" width="12" height="19" xoffset="0" yoffset="0" xadvance="12" page="0" chnl="15" />
    <char id="195" x="257" y="39" width="12" height="17" xoffset="0" yoffset="2" xadvance="12" page="0" chnl="15" />
    <char id="196" x="174" y="39" width="13" height="17" xoffset="0" yoffset="2" xadvance="12" page="0" chnl="15" />
    <char id="197" x="125" y="0" width="12" height="19" xoffset="0" yoffset="0" xadvance="12" page="0" chnl="15" />
    <char id="198" x="350" y="73" width="19" height="14" xoffset="-1" yoffset="5" xadvance="17" page="0" chnl="15" />
    <char id="199" x="464" y="19" width="11" height="18" xoffset="1" yoffset="5" xadvance="11" page="0" chnl="15" />
    <char id="200" x="97" y="20" width="12" height="18" xoffset="0" yoffset="1" xadvance="10" page="0" chnl="15" />
    <char id="201" x="188" y="20" width="12" height="18" xoffset="0" yoffset="1" xadvance="10" page="0" chnl="15" />
    <char id="202" x="203" y="0" width="12" height="19" xoffset="0" yoffset="0" xadvance="10" page="0" chnl="15" />
    <char id="203" x="283" y="39" width="12" height="17" xoffset="0" yoffset="2" xadvance="10" page="0" chnl="15" />
    <char id="204" x="154" y="39" width="5" height="18" xoffset="0" yoffset="1" xadvance="5" page="0" chnl="15" />
    <char id="205" x="132" y="39" width="7" height="18" xoffset="0" yoffset="1" xadvance="5" page="0" chnl="15" />
    <char id="206" x="376" y="0" width="8" height="19" xoffset="0" yoffset="0" xadvance="5" page="0" chnl="15" />
    <char id="207" x="398" y="38" width="8" height="17" xoffset="0" yoffset="2" xadvance="5" page="0" chnl="15" />
    <char id="208" x="226" y="89" width="13" height="14" xoffset="0" yoffset="5" xadvance="12" page="0" chnl="15" />
    <char id="209" x="202" y="39" width="13" height="17" xoffset="0" yoffset="2" xadvance="12" page="0" chnl="15" />
    <char id="210" x="42" y="20" width="13" height="18" xoffset="0" yoffset="1" xadvance="13" page="0" chnl="15" />
    <char id="211" x="28" y="20" width="13" height="18" xoffset="0" yoffset="1" xadvance="13" page="0" chnl="15" />
    <char id="212" x="59" y="0" width="13" height="19" xoffset="0" yoffset="0" xadvance="13" page="0" chnl="15" />
    <char id="213" x="216" y="39" width="13" height="17" xoffset="0" yoffset="2" xadvance="13" page="0" chnl="15" />
    <char id="214" x="230" y="39" width="13" height="17" xoffset="1" yoffset="2" xadvance="13" page="0" chnl="15" />
    <char id="215" x="23" y="150" width="9" height="8" xoffset="1" yoffset="9" xadvance="10" page="0" chnl="15" />
    <char id="216" x="388" y="73" width="16" height="14" xoffset="0" yoffset="5" xadvance="13" page="0" chnl="15" />
    <char id="217" x="292" y="20" width="12" height="18" xoffset="1" yoffset="1" xadvance="12" page="0" chnl="15" />
    <char id="218" x="305" y="20" width="12" height="18" xoffset="1" yoffset="1" xadvance="12" page="0" chnl="15" />
    <char id="219" x="99" y="0" width="12" height="19" xoffset="1" yoffset="0" xadvance="12" page="0" chnl="15" />
    <char id="220" x="348" y="39" width="12" height="17" xoffset="1" yoffset="2" xadvance="12" page="0" chnl="15" />
    <char id="221" x="331" y="20" width="12" height="18" xoffset="1" yoffset="1" xadvance="11" page="0" chnl="15" />
    <char id="222" x="414" y="102" width="11" height="14" xoffset="0" yoffset="5" xadvance="10" page="0" chnl="15" />
    <char id="223" x="151" y="0" width="12" height="19" xoffset="-1" yoffset="4" xadvance="10" page="0" chnl="15" />
    <char id="224" x="110" y="74" width="10" height="15" xoffset="0" yoffset="4" xadvance="10" page="0" chnl="15" />
    <char id="225" x="121" y="74" width="10" height="15" xoffset="0" yoffset="4" xadvance="10" page="0" chnl="15" />
    <char id="226" x="464" y="55" width="10" height="15" xoffset="0" yoffset="4" xadvance="10" page="0" chnl="15" />
    <char id="227" x="198" y="119" width="10" height="14" xoffset="0" yoffset="5" xadvance="10" page="0" chnl="15" />
    <char id="228" x="209" y="119" width="10" height="14" xoffset="0" yoffset="5" xadvance="10" page="0" chnl="15" />
    <char id="229" x="132" y="74" width="10" height="15" xoffset="0" yoffset="4" xadvance="10" page="0" chnl="15" />
    <char id="230" x="108" y="135" width="17" height="10" xoffset="0" yoffset="9" xadvance="16" page="0" chnl="15" />
    <char id="231" x="305" y="119" width="9" height="14" xoffset="0" yoffset="9" xadvance="9" page="0" chnl="15" />
    <char id="232" x="387" y="57" width="10" height="15" xoffset="0" yoffset="4" xadvance="10" page="0" chnl="15" />
    <char id="233" x="398" y="56" width="10" height="15" xoffset="0" yoffset="4" xadvance="10" page="0" chnl="15" />
    <char id="234" x="409" y="56" width="10" height="15" xoffset="0" yoffset="4" xadvance="10" page="0" chnl="15" />
    <char id="235" x="77" y="120" width="10" height="14" xoffset="0" yoffset="5" xadvance="10" page="0" chnl="15" />
    <char id="236" x="261" y="73" width="5" height="15" xoffset="1" yoffset="4" xadvance="6" page="0" chnl="15" />
    <char id="237" x="267" y="73" width="5" height="15" xoffset="1" yoffset="4" xadvance="6" page="0" chnl="15" />
    <char id="238" x="212" y="73" width="8" height="15" xoffset="1" yoffset="4" xadvance="6" page="0" chnl="15" />
    <char id="239" x="334" y="118" width="8" height="14" xoffset="0" yoffset="5" xadvance="6" page="0" chnl="15" />
    <char id="240" x="255" y="57" width="11" height="15" xoffset="0" yoffset="4" xadvance="10" page="0" chnl="15" />
    <char id="241" x="33" y="121" width="10" height="14" xoffset="0" yoffset="5" xadvance="10" page="0" chnl="15" />
    <char id="242" x="420" y="56" width="10" height="15" xoffset="0" yoffset="4" xadvance="10" page="0" chnl="15" />
    <char id="243" x="431" y="56" width="10" height="15" xoffset="0" yoffset="4" xadvance="10" page="0" chnl="15" />
    <char id="244" x="442" y="56" width="10" height="15" xoffset="0" yoffset="4" xadvance="10" page="0" chnl="15" />
    <char id="245" x="11" y="121" width="10" height="14" xoffset="0" yoffset="5" xadvance="10" page="0" chnl="15" />
    <char id="246" x="264" y="119" width="10" height="14" xoffset="0" yoffset="5" xadvance="10" page="0" chnl="15" />
    <char id="247" x="59" y="135" width="9" height="11" xoffset="1" yoffset="7" xadvance="10" page="0" chnl="15" />
    <char id="248" x="174" y="135" width="13" height="10" xoffset="-1" yoffset="9" xadvance="10" page="0" chnl="15" />
    <char id="249" x="219" y="57" width="11" height="15" xoffset="0" yoffset="4" xadvance="11" page="0" chnl="15" />
    <char id="250" x="207" y="57" width="11" height="15" xoffset="0" yoffset="4" xadvance="11" page="0" chnl="15" />
    <char id="251" x="183" y="57" width="11" height="15" xoffset="0" yoffset="4" xadvance="11" page="0" chnl="15" />
    <char id="252" x="342" y="103" width="11" height="14" xoffset="0" yoffset="5" xadvance="11" page="0" chnl="15" />
    <char id="253" x="288" y="0" width="11" height="19" xoffset="0" yoffset="4" xadvance="9" page="0" chnl="15" />
    <char id="254" x="86" y="0" width="12" height="19" xoffset="0" yoffset="4" xadvance="11" page="0" chnl="15" />
    <char id="255" x="380" y="20" width="11" height="18" xoffset="0" yoffset="5" xadvance="9" page="0" chnl="15" />
    <char id="256" x="160" y="39" width="13" height="17" xoffset="0" yoffset="2" xadvance="12" page="0" chnl="15" />
    <char id="257" x="496" y="116" width="11" height="13" xoffset="0" yoffset="6" xadvance="10" page="0" chnl="15" />
    <char id="258" x="0" y="21" width="13" height="18" xoffset="0" yoffset="1" xadvance="12" page="0" chnl="15" />
    <char id="259" x="231" y="57" width="11" height="15" xoffset="0" yoffset="4" xadvance="10" page="0" chnl="15" />
    <char id="260" x="253" y="20" width="12" height="18" xoffset="0" yoffset="5" xadvance="12" page="0" chnl="15" />
    <char id="261" x="66" y="120" width="10" height="14" xoffset="0" yoffset="9" xadvance="10" page="0" chnl="15" />
    <char id="262" x="392" y="19" width="11" height="18" xoffset="1" yoffset="1" xadvance="11" page="0" chnl="15" />
    <char id="263" x="173" y="73" width="9" height="15" xoffset="0" yoffset="4" xadvance="9" page="0" chnl="15" />
    <char id="264" x="216" y="0" width="11" height="19" xoffset="1" yoffset="0" xadvance="11" page="0" chnl="15" />
    <char id="265" x="453" y="55" width="10" height="15" xoffset="0" yoffset="4" xadvance="9" page="0" chnl="15" />
    <char id="266" x="374" y="39" width="11" height="17" xoffset="1" yoffset="2" xadvance="11" page="0" chnl="15" />
    <char id="267" x="275" y="119" width="9" height="14" xoffset="0" yoffset="5" xadvance="9" page="0" chnl="15" />
    <char id="268" x="162" y="20" width="12" height="18" xoffset="1" yoffset="1" xadvance="11" page="0" chnl="15" />
    <char id="269" x="267" y="57" width="11" height="15" xoffset="0" yoffset="4" xadvance="9" page="0" chnl="15" />
    <char id="270" x="70" y="20" width="13" height="18" xoffset="0" yoffset="1" xadvance="12" page="0" chnl="15" />
    <char id="271" x="66" y="58" width="14" height="15" xoffset="0" yoffset="4" xadvance="13" page="0" chnl="15" />
    <char id="272" x="366" y="88" width="13" height="14" xoffset="0" yoffset="5" xadvance="12" page="0" chnl="15" />
    <char id="273" x="122" y="58" width="12" height="15" xoffset="0" yoffset="4" xadvance="11" page="0" chnl="15" />
    <char id="274" x="244" y="39" width="12" height="17" xoffset="0" yoffset="2" xadvance="10" page="0" chnl="15" />
    <char id="275" x="472" y="116" width="11" height="13" xoffset="0" yoffset="6" xadvance="10" page="0" chnl="15" />
    <char id="276" x="227" y="20" width="12" height="18" xoffset="0" yoffset="1" xadvance="10" page="0" chnl="15" />
    <char id="277" x="243" y="57" width="11" height="15" xoffset="0" yoffset="4" xadvance="10" page="0" chnl="15" />
    <char id="278" x="296" y="39" width="12" height="17" xoffset="0" yoffset="2" xadvance="10" page="0" chnl="15" />
    <char id="279" x="22" y="121" width="10" height="14" xoffset="0" yoffset="5" xadvance="10" page="0" chnl="15" />
    <char id="280" x="175" y="20" width="12" height="18" xoffset="0" yoffset="5" xadvance="10" page="0" chnl="15" />
    <char id="281" x="220" y="119" width="10" height="14" xoffset="0" yoffset="9" xadvance="10" page="0" chnl="15" />
    <char id="282" x="318" y="20" width="12" height="18" xoffset="0" yoffset="1" xadvance="10" page="0" chnl="15" />
    <char id="283" x="339" y="57" width="11" height="15" xoffset="0" yoffset="4" xadvance="10" page="0" chnl="15" />
    <char id="284" x="190" y="0" width="12" height="19" xoffset="0" yoffset="0" xadvance="13" page="0" chnl="15" />
    <char id="285" x="264" y="0" width="11" height="19" xoffset="0" yoffset="4" xadvance="10" page="0" chnl="15" />
    <char id="286" x="56" y="20" width="13" height="18" xoffset="0" yoffset="1" xadvance="13" page="0" chnl="15" />
    <char id="287" x="252" y="0" width="11" height="19" xoffset="0" yoffset="4" xadvance="10" page="0" chnl="15" />
    <char id="288" x="361" y="39" width="12" height="17" xoffset="0" yoffset="2" xadvance="13" page="0" chnl="15" />
    <char id="289" x="500" y="0" width="11" height="18" xoffset="0" yoffset="5" xadvance="10" page="0" chnl="15" />
    <char id="290" x="123" y="20" width="12" height="18" xoffset="0" yoffset="5" xadvance="13" page="0" chnl="15" />
    <char id="291" x="0" y="0" width="11" height="20" xoffset="0" yoffset="3" xadvance="10" page="0" chnl="15" />
    <char id="292" x="45" y="0" width="13" height="19" xoffset="0" yoffset="0" xadvance="13" page="0" chnl="15" />
    <char id="293" x="276" y="0" width="11" height="19" xoffset="0" yoffset="0" xadvance="11" page="0" chnl="15" />
    <char id="294" x="48" y="90" width="15" height="14" xoffset="0" yoffset="5" xadvance="13" page="0" chnl="15" />
    <char id="295" x="475" y="55" width="10" height="15" xoffset="0" yoffset="4" xadvance="11" page="0" chnl="15" />
    <char id="296" x="425" y="38" width="8" height="17" xoffset="0" yoffset="2" xadvance="5" page="0" chnl="15" />
    <char id="297" x="361" y="118" width="7" height="14" xoffset="0" yoffset="5" xadvance="6" page="0" chnl="15" />
    <char id="298" x="407" y="38" width="8" height="17" xoffset="0" yoffset="2" xadvance="5" page="0" chnl="15" />
    <char id="299" x="11" y="136" width="8" height="13" xoffset="0" yoffset="6" xadvance="6" page="0" chnl="15" />
    <char id="300" x="91" y="39" width="8" height="18" xoffset="0" yoffset="1" xadvance="5" page="0" chnl="15" />
    <char id="301" x="239" y="73" width="7" height="15" xoffset="1" yoffset="4" xadvance="6" page="0" chnl="15" />
    <char id="302" x="140" y="39" width="6" height="18" xoffset="0" yoffset="5" xadvance="5" page="0" chnl="15" />
    <char id="303" x="147" y="39" width="6" height="18" xoffset="0" yoffset="5" xadvance="6" page="0" chnl="15" />
    <char id="304" x="442" y="38" width="6" height="17" xoffset="0" yoffset="2" xadvance="5" page="0" chnl="15" />
    <char id="305" x="451" y="131" width="5" height="10" xoffset="1" yoffset="9" xadvance="6" page="0" chnl="15" />
    <char id="306" x="94" y="90" width="14" height="14" xoffset="0" yoffset="5" xadvance="14" page="0" chnl="15" />
    <char id="307" x="368" y="20" width="11" height="18" xoffset="1" yoffset="5" xadvance="11" page="0" chnl="15" />
    <char id="308" x="138" y="0" width="12" height="19" xoffset="0" yoffset="0" xadvance="9" page="0" chnl="15" />
    <char id="309" x="240" y="0" width="11" height="19" xoffset="-2" yoffset="4" xadvance="7" page="0" chnl="15" />
    <char id="310" x="279" y="20" width="12" height="18" xoffset="0" yoffset="5" xadvance="11" page="0" chnl="15" />
    <char id="311" x="355" y="0" width="10" height="19" xoffset="0" yoffset="4" xadvance="10" page="0" chnl="15" />
    <char id="312" x="308" y="134" width="10" height="10" xoffset="0" yoffset="9" xadvance="10" page="0" chnl="15" />
    <char id="313" x="476" y="19" width="10" height="18" xoffset="0" yoffset="1" xadvance="10" page="0" chnl="15" />
    <char id="314" x="116" y="39" width="7" height="18" xoffset="1" yoffset="1" xadvance="6" page="0" chnl="15" />
    <char id="315" x="498" y="19" width="10" height="18" xoffset="0" yoffset="5" xadvance="10" page="0" chnl="15" />
    <char id="316" x="385" y="0" width="5" height="19" xoffset="1" yoffset="4" xadvance="6" page="0" chnl="15" />
    <char id="317" x="486" y="55" width="10" height="15" xoffset="0" yoffset="4" xadvance="10" page="0" chnl="15" />
    <char id="318" x="230" y="73" width="8" height="15" xoffset="1" yoffset="4" xadvance="6" page="0" chnl="15" />
    <char id="319" x="187" y="120" width="10" height="14" xoffset="0" yoffset="5" xadvance="10" page="0" chnl="15" />
    <char id="320" x="183" y="73" width="9" height="15" xoffset="1" yoffset="4" xadvance="10" page="0" chnl="15" />
    <char id="321" x="165" y="120" width="10" height="14" xoffset="0" yoffset="5" xadvance="10" page="0" chnl="15" />
    <char id="322" x="254" y="73" width="6" height="15" xoffset="0" yoffset="4" xadvance="6" page="0" chnl="15" />
    <char id="323" x="444" y="0" width="13" height="18" xoffset="0" yoffset="1" xadvance="12" page="0" chnl="15" />
    <char id="324" x="497" y="55" width="10" height="15" xoffset="0" yoffset="4" xadvance="10" page="0" chnl="15" />
    <char id="325" x="458" y="0" width="13" height="18" xoffset="0" yoffset="5" xadvance="12" page="0" chnl="15" />
    <char id="326" x="231" y="119" width="10" height="14" xoffset="0" yoffset="9" xadvance="10" page="0" chnl="15" />
    <char id="327" x="472" y="0" width="13" height="18" xoffset="0" yoffset="1" xadvance="12" page="0" chnl="15" />
    <char id="328" x="135" y="58" width="11" height="15" xoffset="0" yoffset="4" xadvance="10" page="0" chnl="15" />
    <char id="329" x="109" y="58" width="12" height="15" xoffset="0" yoffset="4" xadvance="12" page="0" chnl="15" />
    <char id="330" x="474" y="86" width="12" height="14" xoffset="0" yoffset="5" xadvance="12" page="0" chnl="15" />
    <char id="331" x="0" y="121" width="10" height="14" xoffset="0" yoffset="9" xadvance="10" page="0" chnl="15" />
    <char id="332" x="188" y="39" width="13" height="17" xoffset="0" yoffset="2" xadvance="13" page="0" chnl="15" />
    <char id="333" x="460" y="117" width="11" height="13" xoffset="0" yoffset="6" xadvance="10" page="0" chnl="15" />
    <char id="334" x="486" y="0" width="13" height="18" xoffset="0" yoffset="1" xadvance="13" page="0" chnl="15" />
    <char id="335" x="0" y="75" width="10" height="15" xoffset="0" yoffset="4" xadvance="10" page="0" chnl="15" />
    <char id="336" x="14" y="20" width="13" height="18" xoffset="0" yoffset="1" xadvance="13" page="0" chnl="15" />
    <char id="337" x="208" y="104" width="12" height="14" xoffset="0" yoffset="5" xadvance="10" page="0" chnl="15" />
    <char id="338" x="308" y="73" width="21" height="14" xoffset="0" yoffset="5" xadvance="19" page="0" chnl="15" />
    <char id="339" x="89" y="135" width="18" height="10" xoffset="0" yoffset="9" xadvance="17" page="0" chnl="15" />
    <char id="340" x="440" y="19" width="11" height="18" xoffset="0" yoffset="1" xadvance="11" page="0" chnl="15" />
    <char id="341" x="221" y="73" width="8" height="15" xoffset="0" yoffset="4" xadvance="8" page="0" chnl="15" />
    <char id="342" x="344" y="20" width="11" height="18" xoffset="0" yoffset="5" xadvance="11" page="0" chnl="15" />
    <char id="343" x="285" y="119" width="9" height="14" xoffset="0" yoffset="9" xadvance="8" page="0" chnl="15" />
    <char id="344" x="356" y="20" width="11" height="18" xoffset="0" yoffset="1" xadvance="11" page="0" chnl="15" />
    <char id="345" x="11" y="75" width="10" height="15" xoffset="0" yoffset="4" xadvance="8" page="0" chnl="15" />
    <char id="346" x="71" y="39" width="9" height="18" xoffset="0" yoffset="1" xadvance="9" page="0" chnl="15" />
    <char id="347" x="143" y="74" width="9" height="15" xoffset="0" yoffset="4" xadvance="8" page="0" chnl="15" />
    <char id="348" x="322" y="0" width="10" height="19" xoffset="0" yoffset="0" xadvance="9" page="0" chnl="15" />
    <char id="349" x="153" y="74" width="9" height="15" xoffset="0" yoffset="4" xadvance="8" page="0" chnl="15" />
    <char id="350" x="21" y="39" width="9" height="18" xoffset="0" yoffset="5" xadvance="9" page="0" chnl="15" />
    <char id="351" x="502" y="71" width="9" height="14" xoffset="0" yoffset="9" xadvance="8" page="0" chnl="15" />
    <char id="352" x="0" y="40" width="10" height="18" xoffset="0" yoffset="1" xadvance="9" page="0" chnl="15" />
    <char id="353" x="22" y="75" width="10" height="15" xoffset="0" yoffset="4" xadvance="8" page="0" chnl="15" />
    <char id="354" x="136" y="20" width="12" height="18" xoffset="1" yoffset="5" xadvance="11" page="0" chnl="15" />
    <char id="355" x="434" y="38" width="7" height="17" xoffset="1" yoffset="6" xadvance="8" page="0" chnl="15" />
    <char id="356" x="110" y="20" width="12" height="18" xoffset="1" yoffset="1" xadvance="11" page="0" chnl="15" />
    <char id="357" x="176" y="120" width="10" height="14" xoffset="1" yoffset="5" xadvance="9" page="0" chnl="15" />
    <char id="358" x="195" y="104" width="12" height="14" xoffset="1" yoffset="5" xadvance="11" page="0" chnl="15" />
    <char id="359" x="20" y="136" width="8" height="13" xoffset="0" yoffset="6" xadvance="8" page="0" chnl="15" />
    <char id="360" x="322" y="39" width="12" height="17" xoffset="1" yoffset="2" xadvance="12" page="0" chnl="15" />
    <char id="361" x="426" y="102" width="11" height="14" xoffset="0" yoffset="5" xadvance="11" page="0" chnl="15" />
    <char id="362" x="309" y="39" width="12" height="17" xoffset="1" yoffset="2" xadvance="12" page="0" chnl="15" />
    <char id="363" x="484" y="116" width="11" height="13" xoffset="0" yoffset="6" xadvance="11" page="0" chnl="15" />
    <char id="364" x="201" y="20" width="12" height="18" xoffset="1" yoffset="1" xadvance="12" page="0" chnl="15" />
    <char id="365" x="363" y="57" width="11" height="15" xoffset="0" yoffset="4" xadvance="11" page="0" chnl="15" />
    <char id="366" x="164" y="0" width="12" height="19" xoffset="1" yoffset="0" xadvance="12" page="0" chnl="15" />
    <char id="367" x="195" y="57" width="11" height="15" xoffset="0" yoffset="4" xadvance="11" page="0" chnl="15" />
    <char id="368" x="240" y="20" width="12" height="18" xoffset="1" yoffset="1" xadvance="12" page="0" chnl="15" />
    <char id="369" x="438" y="102" width="11" height="14" xoffset="0" yoffset="5" xadvance="11" page="0" chnl="15" />
    <char id="370" x="149" y="20" width="12" height="18" xoffset="1" yoffset="5" xadvance="12" page="0" chnl="15" />
    <char id="371" x="462" y="101" width="11" height="14" xoffset="0" yoffset="9" xadvance="11" page="0" chnl="15" />
    <char id="372" x="12" y="0" width="17" height="19" xoffset="1" yoffset="0" xadvance="16" page="0" chnl="15" />
    <char id="373" x="50" y="58" width="15" height="15" xoffset="1" yoffset="4" xadvance="14" page="0" chnl="15" />
    <char id="374" x="177" y="0" width="12" height="19" xoffset="1" yoffset="0" xadvance="11" page="0" chnl="15" />
    <char id="375" x="228" y="0" width="11" height="19" xoffset="0" yoffset="4" xadvance="9" page="0" chnl="15" />
    <char id="376" x="335" y="39" width="12" height="17" xoffset="1" yoffset="2" xadvance="11" page="0" chnl="15" />
    <char id="377" x="404" y="19" width="11" height="18" xoffset="0" yoffset="1" xadvance="10" page="0" chnl="15" />
    <char id="378" x="159" y="58" width="11" height="15" xoffset="0" yoffset="4" xadvance="9" page="0" chnl="15" />
    <char id="379" x="386" y="39" width="11" height="17" xoffset="0" yoffset="2" xadvance="10" page="0" chnl="15" />
    <char id="380" x="486" y="101" width="11" height="14" xoffset="0" yoffset="5" xadvance="9" page="0" chnl="15" />
    <char id="381" x="416" y="19" width="11" height="18" xoffset="0" yoffset="1" xadvance="10" page="0" chnl="15" />
    <char id="382" x="375" y="57" width="11" height="15" xoffset="0" yoffset="4" xadvance="9" page="0" chnl="15" />
    <char id="383" x="203" y="73" width="8" height="15" xoffset="0" yoffset="4" xadvance="7" page="0" chnl="15" />
    <char id="402" x="311" y="0" width="10" height="19" xoffset="0" yoffset="4" xadvance="8" page="0" chnl="15" />
    <char id="506" x="214" y="20" width="12" height="18" xoffset="0" yoffset="1" xadvance="12" page="0" chnl="15" />
    <char id="507" x="428" y="19" width="11" height="18" xoffset="0" yoffset="1" xadvance="10" page="0" chnl="15" />
    <char id="508" x="391" y="0" width="19" height="18" xoffset="-1" yoffset="1" xadvance="17" page="0" chnl="15" />
    <char id="509" x="0" y="59" width="17" height="15" xoffset="0" yoffset="4" xadvance="16" page="0" chnl="15" />
    <char id="510" x="411" y="0" width="16" height="18" xoffset="0" yoffset="1" xadvance="13" page="0" chnl="15" />
    <char id="511" x="81" y="58" width="13" height="15" xoffset="-1" yoffset="4" xadvance="10" page="0" chnl="15" />
    <char id="536" x="366" y="0" width="9" height="19" xoffset="0" yoffset="5" xadvance="9" page="0" chnl="15" />
    <char id="537" x="163" y="74" width="9" height="15" xoffset="0" yoffset="9" xadvance="8" page="0" chnl="15" />
    <char id="538" x="112" y="0" width="12" height="19" xoffset="1" yoffset="5" xadvance="11" page="0" chnl="15" />
    <char id="539" x="124" y="39" width="7" height="18" xoffset="1" yoffset="6" xadvance="8" page="0" chnl="15" />
    <char id="894" x="37" y="136" width="5" height="13" xoffset="1" yoffset="9" xadvance="7" page="0" chnl="15" />
    <char id="900" x="193" y="146" width="4" height="4" xoffset="5" yoffset="3" xadvance="10" page="0" chnl="15" />
    <char id="901" x="170" y="146" width="9" height="4" xoffset="2" yoffset="3" xadvance="10" page="0" chnl="15" />
    <char id="902" x="52" y="105" width="12" height="14" xoffset="0" yoffset="5" xadvance="12" page="0" chnl="15" />
    <char id="903" x="227" y="145" width="4" height="3" xoffset="1" yoffset="11" xadvance="7" page="0" chnl="15" />
    <char id="904" x="169" y="90" width="14" height="14" xoffset="0" yoffset="5" xadvance="12" page="0" chnl="15" />
    <char id="905" x="32" y="91" width="15" height="14" xoffset="0" yoffset="5" xadvance="14" page="0" chnl="15" />
    <char id="906" x="343" y="118" width="8" height="14" xoffset="0" yoffset="5" xadvance="7" page="0" chnl="15" />
    <char id="908" x="454" y="71" width="15" height="14" xoffset="0" yoffset="5" xadvance="14" page="0" chnl="15" />
    <char id="910" x="405" y="72" width="16" height="14" xoffset="0" yoffset="5" xadvance="14" page="0" chnl="15" />
    <char id="911" x="470" y="71" width="15" height="14" xoffset="0" yoffset="5" xadvance="15" page="0" chnl="15" />
    <char id="912" x="489" y="38" width="9" height="16" xoffset="0" yoffset="3" xadvance="5" page="0" chnl="15" />
    <char id="913" x="13" y="106" width="12" height="14" xoffset="0" yoffset="5" xadvance="12" page="0" chnl="15" />
    <char id="914" x="258" y="104" width="11" height="14" xoffset="0" yoffset="5" xadvance="11" page="0" chnl="15" />
    <char id="915" x="270" y="104" width="11" height="14" xoffset="0" yoffset="5" xadvance="10" page="0" chnl="15" />
    <char id="916" x="380" y="88" width="13" height="14" xoffset="0" yoffset="5" xadvance="12" page="0" chnl="15" />
    <char id="917" x="91" y="105" width="12" height="14" xoffset="0" yoffset="5" xadvance="10" page="0" chnl="15" />
    <char id="918" x="282" y="104" width="11" height="14" xoffset="0" yoffset="5" xadvance="10" page="0" chnl="15" />
    <char id="919" x="352" y="88" width="13" height="14" xoffset="0" yoffset="5" xadvance="13" page="0" chnl="15" />
    <char id="920" x="338" y="88" width="13" height="14" xoffset="0" yoffset="5" xadvance="13" page="0" chnl="15" />
    <char id="921" x="424" y="117" width="5" height="14" xoffset="0" yoffset="5" xadvance="5" page="0" chnl="15" />
    <char id="922" x="130" y="105" width="12" height="14" xoffset="0" yoffset="5" xadvance="11" page="0" chnl="15" />
    <char id="923" x="143" y="105" width="12" height="14" xoffset="-1" yoffset="5" xadvance="11" page="0" chnl="15" />
    <char id="924" x="486" y="71" width="15" height="14" xoffset="0" yoffset="5" xadvance="15" page="0" chnl="15" />
    <char id="925" x="324" y="88" width="13" height="14" xoffset="0" yoffset="5" xadvance="12" page="0" chnl="15" />
    <char id="926" x="310" y="88" width="13" height="14" xoffset="0" yoffset="5" xadvance="11" page="0" chnl="15" />
    <char id="927" x="282" y="89" width="13" height="14" xoffset="0" yoffset="5" xadvance="13" page="0" chnl="15" />
    <char id="928" x="268" y="89" width="13" height="14" xoffset="0" yoffset="5" xadvance="12" page="0" chnl="15" />
    <char id="929" x="422" y="87" width="12" height="14" xoffset="0" yoffset="5" xadvance="10" page="0" chnl="15" />
    <char id="931" x="240" y="89" width="13" height="14" xoffset="0" yoffset="5" xadvance="10" page="0" chnl="15" />
    <char id="932" x="448" y="87" width="12" height="14" xoffset="1" yoffset="5" xadvance="11" page="0" chnl="15" />
    <char id="933" x="461" y="86" width="12" height="14" xoffset="1" yoffset="5" xadvance="11" page="0" chnl="15" />
    <char id="934" x="438" y="72" width="15" height="14" xoffset="0" yoffset="5" xadvance="15" page="0" chnl="15" />
    <char id="935" x="64" y="90" width="14" height="14" xoffset="-1" yoffset="5" xadvance="11" page="0" chnl="15" />
    <char id="936" x="422" y="72" width="15" height="14" xoffset="1" yoffset="5" xadvance="15" page="0" chnl="15" />
    <char id="937" x="79" y="90" width="14" height="14" xoffset="0" yoffset="5" xadvance="13" page="0" chnl="15" />
    <char id="938" x="416" y="38" width="8" height="17" xoffset="0" yoffset="2" xadvance="5" page="0" chnl="15" />
    <char id="939" x="270" y="39" width="12" height="17" xoffset="1" yoffset="2" xadvance="11" page="0" chnl="15" />
    <char id="940" x="33" y="75" width="10" height="15" xoffset="0" yoffset="4" xadvance="10" page="0" chnl="15" />
    <char id="941" x="193" y="73" width="9" height="15" xoffset="0" yoffset="4" xadvance="9" page="0" chnl="15" />
    <char id="942" x="487" y="19" width="10" height="18" xoffset="0" yoffset="4" xadvance="11" page="0" chnl="15" />
    <char id="943" x="247" y="73" width="6" height="15" xoffset="1" yoffset="4" xadvance="5" page="0" chnl="15" />
    <char id="944" x="478" y="38" width="10" height="16" xoffset="1" yoffset="3" xadvance="10" page="0" chnl="15" />
    <char id="945" x="286" y="134" width="10" height="10" xoffset="0" yoffset="9" xadvance="10" page="0" chnl="15" />
    <char id="946" x="303" y="57" width="11" height="15" xoffset="0" yoffset="4" xadvance="11" page="0" chnl="15" />
    <char id="947" x="294" y="104" width="11" height="14" xoffset="0" yoffset="9" xadvance="10" page="0" chnl="15" />
    <char id="948" x="279" y="57" width="11" height="15" xoffset="0" yoffset="4" xadvance="10" page="0" chnl="15" />
    <char id="949" x="406" y="133" width="9" height="10" xoffset="0" yoffset="9" xadvance="9" page="0" chnl="15" />
    <char id="950" x="344" y="0" width="10" height="19" xoffset="0" yoffset="4" xadvance="8" page="0" chnl="15" />
    <char id="951" x="0" y="136" width="10" height="13" xoffset="0" yoffset="9" xadvance="11" page="0" chnl="15" />
    <char id="952" x="171" y="57" width="11" height="15" xoffset="1" yoffset="4" xadvance="11" page="0" chnl="15" />
    <char id="953" x="457" y="131" width="4" height="10" xoffset="1" yoffset="9" xadvance="5" page="0" chnl="15" />
    <char id="954" x="330" y="133" width="10" height="10" xoffset="0" yoffset="9" xadvance="10" page="0" chnl="15" />
    <char id="955" x="327" y="57" width="11" height="15" xoffset="0" yoffset="4" xadvance="10" page="0" chnl="15" />
    <char id="956" x="330" y="103" width="11" height="14" xoffset="0" yoffset="9" xadvance="11" page="0" chnl="15" />
    <char id="957" x="214" y="134" width="11" height="10" xoffset="0" yoffset="9" xadvance="10" page="0" chnl="15" />
    <char id="958" x="300" y="0" width="10" height="19" xoffset="0" yoffset="4" xadvance="9" page="0" chnl="15" />
    <char id="959" x="297" y="134" width="10" height="10" xoffset="0" yoffset="9" xadvance="10" page="0" chnl="15" />
    <char id="960" x="274" y="134" width="11" height="10" xoffset="1" yoffset="9" xadvance="11" page="0" chnl="15" />
    <char id="961" x="65" y="105" width="12" height="14" xoffset="0" yoffset="9" xadvance="11" page="0" chnl="15" />
    <char id="962" x="44" y="121" width="10" height="14" xoffset="0" yoffset="9" xadvance="9" page="0" chnl="15" />
    <char id="963" x="201" y="134" width="12" height="10" xoffset="0" yoffset="9" xadvance="11" page="0" chnl="15" />
    <char id="964" x="426" y="132" width="9" height="10" xoffset="1" yoffset="9" xadvance="8" page="0" chnl="15" />
    <char id="965" x="385" y="133" width="10" height="10" xoffset="1" yoffset="9" xadvance="10" page="0" chnl="15" />
    <char id="966" x="254" y="89" width="13" height="14" xoffset="0" yoffset="9" xadvance="13" page="0" chnl="15" />
    <char id="967" x="188" y="135" width="12" height="10" xoffset="0" yoffset="9" xadvance="10" page="0" chnl="15" />
    <char id="968" x="109" y="90" width="14" height="14" xoffset="1" yoffset="9" xadvance="14" page="0" chnl="15" />
    <char id="969" x="142" y="135" width="15" height="10" xoffset="0" yoffset="9" xadvance="15" page="0" chnl="15" />
    <char id="970" x="325" y="118" width="8" height="14" xoffset="0" yoffset="5" xadvance="5" page="0" chnl="15" />
    <char id="971" x="154" y="120" width="10" height="14" xoffset="1" yoffset="5" xadvance="10" page="0" chnl="15" />
    <char id="972" x="44" y="74" width="10" height="15" xoffset="0" yoffset="4" xadvance="10" page="0" chnl="15" />
    <char id="973" x="55" y="74" width="10" height="15" xoffset="1" yoffset="4" xadvance="10" page="0" chnl="15" />
    <char id="974" x="34" y="58" width="15" height="15" xoffset="0" yoffset="4" xadvance="15" page="0" chnl="15" />
    <char id="8355" x="330" y="73" width="19" height="14" xoffset="0" yoffset="5" xadvance="18" page="0" chnl="15" />
    <char id="8356" x="291" y="57" width="11" height="15" xoffset="0" yoffset="5" xadvance="10" page="0" chnl="15" />
    <char id="8359" x="285" y="73" width="22" height="14" xoffset="0" yoffset="5" xadvance="21" page="0" chnl="15" />
    <char id="8364" x="354" y="103" width="11" height="14" xoffset="0" yoffset="5" xadvance="10" page="0" chnl="15" />
    <char id="8706" x="66" y="74" width="10" height="15" xoffset="0" yoffset="4" xadvance="10" page="0" chnl="15" />
    <char id="8710" x="198" y="89" width="13" height="14" xoffset="0" yoffset="5" xadvance="12" page="0" chnl="15" />
    <char id="8719" x="452" y="38" width="13" height="16" xoffset="0" yoffset="5" xadvance="11" page="0" chnl="15" />
    <char id="8721" x="466" y="38" width="11" height="16" xoffset="0" yoffset="5" xadvance="10" page="0" chnl="15" />
    <char id="8722" x="271" y="145" width="9" height="2" xoffset="1" yoffset="12" xadvance="10" page="0" chnl="15" />
    <char id="8725" x="378" y="103" width="11" height="14" xoffset="0" yoffset="5" xadvance="10" page="0" chnl="15" />
    <char id="8729" x="242" y="145" width="4" height="3" xoffset="1" yoffset="11" xadvance="7" page="0" chnl="15" />
    <char id="8730" x="390" y="103" width="11" height="14" xoffset="0" yoffset="5" xadvance="10" page="0" chnl="15" />
    <char id="8734" x="130" y="146" width="10" height="5" xoffset="0" yoffset="10" xadvance="10" page="0" chnl="15" />
    <char id="8747" x="30" y="0" width="14" height="19" xoffset="-2" yoffset="4" xadvance="10" page="0" chnl="15" />
    <char id="8776" x="12" y="150" width="10" height="8" xoffset="1" yoffset="9" xadvance="10" page="0" chnl="15" />
    <char id="8800" x="493" y="130" width="9" height="9" xoffset="1" yoffset="8" xadvance="10" page="0" chnl="15" />
    <char id="8804" x="69" y="135" width="9" height="11" xoffset="1" yoffset="9" xadvance="10" page="0" chnl="15" />
    <char id="8805" x="79" y="135" width="9" height="11" xoffset="1" yoffset="9" xadvance="10" page="0" chnl="15" />
    <char id="9633" x="462" y="131" width="10" height="9" xoffset="1" yoffset="10" xadvance="12" page="0" chnl="15" />
    <char id="9642" x="158" y="146" width="5" height="5" xoffset="1" yoffset="10" xadvance="7" page="0" chnl="15" />
    <char id="9643" x="164" y="146" width="5" height="5" xoffset="1" yoffset="10" xadvance="7" page="0" chnl="15" />
    <char id="9674" x="55" y="120" width="10" height="14" xoffset="0" yoffset="5" xadvance="9" page="0" chnl="15" />
    <char id="9679" x="483" y="130" width="9" height="9" xoffset="1" yoffset="9" xadvance="12" page="0" chnl="15" />
    <char id="9702" x="151" y="146" width="6" height="5" xoffset="0" yoffset="10" xadvance="7" page="0" chnl="15" />
  </chars>
  <kernings count="73">
    <kerning first="32" second="65" amount="-1" />
    <kerning first="121" second="46" amount="-2" />
    <kerning first="65" second="32" amount="-1" />
    <kerning first="65" second="84" amount="-2" />
    <kerning first="65" second="86" amount="-2" />
    <kerning first="65" second="87" amount="-2" />
    <kerning first="65" second="89" amount="-2" />
    <kerning first="65" second="118" amount="-1" />
    <kerning first="65" second="119" amount="-1" />
    <kerning first="65" second="121" amount="-1" />
    <kerning first="121" second="44" amount="-2" />
    <kerning first="119" second="46" amount="-2" />
    <kerning first="70" second="44" amount="-4" />
    <kerning first="70" second="46" amount="-4" />
    <kerning first="70" second="65" amount="-2" />
    <kerning first="119" second="44" amount="-2" />
    <kerning first="76" second="84" amount="-2" />
    <kerning first="76" second="86" amount="-2" />
    <kerning first="76" second="87" amount="-1" />
    <kerning first="76" second="89" amount="-2" />
    <kerning first="76" second="121" amount="-1" />
    <kerning first="118" second="46" amount="-2" />
    <kerning first="80" second="32" amount="-1" />
    <kerning first="80" second="44" amount="-4" />
    <kerning first="80" second="46" amount="-4" />
    <kerning first="80" second="65" amount="-2" />
    <kerning first="82" second="84" amount="-1" />
    <kerning first="82" second="86" amount="-1" />
    <kerning first="82" second="87" amount="-1" />
    <kerning first="82" second="89" amount="-1" />
    <kerning first="84" second="44" amount="-3" />
    <kerning first="118" second="44" amount="-2" />
    <kerning first="84" second="46" amount="-3" />
    <kerning first="84" second="58" amount="-1" />
    <kerning first="84" second="59" amount="-1" />
    <kerning first="84" second="65" amount="-2" />
    <kerning first="84" second="79" amount="-1" />
    <kerning first="84" second="97" amount="-2" />
    <kerning first="84" second="99" amount="-2" />
    <kerning first="84" second="101" amount="-2" />
    <kerning first="114" second="46" amount="-2" />
    <kerning first="84" second="111" amount="-2" />
    <kerning first="84" second="114" amount="-2" />
    <kerning first="84" second="115" amount="-2" />
    <kerning first="84" second="117" amount="-2" />
    <kerning first="84" second="119" amount="-2" />
    <kerning first="84" second="121" amount="-2" />
    <kerning first="86" second="44" amount="-3" />
    <kerning first="114" second="44" amount="-2" />
    <kerning first="86" second="46" amount="-3" />
    <kerning first="89" second="118" amount="-1" />
    <kerning first="89" second="117" amount="-1" />
    <kerning first="86" second="65" amount="-2" />
    <kerning first="86" second="97" amount="-1" />
    <kerning first="86" second="101" amount="-1" />
    <kerning first="89" second="113" amount="-2" />
    <kerning first="86" second="111" amount="-1" />
    <kerning first="86" second="114" amount="-1" />
    <kerning first="86" second="117" amount="-1" />
    <kerning first="89" second="112" amount="-1" />
    <kerning first="87" second="44" amount="-2" />
    <kerning first="89" second="111" amount="-2" />
    <kerning first="87" second="46" amount="-2" />
    <kerning first="87" second="65" amount="-2" />
    <kerning first="87" second="97" amount="-1" />
    <kerning first="87" second="101" amount="-1" />
    <kerning first="89" second="101" amount="-2" />
    <kerning first="89" second="97" amount="-2" />
    <kerning first="89" second="44" amount="-3" />
    <kerning first="89" second="65" amount="-2" />
    <kerning first="89" second="46" amount="-3" />
    <kerning first="89" second="58" amount="-1" />
    <kerning first="89" second="59" amount="-1" />
  </kernings>
</font>
