<?xml version="1.0"?>
<font>
  <info face="Arial" size="24" bold="0" italic="1" charset="" unicode="1" stretchH="100" smooth="1" aa="2" padding="0,0,0,0" spacing="1,1" outline="0"/>
  <common lineHeight="24" base="19" scaleW="512" scaleH="512" pages="1" packed="0" alphaChnl="0" redChnl="4" greenChnl="4" blueChnl="4"/>
  <pages>
    <page id="0" file="Arial_24_italic_0.png" />
  </pages>
  <chars count="625">
    <char id="-1" x="182" y="250" width="11" height="14" xoffset="2" yoffset="5" xadvance="16" page="0" chnl="15" />
    <char id="32" x="53" y="21" width="2" height="1" xoffset="0" yoffset="23" xadvance="6" page="0" chnl="15" />
    <char id="33" x="505" y="99" width="6" height="15" xoffset="1" yoffset="4" xadvance="6" page="0" chnl="15" />
    <char id="34" x="21" y="283" width="7" height="6" xoffset="2" yoffset="4" xadvance="7" page="0" chnl="15" />
    <char id="35" x="190" y="202" width="12" height="15" xoffset="0" yoffset="4" xadvance="11" page="0" chnl="15" />
    <char id="36" x="309" y="101" width="12" height="18" xoffset="0" yoffset="3" xadvance="11" page="0" chnl="15" />
    <char id="37" x="194" y="120" width="17" height="16" xoffset="1" yoffset="4" xadvance="18" page="0" chnl="15" />
    <char id="38" x="84" y="205" width="13" height="15" xoffset="1" yoffset="4" xadvance="14" page="0" chnl="15" />
    <char id="39" x="58" y="282" width="3" height="6" xoffset="2" yoffset="4" xadvance="4" page="0" chnl="15" />
    <char id="40" x="349" y="81" width="8" height="19" xoffset="1" yoffset="4" xadvance="7" page="0" chnl="15" />
    <char id="41" x="420" y="80" width="7" height="19" xoffset="-1" yoffset="4" xadvance="7" page="0" chnl="15" />
    <char id="42" x="12" y="283" width="8" height="7" xoffset="2" yoffset="4" xadvance="8" page="0" chnl="15" />
    <char id="43" x="298" y="264" width="11" height="11" xoffset="1" yoffset="6" xadvance="12" page="0" chnl="15" />
    <char id="44" x="507" y="166" width="4" height="6" xoffset="0" yoffset="17" xadvance="6" page="0" chnl="15" />
    <char id="45" x="104" y="280" width="7" height="3" xoffset="0" yoffset="12" xadvance="7" page="0" chnl="15" />
    <char id="46" x="100" y="186" width="3" height="2" xoffset="1" yoffset="17" xadvance="6" page="0" chnl="15" />
    <char id="47" x="361" y="201" width="11" height="15" xoffset="-1" yoffset="4" xadvance="6" page="0" chnl="15" />
    <char id="48" x="373" y="201" width="11" height="15" xoffset="1" yoffset="4" xadvance="11" page="0" chnl="15" />
    <char id="49" x="355" y="233" width="8" height="15" xoffset="2" yoffset="4" xadvance="11" page="0" chnl="15" />
    <char id="50" x="397" y="201" width="11" height="15" xoffset="1" yoffset="4" xadvance="11" page="0" chnl="15" />
    <char id="51" x="138" y="202" width="12" height="15" xoffset="0" yoffset="4" xadvance="11" page="0" chnl="15" />
    <char id="52" x="409" y="201" width="11" height="15" xoffset="0" yoffset="4" xadvance="11" page="0" chnl="15" />
    <char id="53" x="421" y="201" width="11" height="15" xoffset="1" yoffset="4" xadvance="11" page="0" chnl="15" />
    <char id="54" x="433" y="201" width="11" height="15" xoffset="1" yoffset="4" xadvance="11" page="0" chnl="15" />
    <char id="55" x="445" y="201" width="11" height="15" xoffset="2" yoffset="4" xadvance="11" page="0" chnl="15" />
    <char id="56" x="457" y="201" width="11" height="15" xoffset="1" yoffset="4" xadvance="11" page="0" chnl="15" />
    <char id="57" x="469" y="200" width="11" height="15" xoffset="1" yoffset="4" xadvance="11" page="0" chnl="15" />
    <char id="58" x="325" y="264" width="5" height="11" xoffset="1" yoffset="8" xadvance="6" page="0" chnl="15" />
    <char id="59" x="28" y="254" width="6" height="15" xoffset="0" yoffset="8" xadvance="6" page="0" chnl="15" />
    <char id="60" x="202" y="265" width="11" height="11" xoffset="1" yoffset="6" xadvance="12" page="0" chnl="15" />
    <char id="61" x="497" y="261" width="11" height="7" xoffset="1" yoffset="8" xadvance="12" page="0" chnl="15" />
    <char id="62" x="262" y="264" width="11" height="11" xoffset="1" yoffset="6" xadvance="12" page="0" chnl="15" />
    <char id="63" x="223" y="233" width="10" height="15" xoffset="2" yoffset="4" xadvance="11" page="0" chnl="15" />
    <char id="64" x="53" y="0" width="20" height="20" xoffset="1" yoffset="4" xadvance="21" page="0" chnl="15" />
    <char id="65" x="432" y="169" width="14" height="15" xoffset="0" yoffset="4" xadvance="14" page="0" chnl="15" />
    <char id="66" x="120" y="186" width="14" height="15" xoffset="0" yoffset="4" xadvance="14" page="0" chnl="15" />
    <char id="67" x="105" y="186" width="14" height="15" xoffset="1" yoffset="4" xadvance="15" page="0" chnl="15" />
    <char id="68" x="304" y="169" width="15" height="15" xoffset="0" yoffset="4" xadvance="15" page="0" chnl="15" />
    <char id="69" x="128" y="170" width="15" height="15" xoffset="0" yoffset="4" xadvance="14" page="0" chnl="15" />
    <char id="70" x="75" y="189" width="14" height="15" xoffset="0" yoffset="4" xadvance="13" page="0" chnl="15" />
    <char id="71" x="256" y="169" width="15" height="15" xoffset="1" yoffset="4" xadvance="16" page="0" chnl="15" />
    <char id="72" x="250" y="153" width="16" height="15" xoffset="0" yoffset="4" xadvance="15" page="0" chnl="15" />
    <char id="73" x="0" y="254" width="6" height="15" xoffset="1" yoffset="4" xadvance="5" page="0" chnl="15" />
    <char id="74" x="493" y="199" width="11" height="15" xoffset="0" yoffset="4" xadvance="10" page="0" chnl="15" />
    <char id="75" x="224" y="169" width="15" height="15" xoffset="0" yoffset="4" xadvance="14" page="0" chnl="15" />
    <char id="76" x="12" y="222" width="11" height="15" xoffset="0" yoffset="4" xadvance="11" page="0" chnl="15" />
    <char id="77" x="470" y="135" width="18" height="15" xoffset="0" yoffset="4" xadvance="17" page="0" chnl="15" />
    <char id="78" x="199" y="153" width="16" height="15" xoffset="0" yoffset="4" xadvance="15" page="0" chnl="15" />
    <char id="79" x="208" y="169" width="15" height="15" xoffset="1" yoffset="4" xadvance="16" page="0" chnl="15" />
    <char id="80" x="485" y="151" width="15" height="15" xoffset="0" yoffset="4" xadvance="14" page="0" chnl="15" />
    <char id="81" x="66" y="123" width="15" height="17" xoffset="1" yoffset="4" xadvance="16" page="0" chnl="15" />
    <char id="82" x="192" y="170" width="15" height="15" xoffset="0" yoffset="4" xadvance="15" page="0" chnl="15" />
    <char id="83" x="388" y="185" width="13" height="15" xoffset="1" yoffset="4" xadvance="14" page="0" chnl="15" />
    <char id="84" x="430" y="185" width="13" height="15" xoffset="2" yoffset="4" xadvance="13" page="0" chnl="15" />
    <char id="85" x="112" y="170" width="15" height="15" xoffset="1" yoffset="4" xadvance="15" page="0" chnl="15" />
    <char id="86" x="0" y="190" width="14" height="15" xoffset="2" yoffset="4" xadvance="14" page="0" chnl="15" />
    <char id="87" x="334" y="137" width="20" height="15" xoffset="2" yoffset="4" xadvance="20" page="0" chnl="15" />
    <char id="88" x="489" y="134" width="18" height="15" xoffset="-1" yoffset="4" xadvance="14" page="0" chnl="15" />
    <char id="89" x="80" y="173" width="15" height="15" xoffset="2" yoffset="4" xadvance="14" page="0" chnl="15" />
    <char id="90" x="492" y="167" width="14" height="15" xoffset="0" yoffset="4" xadvance="13" page="0" chnl="15" />
    <char id="91" x="320" y="81" width="9" height="19" xoffset="0" yoffset="4" xadvance="6" page="0" chnl="15" />
    <char id="92" x="49" y="254" width="5" height="15" xoffset="1" yoffset="4" xadvance="6" page="0" chnl="15" />
    <char id="93" x="330" y="81" width="9" height="19" xoffset="-1" yoffset="4" xadvance="6" page="0" chnl="15" />
    <char id="94" x="405" y="262" width="10" height="9" xoffset="1" yoffset="3" xadvance="10" page="0" chnl="15" />
    <char id="95" x="136" y="280" width="13" height="2" xoffset="-2" yoffset="21" xadvance="11" page="0" chnl="15" />
    <char id="96" x="507" y="173" width="4" height="3" xoffset="3" yoffset="4" xadvance="7" page="0" chnl="15" />
    <char id="97" x="465" y="249" width="11" height="12" xoffset="0" yoffset="7" xadvance="11" page="0" chnl="15" />
    <char id="98" x="36" y="222" width="11" height="15" xoffset="0" yoffset="4" xadvance="11" page="0" chnl="15" />
    <char id="99" x="36" y="270" width="10" height="12" xoffset="1" yoffset="7" xadvance="10" page="0" chnl="15" />
    <char id="100" x="374" y="185" width="13" height="15" xoffset="0" yoffset="4" xadvance="11" page="0" chnl="15" />
    <char id="101" x="0" y="270" width="11" height="12" xoffset="0" yoffset="7" xadvance="11" page="0" chnl="15" />
    <char id="102" x="276" y="233" width="9" height="15" xoffset="0" yoffset="4" xadvance="6" page="0" chnl="15" />
    <char id="103" x="336" y="120" width="12" height="16" xoffset="0" yoffset="7" xadvance="11" page="0" chnl="15" />
    <char id="104" x="60" y="222" width="11" height="15" xoffset="0" yoffset="4" xadvance="11" page="0" chnl="15" />
    <char id="105" x="474" y="233" width="6" height="15" xoffset="0" yoffset="4" xadvance="4" page="0" chnl="15" />
    <char id="106" x="270" y="81" width="9" height="19" xoffset="-3" yoffset="4" xadvance="4" page="0" chnl="15" />
    <char id="107" x="72" y="221" width="11" height="15" xoffset="0" yoffset="4" xadvance="10" page="0" chnl="15" />
    <char id="108" x="502" y="231" width="6" height="15" xoffset="0" yoffset="4" xadvance="4" page="0" chnl="15" />
    <char id="109" x="392" y="249" width="17" height="12" xoffset="0" yoffset="7" xadvance="17" page="0" chnl="15" />
    <char id="110" x="12" y="270" width="11" height="12" xoffset="0" yoffset="7" xadvance="11" page="0" chnl="15" />
    <char id="111" x="24" y="270" width="11" height="12" xoffset="0" yoffset="7" xadvance="11" page="0" chnl="15" />
    <char id="112" x="375" y="120" width="12" height="16" xoffset="0" yoffset="7" xadvance="11" page="0" chnl="15" />
    <char id="113" x="388" y="120" width="12" height="16" xoffset="0" yoffset="7" xadvance="11" page="0" chnl="15" />
    <char id="114" x="77" y="268" width="9" height="12" xoffset="0" yoffset="7" xadvance="7" page="0" chnl="15" />
    <char id="115" x="453" y="249" width="11" height="12" xoffset="0" yoffset="7" xadvance="10" page="0" chnl="15" />
    <char id="116" x="459" y="233" width="7" height="15" xoffset="1" yoffset="4" xadvance="6" page="0" chnl="15" />
    <char id="117" x="178" y="265" width="11" height="11" xoffset="1" yoffset="8" xadvance="11" page="0" chnl="15" />
    <char id="118" x="214" y="265" width="11" height="11" xoffset="1" yoffset="8" xadvance="10" page="0" chnl="15" />
    <char id="119" x="104" y="268" width="16" height="11" xoffset="1" yoffset="8" xadvance="15" page="0" chnl="15" />
    <char id="120" x="165" y="265" width="12" height="11" xoffset="0" yoffset="8" xadvance="10" page="0" chnl="15" />
    <char id="121" x="360" y="185" width="13" height="15" xoffset="0" yoffset="8" xadvance="10" page="0" chnl="15" />
    <char id="122" x="250" y="264" width="11" height="11" xoffset="0" yoffset="8" xadvance="9" page="0" chnl="15" />
    <char id="123" x="280" y="81" width="9" height="19" xoffset="1" yoffset="4" xadvance="7" page="0" chnl="15" />
    <char id="124" x="455" y="80" width="3" height="19" xoffset="1" yoffset="4" xadvance="5" page="0" chnl="15" />
    <char id="125" x="300" y="81" width="9" height="19" xoffset="-2" yoffset="4" xadvance="7" page="0" chnl="15" />
    <char id="126" x="69" y="282" width="11" height="4" xoffset="1" yoffset="10" xadvance="12" page="0" chnl="15" />
    <char id="160" x="56" y="41" width="2" height="1" xoffset="0" yoffset="23" xadvance="6" page="0" chnl="15" />
    <char id="161" x="21" y="254" width="6" height="15" xoffset="1" yoffset="8" xadvance="7" page="0" chnl="15" />
    <char id="162" x="104" y="81" width="11" height="19" xoffset="1" yoffset="4" xadvance="11" page="0" chnl="15" />
    <char id="163" x="98" y="205" width="13" height="15" xoffset="0" yoffset="4" xadvance="11" page="0" chnl="15" />
    <char id="164" x="337" y="263" width="11" height="10" xoffset="1" yoffset="7" xadvance="11" page="0" chnl="15" />
    <char id="165" x="330" y="185" width="14" height="15" xoffset="0" yoffset="4" xadvance="11" page="0" chnl="15" />
    <char id="166" x="451" y="80" width="3" height="19" xoffset="1" yoffset="4" xadvance="5" page="0" chnl="15" />
    <char id="167" x="78" y="81" width="12" height="19" xoffset="0" yoffset="4" xadvance="11" page="0" chnl="15" />
    <char id="168" x="82" y="138" width="7" height="2" xoffset="2" yoffset="4" xadvance="7" page="0" chnl="15" />
    <char id="169" x="165" y="154" width="16" height="15" xoffset="0" yoffset="4" xadvance="15" page="0" chnl="15" />
    <char id="170" x="437" y="262" width="8" height="8" xoffset="1" yoffset="4" xadvance="8" page="0" chnl="15" />
    <char id="171" x="372" y="262" width="10" height="10" xoffset="1" yoffset="9" xadvance="11" page="0" chnl="15" />
    <char id="172" x="0" y="283" width="11" height="7" xoffset="1" yoffset="8" xadvance="12" page="0" chnl="15" />
    <char id="173" x="112" y="280" width="7" height="3" xoffset="0" yoffset="12" xadvance="7" page="0" chnl="15" />
    <char id="174" x="182" y="154" width="16" height="15" xoffset="0" yoffset="4" xadvance="15" page="0" chnl="15" />
    <char id="175" x="122" y="265" width="13" height="2" xoffset="1" yoffset="1" xadvance="11" page="0" chnl="15" />
    <char id="176" x="29" y="283" width="7" height="6" xoffset="2" yoffset="4" xadvance="8" page="0" chnl="15" />
    <char id="177" x="341" y="249" width="11" height="13" xoffset="1" yoffset="6" xadvance="11" page="0" chnl="15" />
    <char id="178" x="446" y="262" width="8" height="8" xoffset="1" yoffset="4" xadvance="7" page="0" chnl="15" />
    <char id="179" x="455" y="262" width="7" height="8" xoffset="1" yoffset="4" xadvance="7" page="0" chnl="15" />
    <char id="180" x="126" y="280" width="5" height="3" xoffset="3" yoffset="4" xadvance="7" page="0" chnl="15" />
    <char id="181" x="177" y="202" width="12" height="15" xoffset="-1" yoffset="8" xadvance="11" page="0" chnl="15" />
    <char id="182" x="331" y="61" width="13" height="19" xoffset="1" yoffset="4" xadvance="11" page="0" chnl="15" />
    <char id="183" x="132" y="280" width="3" height="3" xoffset="3" yoffset="10" xadvance="7" page="0" chnl="15" />
    <char id="184" x="62" y="282" width="6" height="5" xoffset="0" yoffset="19" xadvance="7" page="0" chnl="15" />
    <char id="185" x="463" y="262" width="6" height="8" xoffset="2" yoffset="4" xadvance="6" page="0" chnl="15" />
    <char id="186" x="428" y="262" width="8" height="8" xoffset="1" yoffset="4" xadvance="7" page="0" chnl="15" />
    <char id="187" x="361" y="262" width="10" height="10" xoffset="0" yoffset="9" xadvance="11" page="0" chnl="15" />
    <char id="188" x="212" y="120" width="17" height="16" xoffset="1" yoffset="4" xadvance="17" page="0" chnl="15" />
    <char id="189" x="230" y="120" width="17" height="16" xoffset="1" yoffset="4" xadvance="17" page="0" chnl="15" />
    <char id="190" x="469" y="99" width="17" height="17" xoffset="1" yoffset="3" xadvance="17" page="0" chnl="15" />
    <char id="191" x="168" y="234" width="10" height="15" xoffset="1" yoffset="8" xadvance="13" page="0" chnl="15" />
    <char id="192" x="166" y="61" width="14" height="19" xoffset="0" yoffset="0" xadvance="14" page="0" chnl="15" />
    <char id="193" x="196" y="61" width="14" height="19" xoffset="0" yoffset="0" xadvance="14" page="0" chnl="15" />
    <char id="194" x="211" y="61" width="14" height="19" xoffset="0" yoffset="0" xadvance="14" page="0" chnl="15" />
    <char id="195" x="241" y="61" width="14" height="19" xoffset="0" yoffset="0" xadvance="14" page="0" chnl="15" />
    <char id="196" x="206" y="101" width="14" height="18" xoffset="0" yoffset="1" xadvance="14" page="0" chnl="15" />
    <char id="197" x="251" y="101" width="14" height="18" xoffset="0" yoffset="1" xadvance="14" page="0" chnl="15" />
    <char id="198" x="147" y="138" width="24" height="15" xoffset="-1" yoffset="4" xadvance="21" page="0" chnl="15" />
    <char id="199" x="219" y="0" width="14" height="20" xoffset="1" yoffset="4" xadvance="15" page="0" chnl="15" />
    <char id="200" x="288" y="41" width="15" height="19" xoffset="0" yoffset="0" xadvance="14" page="0" chnl="15" />
    <char id="201" x="416" y="40" width="15" height="19" xoffset="0" yoffset="0" xadvance="14" page="0" chnl="15" />
    <char id="202" x="355" y="21" width="15" height="19" xoffset="0" yoffset="0" xadvance="14" page="0" chnl="15" />
    <char id="203" x="64" y="104" width="15" height="18" xoffset="0" yoffset="1" xadvance="14" page="0" chnl="15" />
    <char id="204" x="428" y="80" width="7" height="19" xoffset="1" yoffset="0" xadvance="5" page="0" chnl="15" />
    <char id="205" x="436" y="80" width="7" height="19" xoffset="1" yoffset="0" xadvance="5" page="0" chnl="15" />
    <char id="206" x="376" y="81" width="8" height="19" xoffset="1" yoffset="0" xadvance="5" page="0" chnl="15" />
    <char id="207" x="395" y="101" width="8" height="18" xoffset="1" yoffset="1" xadvance="5" page="0" chnl="15" />
    <char id="208" x="437" y="152" width="15" height="15" xoffset="0" yoffset="4" xadvance="15" page="0" chnl="15" />
    <char id="209" x="194" y="21" width="16" height="19" xoffset="0" yoffset="0" xadvance="15" page="0" chnl="15" />
    <char id="210" x="0" y="44" width="15" height="19" xoffset="1" yoffset="0" xadvance="16" page="0" chnl="15" />
    <char id="211" x="16" y="44" width="15" height="19" xoffset="1" yoffset="0" xadvance="16" page="0" chnl="15" />
    <char id="212" x="32" y="44" width="15" height="19" xoffset="1" yoffset="0" xadvance="16" page="0" chnl="15" />
    <char id="213" x="48" y="43" width="15" height="19" xoffset="1" yoffset="0" xadvance="16" page="0" chnl="15" />
    <char id="214" x="96" y="101" width="15" height="18" xoffset="1" yoffset="1" xadvance="16" page="0" chnl="15" />
    <char id="215" x="394" y="262" width="10" height="9" xoffset="2" yoffset="7" xadvance="12" page="0" chnl="15" />
    <char id="216" x="50" y="123" width="15" height="17" xoffset="1" yoffset="3" xadvance="16" page="0" chnl="15" />
    <char id="217" x="112" y="41" width="15" height="19" xoffset="1" yoffset="0" xadvance="15" page="0" chnl="15" />
    <char id="218" x="320" y="41" width="15" height="19" xoffset="1" yoffset="0" xadvance="15" page="0" chnl="15" />
    <char id="219" x="160" y="41" width="15" height="19" xoffset="1" yoffset="0" xadvance="15" page="0" chnl="15" />
    <char id="220" x="112" y="101" width="15" height="18" xoffset="1" yoffset="1" xadvance="15" page="0" chnl="15" />
    <char id="221" x="339" y="21" width="15" height="19" xoffset="2" yoffset="0" xadvance="14" page="0" chnl="15" />
    <char id="222" x="15" y="190" width="14" height="15" xoffset="0" yoffset="4" xadvance="14" page="0" chnl="15" />
    <char id="223" x="203" y="202" width="12" height="15" xoffset="0" yoffset="4" xadvance="13" page="0" chnl="15" />
    <char id="224" x="84" y="221" width="11" height="15" xoffset="0" yoffset="4" xadvance="11" page="0" chnl="15" />
    <char id="225" x="108" y="221" width="11" height="15" xoffset="0" yoffset="4" xadvance="11" page="0" chnl="15" />
    <char id="226" x="132" y="218" width="11" height="15" xoffset="0" yoffset="4" xadvance="11" page="0" chnl="15" />
    <char id="227" x="144" y="218" width="11" height="15" xoffset="0" yoffset="4" xadvance="11" page="0" chnl="15" />
    <char id="228" x="98" y="253" width="11" height="14" xoffset="0" yoffset="5" xadvance="11" page="0" chnl="15" />
    <char id="229" x="462" y="118" width="11" height="16" xoffset="0" yoffset="3" xadvance="11" page="0" chnl="15" />
    <char id="230" x="373" y="249" width="18" height="12" xoffset="0" yoffset="7" xadvance="18" page="0" chnl="15" />
    <char id="231" x="154" y="120" width="10" height="17" xoffset="1" yoffset="7" xadvance="10" page="0" chnl="15" />
    <char id="232" x="156" y="218" width="11" height="15" xoffset="0" yoffset="4" xadvance="11" page="0" chnl="15" />
    <char id="233" x="168" y="218" width="11" height="15" xoffset="0" yoffset="4" xadvance="11" page="0" chnl="15" />
    <char id="234" x="180" y="218" width="11" height="15" xoffset="0" yoffset="4" xadvance="11" page="0" chnl="15" />
    <char id="235" x="74" y="253" width="11" height="14" xoffset="0" yoffset="5" xadvance="11" page="0" chnl="15" />
    <char id="236" x="505" y="199" width="6" height="15" xoffset="1" yoffset="4" xadvance="6" page="0" chnl="15" />
    <char id="237" x="504" y="215" width="7" height="15" xoffset="1" yoffset="4" xadvance="6" page="0" chnl="15" />
    <char id="238" x="346" y="233" width="8" height="15" xoffset="1" yoffset="4" xadvance="6" page="0" chnl="15" />
    <char id="239" x="301" y="249" width="8" height="14" xoffset="1" yoffset="5" xadvance="6" page="0" chnl="15" />
    <char id="240" x="204" y="218" width="11" height="15" xoffset="0" yoffset="4" xadvance="11" page="0" chnl="15" />
    <char id="241" x="216" y="217" width="11" height="15" xoffset="0" yoffset="4" xadvance="11" page="0" chnl="15" />
    <char id="242" x="228" y="217" width="11" height="15" xoffset="0" yoffset="4" xadvance="11" page="0" chnl="15" />
    <char id="243" x="240" y="217" width="11" height="15" xoffset="0" yoffset="4" xadvance="11" page="0" chnl="15" />
    <char id="244" x="252" y="217" width="11" height="15" xoffset="0" yoffset="4" xadvance="11" page="0" chnl="15" />
    <char id="245" x="264" y="217" width="11" height="15" xoffset="0" yoffset="4" xadvance="11" page="0" chnl="15" />
    <char id="246" x="146" y="250" width="11" height="14" xoffset="0" yoffset="5" xadvance="11" page="0" chnl="15" />
    <char id="247" x="416" y="262" width="11" height="8" xoffset="1" yoffset="8" xadvance="11" page="0" chnl="15" />
    <char id="248" x="134" y="250" width="11" height="14" xoffset="1" yoffset="6" xadvance="13" page="0" chnl="15" />
    <char id="249" x="276" y="217" width="11" height="15" xoffset="1" yoffset="4" xadvance="11" page="0" chnl="15" />
    <char id="250" x="288" y="217" width="11" height="15" xoffset="1" yoffset="4" xadvance="11" page="0" chnl="15" />
    <char id="251" x="300" y="217" width="11" height="15" xoffset="1" yoffset="4" xadvance="11" page="0" chnl="15" />
    <char id="252" x="242" y="249" width="11" height="14" xoffset="1" yoffset="5" xadvance="11" page="0" chnl="15" />
    <char id="253" x="457" y="60" width="13" height="19" xoffset="0" yoffset="4" xadvance="10" page="0" chnl="15" />
    <char id="254" x="0" y="84" width="12" height="19" xoffset="0" yoffset="4" xadvance="11" page="0" chnl="15" />
    <char id="255" x="281" y="101" width="13" height="18" xoffset="0" yoffset="5" xadvance="10" page="0" chnl="15" />
    <char id="256" x="191" y="101" width="14" height="18" xoffset="0" yoffset="1" xadvance="14" page="0" chnl="15" />
    <char id="257" x="86" y="253" width="11" height="14" xoffset="0" yoffset="5" xadvance="11" page="0" chnl="15" />
    <char id="258" x="286" y="61" width="14" height="19" xoffset="0" yoffset="0" xadvance="14" page="0" chnl="15" />
    <char id="259" x="324" y="217" width="11" height="15" xoffset="0" yoffset="4" xadvance="11" page="0" chnl="15" />
    <char id="260" x="234" y="0" width="14" height="20" xoffset="0" yoffset="4" xadvance="14" page="0" chnl="15" />
    <char id="261" x="82" y="120" width="11" height="17" xoffset="0" yoffset="7" xadvance="11" page="0" chnl="15" />
    <char id="262" x="301" y="61" width="14" height="19" xoffset="1" yoffset="0" xadvance="15" page="0" chnl="15" />
    <char id="263" x="212" y="234" width="10" height="15" xoffset="1" yoffset="4" xadvance="10" page="0" chnl="15" />
    <char id="264" x="316" y="61" width="14" height="19" xoffset="1" yoffset="0" xadvance="15" page="0" chnl="15" />
    <char id="265" x="234" y="233" width="10" height="15" xoffset="1" yoffset="4" xadvance="10" page="0" chnl="15" />
    <char id="266" x="221" y="101" width="14" height="18" xoffset="1" yoffset="1" xadvance="15" page="0" chnl="15" />
    <char id="267" x="290" y="249" width="10" height="14" xoffset="1" yoffset="5" xadvance="10" page="0" chnl="15" />
    <char id="268" x="31" y="64" width="14" height="19" xoffset="1" yoffset="0" xadvance="15" page="0" chnl="15" />
    <char id="269" x="245" y="233" width="10" height="15" xoffset="1" yoffset="4" xadvance="10" page="0" chnl="15" />
    <char id="270" x="432" y="40" width="15" height="19" xoffset="0" yoffset="0" xadvance="15" page="0" chnl="15" />
    <char id="271" x="368" y="169" width="15" height="15" xoffset="1" yoffset="4" xadvance="13" page="0" chnl="15" />
    <char id="272" x="352" y="169" width="15" height="15" xoffset="0" yoffset="4" xadvance="15" page="0" chnl="15" />
    <char id="273" x="477" y="167" width="14" height="15" xoffset="0" yoffset="4" xadvance="11" page="0" chnl="15" />
    <char id="274" x="484" y="80" width="15" height="18" xoffset="0" yoffset="1" xadvance="14" page="0" chnl="15" />
    <char id="275" x="266" y="249" width="11" height="14" xoffset="0" yoffset="5" xadvance="11" page="0" chnl="15" />
    <char id="276" x="371" y="21" width="15" height="19" xoffset="0" yoffset="0" xadvance="14" page="0" chnl="15" />
    <char id="277" x="348" y="217" width="11" height="15" xoffset="0" yoffset="4" xadvance="11" page="0" chnl="15" />
    <char id="278" x="160" y="101" width="15" height="18" xoffset="0" yoffset="1" xadvance="14" page="0" chnl="15" />
    <char id="279" x="254" y="249" width="11" height="14" xoffset="0" yoffset="5" xadvance="11" page="0" chnl="15" />
    <char id="280" x="91" y="0" width="15" height="20" xoffset="0" yoffset="4" xadvance="14" page="0" chnl="15" />
    <char id="281" x="118" y="120" width="11" height="17" xoffset="0" yoffset="7" xadvance="11" page="0" chnl="15" />
    <char id="282" x="387" y="20" width="15" height="19" xoffset="0" yoffset="0" xadvance="14" page="0" chnl="15" />
    <char id="283" x="360" y="217" width="11" height="15" xoffset="0" yoffset="4" xadvance="11" page="0" chnl="15" />
    <char id="284" x="243" y="21" width="15" height="19" xoffset="1" yoffset="0" xadvance="16" page="0" chnl="15" />
    <char id="285" x="26" y="84" width="12" height="19" xoffset="0" yoffset="4" xadvance="11" page="0" chnl="15" />
    <char id="286" x="227" y="21" width="15" height="19" xoffset="1" yoffset="0" xadvance="16" page="0" chnl="15" />
    <char id="287" x="13" y="84" width="12" height="19" xoffset="0" yoffset="4" xadvance="11" page="0" chnl="15" />
    <char id="288" x="32" y="104" width="15" height="18" xoffset="1" yoffset="1" xadvance="16" page="0" chnl="15" />
    <char id="289" x="322" y="101" width="12" height="18" xoffset="0" yoffset="5" xadvance="11" page="0" chnl="15" />
    <char id="290" x="171" y="0" width="15" height="20" xoffset="1" yoffset="4" xadvance="16" page="0" chnl="15" />
    <char id="291" x="40" y="0" width="12" height="21" xoffset="0" yoffset="2" xadvance="11" page="0" chnl="15" />
    <char id="292" x="109" y="21" width="16" height="19" xoffset="0" yoffset="0" xadvance="15" page="0" chnl="15" />
    <char id="293" x="236" y="81" width="11" height="19" xoffset="0" yoffset="0" xadvance="11" page="0" chnl="15" />
    <char id="294" x="93" y="154" width="17" height="15" xoffset="0" yoffset="4" xadvance="15" page="0" chnl="15" />
    <char id="295" x="372" y="217" width="11" height="15" xoffset="0" yoffset="4" xadvance="11" page="0" chnl="15" />
    <char id="296" x="358" y="81" width="8" height="19" xoffset="1" yoffset="0" xadvance="5" page="0" chnl="15" />
    <char id="297" x="400" y="233" width="8" height="15" xoffset="0" yoffset="4" xadvance="4" page="0" chnl="15" />
    <char id="298" x="413" y="100" width="8" height="18" xoffset="1" yoffset="1" xadvance="5" page="0" chnl="15" />
    <char id="299" x="310" y="249" width="7" height="14" xoffset="0" yoffset="5" xadvance="4" page="0" chnl="15" />
    <char id="300" x="340" y="81" width="8" height="19" xoffset="1" yoffset="0" xadvance="5" page="0" chnl="15" />
    <char id="301" x="382" y="233" width="8" height="15" xoffset="0" yoffset="4" xadvance="4" page="0" chnl="15" />
    <char id="302" x="342" y="0" width="8" height="20" xoffset="-1" yoffset="4" xadvance="5" page="0" chnl="15" />
    <char id="303" x="360" y="0" width="7" height="20" xoffset="-1" yoffset="4" xadvance="4" page="0" chnl="15" />
    <char id="304" x="422" y="100" width="7" height="18" xoffset="1" yoffset="1" xadvance="5" page="0" chnl="15" />
    <char id="305" x="319" y="264" width="5" height="11" xoffset="1" yoffset="8" xadvance="6" page="0" chnl="15" />
    <char id="306" x="386" y="153" width="16" height="15" xoffset="0" yoffset="4" xadvance="15" page="0" chnl="15" />
    <char id="307" x="500" y="0" width="11" height="19" xoffset="0" yoffset="4" xadvance="9" page="0" chnl="15" />
    <char id="308" x="359" y="61" width="13" height="19" xoffset="0" yoffset="0" xadvance="10" page="0" chnl="15" />
    <char id="309" x="259" y="81" width="10" height="19" xoffset="-3" yoffset="4" xadvance="4" page="0" chnl="15" />
    <char id="310" x="123" y="0" width="15" height="20" xoffset="0" yoffset="4" xadvance="14" page="0" chnl="15" />
    <char id="311" x="330" y="0" width="11" height="20" xoffset="0" yoffset="4" xadvance="10" page="0" chnl="15" />
    <char id="312" x="152" y="265" width="12" height="11" xoffset="0" yoffset="8" xadvance="10" page="0" chnl="15" />
    <char id="313" x="116" y="81" width="11" height="19" xoffset="0" yoffset="0" xadvance="11" page="0" chnl="15" />
    <char id="314" x="394" y="81" width="8" height="19" xoffset="0" yoffset="0" xadvance="4" page="0" chnl="15" />
    <char id="315" x="318" y="0" width="11" height="20" xoffset="0" yoffset="4" xadvance="11" page="0" chnl="15" />
    <char id="316" x="375" y="0" width="6" height="20" xoffset="0" yoffset="4" xadvance="4" page="0" chnl="15" />
    <char id="317" x="112" y="202" width="12" height="15" xoffset="0" yoffset="4" xadvance="11" page="0" chnl="15" />
    <char id="318" x="316" y="233" width="9" height="15" xoffset="0" yoffset="4" xadvance="6" page="0" chnl="15" />
    <char id="319" x="408" y="217" width="11" height="15" xoffset="0" yoffset="4" xadvance="11" page="0" chnl="15" />
    <char id="320" x="418" y="233" width="8" height="15" xoffset="0" yoffset="4" xadvance="8" page="0" chnl="15" />
    <char id="321" x="420" y="217" width="11" height="15" xoffset="0" yoffset="4" xadvance="11" page="0" chnl="15" />
    <char id="322" x="451" y="233" width="7" height="15" xoffset="0" yoffset="4" xadvance="4" page="0" chnl="15" />
    <char id="323" x="143" y="21" width="16" height="19" xoffset="0" yoffset="0" xadvance="15" page="0" chnl="15" />
    <char id="324" x="432" y="217" width="11" height="15" xoffset="0" yoffset="4" xadvance="11" page="0" chnl="15" />
    <char id="325" x="74" y="0" width="16" height="20" xoffset="0" yoffset="4" xadvance="15" page="0" chnl="15" />
    <char id="326" x="94" y="120" width="11" height="17" xoffset="0" yoffset="7" xadvance="11" page="0" chnl="15" />
    <char id="327" x="126" y="21" width="16" height="19" xoffset="0" yoffset="0" xadvance="15" page="0" chnl="15" />
    <char id="328" x="444" y="217" width="11" height="15" xoffset="0" yoffset="4" xadvance="11" page="0" chnl="15" />
    <char id="329" x="486" y="183" width="13" height="15" xoffset="0" yoffset="4" xadvance="13" page="0" chnl="15" />
    <char id="330" x="176" y="170" width="15" height="15" xoffset="0" yoffset="4" xadvance="15" page="0" chnl="15" />
    <char id="331" x="24" y="141" width="11" height="16" xoffset="0" yoffset="7" xadvance="11" page="0" chnl="15" />
    <char id="332" x="16" y="104" width="15" height="18" xoffset="1" yoffset="1" xadvance="16" page="0" chnl="15" />
    <char id="333" x="218" y="250" width="11" height="14" xoffset="0" yoffset="5" xadvance="11" page="0" chnl="15" />
    <char id="334" x="259" y="21" width="15" height="19" xoffset="1" yoffset="0" xadvance="16" page="0" chnl="15" />
    <char id="335" x="456" y="217" width="11" height="15" xoffset="0" yoffset="4" xadvance="11" page="0" chnl="15" />
    <char id="336" x="291" y="21" width="15" height="19" xoffset="1" yoffset="0" xadvance="16" page="0" chnl="15" />
    <char id="337" x="125" y="202" width="12" height="15" xoffset="0" yoffset="4" xadvance="11" page="0" chnl="15" />
    <char id="338" x="291" y="137" width="21" height="15" xoffset="1" yoffset="4" xadvance="21" page="0" chnl="15" />
    <char id="339" x="353" y="249" width="19" height="12" xoffset="1" yoffset="7" xadvance="20" page="0" chnl="15" />
    <char id="340" x="496" y="40" width="15" height="19" xoffset="0" yoffset="0" xadvance="15" page="0" chnl="15" />
    <char id="341" x="256" y="233" width="9" height="15" xoffset="0" yoffset="4" xadvance="7" page="0" chnl="15" />
    <char id="342" x="139" y="0" width="15" height="20" xoffset="0" yoffset="4" xadvance="15" page="0" chnl="15" />
    <char id="343" x="165" y="120" width="9" height="17" xoffset="0" yoffset="7" xadvance="7" page="0" chnl="15" />
    <char id="344" x="144" y="41" width="15" height="19" xoffset="0" yoffset="0" xadvance="15" page="0" chnl="15" />
    <char id="345" x="266" y="233" width="9" height="15" xoffset="0" yoffset="4" xadvance="7" page="0" chnl="15" />
    <char id="346" x="471" y="60" width="13" height="19" xoffset="1" yoffset="0" xadvance="14" page="0" chnl="15" />
    <char id="347" x="468" y="217" width="11" height="15" xoffset="0" yoffset="4" xadvance="10" page="0" chnl="15" />
    <char id="348" x="429" y="60" width="13" height="19" xoffset="1" yoffset="0" xadvance="14" page="0" chnl="15" />
    <char id="349" x="480" y="216" width="11" height="15" xoffset="0" yoffset="4" xadvance="10" page="0" chnl="15" />
    <char id="350" x="277" y="0" width="13" height="20" xoffset="1" yoffset="4" xadvance="14" page="0" chnl="15" />
    <char id="351" x="142" y="120" width="11" height="17" xoffset="0" yoffset="7" xadvance="10" page="0" chnl="15" />
    <char id="352" x="485" y="60" width="13" height="19" xoffset="1" yoffset="0" xadvance="14" page="0" chnl="15" />
    <char id="353" x="12" y="238" width="11" height="15" xoffset="0" yoffset="4" xadvance="10" page="0" chnl="15" />
    <char id="354" x="249" y="0" width="13" height="20" xoffset="2" yoffset="4" xadvance="13" page="0" chnl="15" />
    <char id="355" x="351" y="0" width="8" height="20" xoffset="0" yoffset="4" xadvance="6" page="0" chnl="15" />
    <char id="356" x="401" y="60" width="13" height="19" xoffset="2" yoffset="0" xadvance="13" page="0" chnl="15" />
    <char id="357" x="201" y="234" width="10" height="15" xoffset="1" yoffset="4" xadvance="7" page="0" chnl="15" />
    <char id="358" x="472" y="183" width="13" height="15" xoffset="2" yoffset="4" xadvance="13" page="0" chnl="15" />
    <char id="359" x="427" y="233" width="7" height="15" xoffset="0" yoffset="4" xadvance="6" page="0" chnl="15" />
    <char id="360" x="480" y="40" width="15" height="19" xoffset="1" yoffset="0" xadvance="15" page="0" chnl="15" />
    <char id="361" x="24" y="238" width="11" height="15" xoffset="1" yoffset="4" xadvance="11" page="0" chnl="15" />
    <char id="362" x="0" y="104" width="15" height="18" xoffset="1" yoffset="1" xadvance="15" page="0" chnl="15" />
    <char id="363" x="194" y="250" width="11" height="14" xoffset="1" yoffset="5" xadvance="11" page="0" chnl="15" />
    <char id="364" x="323" y="21" width="15" height="19" xoffset="1" yoffset="0" xadvance="15" page="0" chnl="15" />
    <char id="365" x="36" y="238" width="11" height="15" xoffset="1" yoffset="4" xadvance="11" page="0" chnl="15" />
    <char id="366" x="448" y="40" width="15" height="19" xoffset="1" yoffset="0" xadvance="15" page="0" chnl="15" />
    <char id="367" x="498" y="117" width="11" height="16" xoffset="1" yoffset="3" xadvance="11" page="0" chnl="15" />
    <char id="368" x="400" y="40" width="15" height="19" xoffset="1" yoffset="0" xadvance="15" page="0" chnl="15" />
    <char id="369" x="48" y="238" width="11" height="15" xoffset="1" yoffset="4" xadvance="11" page="0" chnl="15" />
    <char id="370" x="107" y="0" width="15" height="20" xoffset="1" yoffset="4" xadvance="15" page="0" chnl="15" />
    <char id="371" x="486" y="117" width="11" height="16" xoffset="1" yoffset="8" xadvance="11" page="0" chnl="15" />
    <char id="372" x="459" y="0" width="20" height="19" xoffset="2" yoffset="0" xadvance="20" page="0" chnl="15" />
    <char id="373" x="318" y="153" width="16" height="15" xoffset="1" yoffset="4" xadvance="15" page="0" chnl="15" />
    <char id="374" x="336" y="41" width="15" height="19" xoffset="2" yoffset="0" xadvance="14" page="0" chnl="15" />
    <char id="375" x="443" y="60" width="13" height="19" xoffset="0" yoffset="4" xadvance="10" page="0" chnl="15" />
    <char id="376" x="128" y="101" width="15" height="18" xoffset="2" yoffset="1" xadvance="14" page="0" chnl="15" />
    <char id="377" x="46" y="64" width="14" height="19" xoffset="0" yoffset="0" xadvance="13" page="0" chnl="15" />
    <char id="378" x="84" y="237" width="11" height="15" xoffset="0" yoffset="4" xadvance="9" page="0" chnl="15" />
    <char id="379" x="236" y="101" width="14" height="18" xoffset="0" yoffset="1" xadvance="13" page="0" chnl="15" />
    <char id="380" x="110" y="253" width="11" height="14" xoffset="0" yoffset="5" xadvance="9" page="0" chnl="15" />
    <char id="381" x="271" y="61" width="14" height="19" xoffset="0" yoffset="0" xadvance="13" page="0" chnl="15" />
    <char id="382" x="96" y="237" width="11" height="15" xoffset="0" yoffset="4" xadvance="9" page="0" chnl="15" />
    <char id="383" x="326" y="233" width="9" height="15" xoffset="0" yoffset="4" xadvance="4" page="0" chnl="15" />
    <char id="384" x="108" y="237" width="11" height="15" xoffset="0" yoffset="4" xadvance="11" page="0" chnl="15" />
    <char id="385" x="96" y="170" width="15" height="15" xoffset="1" yoffset="4" xadvance="15" page="0" chnl="15" />
    <char id="386" x="462" y="167" width="14" height="15" xoffset="0" yoffset="4" xadvance="13" page="0" chnl="15" />
    <char id="387" x="120" y="234" width="11" height="15" xoffset="0" yoffset="4" xadvance="11" page="0" chnl="15" />
    <char id="388" x="416" y="185" width="13" height="15" xoffset="0" yoffset="4" xadvance="13" page="0" chnl="15" />
    <char id="389" x="132" y="234" width="11" height="15" xoffset="0" yoffset="4" xadvance="11" page="0" chnl="15" />
    <char id="390" x="150" y="186" width="14" height="15" xoffset="1" yoffset="4" xadvance="15" page="0" chnl="15" />
    <char id="391" x="450" y="100" width="18" height="17" xoffset="1" yoffset="2" xadvance="15" page="0" chnl="15" />
    <char id="392" x="326" y="249" width="14" height="13" xoffset="1" yoffset="6" xadvance="10" page="0" chnl="15" />
    <char id="393" x="453" y="151" width="15" height="15" xoffset="0" yoffset="4" xadvance="15" page="0" chnl="15" />
    <char id="394" x="267" y="153" width="16" height="15" xoffset="1" yoffset="4" xadvance="16" page="0" chnl="15" />
    <char id="395" x="416" y="169" width="15" height="15" xoffset="0" yoffset="4" xadvance="13" page="0" chnl="15" />
    <char id="396" x="164" y="202" width="12" height="15" xoffset="0" yoffset="4" xadvance="11" page="0" chnl="15" />
    <char id="397" x="349" y="120" width="12" height="16" xoffset="0" yoffset="7" xadvance="11" page="0" chnl="15" />
    <char id="398" x="0" y="174" width="15" height="15" xoffset="0" yoffset="4" xadvance="14" page="0" chnl="15" />
    <char id="399" x="32" y="174" width="15" height="15" xoffset="1" yoffset="4" xadvance="16" page="0" chnl="15" />
    <char id="400" x="447" y="168" width="14" height="15" xoffset="0" yoffset="4" xadvance="13" page="0" chnl="15" />
    <char id="401" x="56" y="21" width="17" height="19" xoffset="-2" yoffset="4" xadvance="13" page="0" chnl="15" />
    <char id="402" x="65" y="83" width="12" height="19" xoffset="0" yoffset="4" xadvance="11" page="0" chnl="15" />
    <char id="403" x="430" y="100" width="19" height="17" xoffset="1" yoffset="2" xadvance="16" page="0" chnl="15" />
    <char id="404" x="16" y="64" width="14" height="19" xoffset="0" yoffset="4" xadvance="10" page="0" chnl="15" />
    <char id="405" x="355" y="137" width="19" height="15" xoffset="0" yoffset="4" xadvance="18" page="0" chnl="15" />
    <char id="406" x="42" y="254" width="6" height="15" xoffset="0" yoffset="4" xadvance="4" page="0" chnl="15" />
    <char id="407" x="35" y="254" width="6" height="15" xoffset="1" yoffset="4" xadvance="6" page="0" chnl="15" />
    <char id="408" x="336" y="169" width="15" height="15" xoffset="0" yoffset="4" xadvance="14" page="0" chnl="15" />
    <char id="409" x="144" y="234" width="11" height="15" xoffset="0" yoffset="4" xadvance="10" page="0" chnl="15" />
    <char id="410" x="7" y="254" width="6" height="15" xoffset="0" yoffset="4" xadvance="4" page="0" chnl="15" />
    <char id="411" x="500" y="183" width="11" height="15" xoffset="-1" yoffset="4" xadvance="10" page="0" chnl="15" />
    <char id="412" x="432" y="136" width="18" height="15" xoffset="1" yoffset="4" xadvance="18" page="0" chnl="15" />
    <char id="413" x="480" y="0" width="19" height="19" xoffset="-2" yoffset="4" xadvance="15" page="0" chnl="15" />
    <char id="414" x="0" y="141" width="11" height="16" xoffset="0" yoffset="7" xadvance="11" page="0" chnl="15" />
    <char id="415" x="288" y="169" width="15" height="15" xoffset="1" yoffset="4" xadvance="16" page="0" chnl="15" />
    <char id="416" x="38" y="157" width="18" height="15" xoffset="1" yoffset="4" xadvance="17" page="0" chnl="15" />
    <char id="417" x="410" y="249" width="14" height="12" xoffset="0" yoffset="7" xadvance="12" page="0" chnl="15" />
    <char id="418" x="0" y="24" width="18" height="19" xoffset="1" yoffset="4" xadvance="18" page="0" chnl="15" />
    <char id="419" x="265" y="120" width="14" height="16" xoffset="0" yoffset="7" xadvance="14" page="0" chnl="15" />
    <char id="420" x="284" y="153" width="16" height="15" xoffset="1" yoffset="4" xadvance="15" page="0" chnl="15" />
    <char id="421" x="39" y="84" width="12" height="19" xoffset="0" yoffset="4" xadvance="11" page="0" chnl="15" />
    <char id="422" x="256" y="61" width="14" height="19" xoffset="0" yoffset="4" xadvance="14" page="0" chnl="15" />
    <char id="423" x="444" y="185" width="13" height="15" xoffset="1" yoffset="4" xadvance="14" page="0" chnl="15" />
    <char id="424" x="501" y="247" width="10" height="12" xoffset="0" yoffset="7" xadvance="10" page="0" chnl="15" />
    <char id="425" x="90" y="189" width="14" height="15" xoffset="0" yoffset="4" xadvance="12" page="0" chnl="15" />
    <char id="426" x="444" y="80" width="6" height="19" xoffset="1" yoffset="4" xadvance="7" page="0" chnl="15" />
    <char id="427" x="403" y="80" width="8" height="19" xoffset="0" yoffset="4" xadvance="6" page="0" chnl="15" />
    <char id="428" x="240" y="185" width="14" height="15" xoffset="1" yoffset="4" xadvance="13" page="0" chnl="15" />
    <char id="429" x="364" y="233" width="8" height="15" xoffset="1" yoffset="4" xadvance="6" page="0" chnl="15" />
    <char id="430" x="415" y="60" width="13" height="19" xoffset="2" yoffset="4" xadvance="13" page="0" chnl="15" />
    <char id="431" x="19" y="158" width="18" height="15" xoffset="1" yoffset="4" xadvance="16" page="0" chnl="15" />
    <char id="432" x="121" y="268" width="15" height="11" xoffset="1" yoffset="8" xadvance="13" page="0" chnl="15" />
    <char id="433" x="147" y="154" width="17" height="15" xoffset="1" yoffset="4" xadvance="16" page="0" chnl="15" />
    <char id="434" x="45" y="190" width="14" height="15" xoffset="1" yoffset="4" xadvance="15" page="0" chnl="15" />
    <char id="435" x="301" y="153" width="16" height="15" xoffset="2" yoffset="4" xadvance="15" page="0" chnl="15" />
    <char id="436" x="38" y="23" width="17" height="19" xoffset="0" yoffset="4" xadvance="10" page="0" chnl="15" />
    <char id="437" x="135" y="186" width="14" height="15" xoffset="0" yoffset="4" xadvance="13" page="0" chnl="15" />
    <char id="438" x="274" y="264" width="11" height="11" xoffset="0" yoffset="8" xadvance="10" page="0" chnl="15" />
    <char id="439" x="307" y="21" width="15" height="19" xoffset="-1" yoffset="4" xadvance="13" page="0" chnl="15" />
    <char id="440" x="275" y="21" width="15" height="19" xoffset="0" yoffset="4" xadvance="13" page="0" chnl="15" />
    <char id="441" x="241" y="201" width="11" height="15" xoffset="0" yoffset="8" xadvance="10" page="0" chnl="15" />
    <char id="442" x="216" y="201" width="12" height="15" xoffset="0" yoffset="8" xadvance="10" page="0" chnl="15" />
    <char id="443" x="253" y="201" width="11" height="15" xoffset="1" yoffset="4" xadvance="11" page="0" chnl="15" />
    <char id="444" x="289" y="201" width="11" height="15" xoffset="0" yoffset="4" xadvance="10" page="0" chnl="15" />
    <char id="445" x="286" y="264" width="11" height="11" xoffset="0" yoffset="8" xadvance="9" page="0" chnl="15" />
    <char id="446" x="190" y="234" width="10" height="15" xoffset="1" yoffset="4" xadvance="10" page="0" chnl="15" />
    <char id="447" x="362" y="120" width="12" height="16" xoffset="0" yoffset="7" xadvance="11" page="0" chnl="15" />
    <char id="448" x="508" y="134" width="3" height="15" xoffset="1" yoffset="4" xadvance="5" page="0" chnl="15" />
    <char id="449" x="467" y="233" width="6" height="15" xoffset="1" yoffset="4" xadvance="8" page="0" chnl="15" />
    <char id="450" x="301" y="201" width="11" height="15" xoffset="1" yoffset="4" xadvance="12" page="0" chnl="15" />
    <char id="451" x="481" y="232" width="6" height="15" xoffset="1" yoffset="4" xadvance="6" page="0" chnl="15" />
    <char id="452" x="382" y="0" width="29" height="19" xoffset="0" yoffset="0" xadvance="28" page="0" chnl="15" />
    <char id="453" x="66" y="141" width="26" height="15" xoffset="0" yoffset="4" xadvance="25" page="0" chnl="15" />
    <char id="454" x="196" y="137" width="23" height="15" xoffset="0" yoffset="4" xadvance="22" page="0" chnl="15" />
    <char id="455" x="244" y="137" width="23" height="15" xoffset="0" yoffset="4" xadvance="22" page="0" chnl="15" />
    <char id="456" x="19" y="24" width="18" height="19" xoffset="0" yoffset="4" xadvance="16" page="0" chnl="15" />
    <char id="457" x="140" y="81" width="11" height="19" xoffset="0" yoffset="4" xadvance="9" page="0" chnl="15" />
    <char id="458" x="93" y="138" width="26" height="15" xoffset="0" yoffset="4" xadvance="25" page="0" chnl="15" />
    <char id="459" x="437" y="0" width="21" height="19" xoffset="0" yoffset="4" xadvance="20" page="0" chnl="15" />
    <char id="460" x="74" y="21" width="17" height="19" xoffset="0" yoffset="4" xadvance="16" page="0" chnl="15" />
    <char id="461" x="106" y="61" width="14" height="19" xoffset="0" yoffset="0" xadvance="14" page="0" chnl="15" />
    <char id="462" x="313" y="201" width="11" height="15" xoffset="0" yoffset="4" xadvance="11" page="0" chnl="15" />
    <char id="463" x="385" y="81" width="8" height="19" xoffset="1" yoffset="0" xadvance="5" page="0" chnl="15" />
    <char id="464" x="435" y="233" width="7" height="15" xoffset="0" yoffset="4" xadvance="4" page="0" chnl="15" />
    <char id="465" x="384" y="41" width="15" height="19" xoffset="1" yoffset="0" xadvance="16" page="0" chnl="15" />
    <char id="466" x="325" y="201" width="11" height="15" xoffset="0" yoffset="4" xadvance="11" page="0" chnl="15" />
    <char id="467" x="368" y="41" width="15" height="19" xoffset="1" yoffset="0" xadvance="15" page="0" chnl="15" />
    <char id="468" x="337" y="201" width="11" height="15" xoffset="1" yoffset="4" xadvance="11" page="0" chnl="15" />
    <char id="469" x="352" y="41" width="15" height="19" xoffset="1" yoffset="0" xadvance="15" page="0" chnl="15" />
    <char id="470" x="500" y="80" width="11" height="18" xoffset="1" yoffset="1" xadvance="11" page="0" chnl="15" />
    <char id="471" x="0" y="64" width="15" height="19" xoffset="1" yoffset="0" xadvance="15" page="0" chnl="15" />
    <char id="472" x="152" y="81" width="11" height="19" xoffset="1" yoffset="0" xadvance="11" page="0" chnl="15" />
    <char id="473" x="256" y="41" width="15" height="19" xoffset="1" yoffset="0" xadvance="15" page="0" chnl="15" />
    <char id="474" x="164" y="81" width="11" height="19" xoffset="1" yoffset="0" xadvance="11" page="0" chnl="15" />
    <char id="475" x="208" y="41" width="15" height="19" xoffset="1" yoffset="0" xadvance="15" page="0" chnl="15" />
    <char id="476" x="128" y="81" width="11" height="19" xoffset="1" yoffset="0" xadvance="11" page="0" chnl="15" />
    <char id="477" x="489" y="248" width="11" height="12" xoffset="1" yoffset="7" xadvance="11" page="0" chnl="15" />
    <char id="478" x="226" y="61" width="14" height="19" xoffset="0" yoffset="0" xadvance="14" page="0" chnl="15" />
    <char id="479" x="359" y="101" width="11" height="18" xoffset="0" yoffset="1" xadvance="11" page="0" chnl="15" />
    <char id="480" x="181" y="61" width="14" height="19" xoffset="0" yoffset="0" xadvance="14" page="0" chnl="15" />
    <char id="481" x="371" y="101" width="11" height="18" xoffset="0" yoffset="1" xadvance="11" page="0" chnl="15" />
    <char id="482" x="459" y="80" width="24" height="18" xoffset="-1" yoffset="1" xadvance="21" page="0" chnl="15" />
    <char id="483" x="55" y="254" width="18" height="14" xoffset="0" yoffset="5" xadvance="18" page="0" chnl="15" />
    <char id="484" x="48" y="173" width="15" height="15" xoffset="1" yoffset="4" xadvance="16" page="0" chnl="15" />
    <char id="485" x="322" y="120" width="13" height="16" xoffset="0" yoffset="7" xadvance="11" page="0" chnl="15" />
    <char id="486" x="451" y="20" width="15" height="19" xoffset="1" yoffset="0" xadvance="16" page="0" chnl="15" />
    <char id="487" x="91" y="81" width="12" height="19" xoffset="0" yoffset="4" xadvance="11" page="0" chnl="15" />
    <char id="488" x="464" y="40" width="15" height="19" xoffset="0" yoffset="0" xadvance="14" page="0" chnl="15" />
    <char id="489" x="176" y="81" width="11" height="19" xoffset="0" yoffset="0" xadvance="10" page="0" chnl="15" />
    <char id="490" x="155" y="0" width="15" height="20" xoffset="1" yoffset="4" xadvance="16" page="0" chnl="15" />
    <char id="491" x="130" y="120" width="11" height="17" xoffset="0" yoffset="7" xadvance="11" page="0" chnl="15" />
    <char id="492" x="0" y="0" width="15" height="23" xoffset="1" yoffset="1" xadvance="16" page="0" chnl="15" />
    <char id="493" x="188" y="81" width="11" height="19" xoffset="0" yoffset="5" xadvance="11" page="0" chnl="15" />
    <char id="494" x="16" y="0" width="15" height="23" xoffset="-1" yoffset="0" xadvance="13" page="0" chnl="15" />
    <char id="495" x="345" y="61" width="13" height="19" xoffset="-1" yoffset="4" xadvance="10" page="0" chnl="15" />
    <char id="496" x="224" y="81" width="11" height="19" xoffset="-3" yoffset="4" xadvance="4" page="0" chnl="15" />
    <char id="497" x="36" y="141" width="29" height="15" xoffset="0" yoffset="4" xadvance="28" page="0" chnl="15" />
    <char id="498" x="120" y="138" width="26" height="15" xoffset="0" yoffset="4" xadvance="25" page="0" chnl="15" />
    <char id="499" x="172" y="138" width="23" height="15" xoffset="0" yoffset="4" xadvance="22" page="0" chnl="15" />
    <char id="500" x="211" y="21" width="15" height="19" xoffset="1" yoffset="0" xadvance="16" page="0" chnl="15" />
    <char id="501" x="499" y="20" width="12" height="19" xoffset="0" yoffset="4" xadvance="11" page="0" chnl="15" />
    <char id="502" x="268" y="137" width="22" height="15" xoffset="0" yoffset="4" xadvance="21" page="0" chnl="15" />
    <char id="503" x="61" y="63" width="14" height="19" xoffset="0" yoffset="4" xadvance="13" page="0" chnl="15" />
    <char id="504" x="92" y="21" width="16" height="19" xoffset="0" yoffset="0" xadvance="15" page="0" chnl="15" />
    <char id="505" x="385" y="201" width="11" height="15" xoffset="0" yoffset="4" xadvance="11" page="0" chnl="15" />
    <char id="506" x="76" y="61" width="14" height="19" xoffset="0" yoffset="0" xadvance="14" page="0" chnl="15" />
    <char id="507" x="200" y="81" width="11" height="19" xoffset="0" yoffset="0" xadvance="11" page="0" chnl="15" />
    <char id="508" x="412" y="0" width="24" height="19" xoffset="-1" yoffset="0" xadvance="21" page="0" chnl="15" />
    <char id="509" x="0" y="158" width="18" height="15" xoffset="0" yoffset="4" xadvance="18" page="0" chnl="15" />
    <char id="510" x="203" y="0" width="15" height="20" xoffset="1" yoffset="0" xadvance="16" page="0" chnl="15" />
    <char id="511" x="426" y="119" width="11" height="16" xoffset="1" yoffset="4" xadvance="13" page="0" chnl="15" />
    <char id="512" x="91" y="61" width="14" height="19" xoffset="0" yoffset="0" xadvance="14" page="0" chnl="15" />
    <char id="513" x="481" y="199" width="11" height="15" xoffset="0" yoffset="4" xadvance="11" page="0" chnl="15" />
    <char id="514" x="121" y="61" width="14" height="19" xoffset="0" yoffset="0" xadvance="14" page="0" chnl="15" />
    <char id="515" x="0" y="222" width="11" height="15" xoffset="0" yoffset="4" xadvance="11" page="0" chnl="15" />
    <char id="516" x="192" y="41" width="15" height="19" xoffset="0" yoffset="0" xadvance="14" page="0" chnl="15" />
    <char id="517" x="24" y="222" width="11" height="15" xoffset="0" yoffset="4" xadvance="11" page="0" chnl="15" />
    <char id="518" x="176" y="41" width="15" height="19" xoffset="0" yoffset="0" xadvance="14" page="0" chnl="15" />
    <char id="519" x="48" y="222" width="11" height="15" xoffset="0" yoffset="4" xadvance="11" page="0" chnl="15" />
    <char id="520" x="412" y="80" width="7" height="19" xoffset="1" yoffset="0" xadvance="5" page="0" chnl="15" />
    <char id="521" x="409" y="233" width="8" height="15" xoffset="0" yoffset="4" xadvance="6" page="0" chnl="15" />
    <char id="522" x="367" y="81" width="8" height="19" xoffset="1" yoffset="0" xadvance="5" page="0" chnl="15" />
    <char id="523" x="443" y="233" width="7" height="15" xoffset="1" yoffset="4" xadvance="6" page="0" chnl="15" />
    <char id="524" x="96" y="41" width="15" height="19" xoffset="1" yoffset="0" xadvance="16" page="0" chnl="15" />
    <char id="525" x="96" y="221" width="11" height="15" xoffset="0" yoffset="4" xadvance="11" page="0" chnl="15" />
    <char id="526" x="80" y="41" width="15" height="19" xoffset="1" yoffset="0" xadvance="16" page="0" chnl="15" />
    <char id="527" x="120" y="218" width="11" height="15" xoffset="0" yoffset="4" xadvance="11" page="0" chnl="15" />
    <char id="528" x="64" y="41" width="15" height="19" xoffset="0" yoffset="0" xadvance="15" page="0" chnl="15" />
    <char id="529" x="296" y="233" width="9" height="15" xoffset="0" yoffset="4" xadvance="7" page="0" chnl="15" />
    <char id="530" x="467" y="20" width="15" height="19" xoffset="0" yoffset="0" xadvance="15" page="0" chnl="15" />
    <char id="531" x="286" y="233" width="9" height="15" xoffset="0" yoffset="4" xadvance="7" page="0" chnl="15" />
    <char id="532" x="435" y="20" width="15" height="19" xoffset="1" yoffset="0" xadvance="15" page="0" chnl="15" />
    <char id="533" x="60" y="238" width="11" height="15" xoffset="1" yoffset="4" xadvance="11" page="0" chnl="15" />
    <char id="534" x="419" y="20" width="15" height="19" xoffset="1" yoffset="0" xadvance="15" page="0" chnl="15" />
    <char id="535" x="192" y="218" width="11" height="15" xoffset="1" yoffset="4" xadvance="11" page="0" chnl="15" />
    <char id="536" x="263" y="0" width="13" height="20" xoffset="1" yoffset="4" xadvance="14" page="0" chnl="15" />
    <char id="537" x="106" y="120" width="11" height="17" xoffset="0" yoffset="7" xadvance="10" page="0" chnl="15" />
    <char id="538" x="291" y="0" width="13" height="20" xoffset="2" yoffset="4" xadvance="13" page="0" chnl="15" />
    <char id="539" x="368" y="0" width="6" height="20" xoffset="1" yoffset="4" xadvance="6" page="0" chnl="15" />
    <char id="540" x="136" y="61" width="14" height="19" xoffset="-1" yoffset="4" xadvance="11" page="0" chnl="15" />
    <char id="541" x="414" y="119" width="11" height="16" xoffset="-1" yoffset="7" xadvance="9" page="0" chnl="15" />
    <char id="542" x="177" y="21" width="16" height="19" xoffset="0" yoffset="0" xadvance="15" page="0" chnl="15" />
    <char id="543" x="52" y="84" width="12" height="19" xoffset="0" yoffset="0" xadvance="11" page="0" chnl="15" />
    <char id="544" x="483" y="20" width="15" height="19" xoffset="0" yoffset="4" xadvance="14" page="0" chnl="15" />
    <char id="545" x="373" y="61" width="13" height="19" xoffset="0" yoffset="4" xadvance="13" page="0" chnl="15" />
    <char id="546" x="56" y="206" width="13" height="15" xoffset="0" yoffset="4" xadvance="12" page="0" chnl="15" />
    <char id="547" x="402" y="185" width="13" height="15" xoffset="0" yoffset="4" xadvance="12" page="0" chnl="15" />
    <char id="548" x="266" y="101" width="14" height="18" xoffset="0" yoffset="4" xadvance="13" page="0" chnl="15" />
    <char id="549" x="206" y="250" width="11" height="14" xoffset="0" yoffset="8" xadvance="10" page="0" chnl="15" />
    <char id="550" x="176" y="101" width="14" height="18" xoffset="0" yoffset="1" xadvance="14" page="0" chnl="15" />
    <char id="551" x="230" y="249" width="11" height="14" xoffset="0" yoffset="5" xadvance="11" page="0" chnl="15" />
    <char id="552" x="272" y="41" width="15" height="19" xoffset="0" yoffset="4" xadvance="14" page="0" chnl="15" />
    <char id="553" x="474" y="117" width="11" height="16" xoffset="0" yoffset="7" xadvance="11" page="0" chnl="15" />
    <char id="554" x="403" y="20" width="15" height="19" xoffset="1" yoffset="0" xadvance="16" page="0" chnl="15" />
    <char id="555" x="383" y="101" width="11" height="18" xoffset="0" yoffset="1" xadvance="11" page="0" chnl="15" />
    <char id="556" x="128" y="41" width="15" height="19" xoffset="1" yoffset="0" xadvance="16" page="0" chnl="15" />
    <char id="557" x="335" y="101" width="11" height="18" xoffset="0" yoffset="1" xadvance="11" page="0" chnl="15" />
    <char id="558" x="80" y="101" width="15" height="18" xoffset="1" yoffset="1" xadvance="16" page="0" chnl="15" />
    <char id="559" x="122" y="250" width="11" height="14" xoffset="0" yoffset="5" xadvance="11" page="0" chnl="15" />
    <char id="560" x="224" y="41" width="15" height="19" xoffset="1" yoffset="0" xadvance="16" page="0" chnl="15" />
    <char id="561" x="347" y="101" width="11" height="18" xoffset="0" yoffset="1" xadvance="11" page="0" chnl="15" />
    <char id="562" x="48" y="104" width="15" height="18" xoffset="2" yoffset="1" xadvance="14" page="0" chnl="15" />
    <char id="563" x="295" y="101" width="13" height="18" xoffset="0" yoffset="5" xadvance="10" page="0" chnl="15" />
    <char id="564" x="290" y="81" width="9" height="19" xoffset="-2" yoffset="4" xadvance="6" page="0" chnl="15" />
    <char id="565" x="308" y="120" width="13" height="16" xoffset="0" yoffset="7" xadvance="13" page="0" chnl="15" />
    <char id="566" x="179" y="234" width="10" height="15" xoffset="-1" yoffset="4" xadvance="7" page="0" chnl="15" />
    <char id="567" x="391" y="233" width="8" height="15" xoffset="-3" yoffset="8" xadvance="4" page="0" chnl="15" />
    <char id="568" x="451" y="135" width="18" height="15" xoffset="0" yoffset="4" xadvance="18" page="0" chnl="15" />
    <char id="569" x="175" y="120" width="18" height="16" xoffset="0" yoffset="7" xadvance="18" page="0" chnl="15" />
    <char id="570" x="487" y="99" width="17" height="17" xoffset="0" yoffset="3" xadvance="14" page="0" chnl="15" />
    <char id="571" x="0" y="123" width="16" height="17" xoffset="1" yoffset="3" xadvance="15" page="0" chnl="15" />
    <char id="572" x="187" y="0" width="15" height="20" xoffset="-1" yoffset="3" xadvance="10" page="0" chnl="15" />
    <char id="573" x="229" y="201" width="11" height="15" xoffset="0" yoffset="4" xadvance="11" page="0" chnl="15" />
    <char id="574" x="17" y="123" width="16" height="17" xoffset="-1" yoffset="3" xadvance="13" page="0" chnl="15" />
    <char id="575" x="12" y="141" width="11" height="16" xoffset="0" yoffset="7" xadvance="10" page="0" chnl="15" />
    <char id="576" x="265" y="201" width="11" height="15" xoffset="0" yoffset="8" xadvance="10" page="0" chnl="15" />
    <char id="577" x="277" y="201" width="11" height="15" xoffset="2" yoffset="4" xadvance="12" page="0" chnl="15" />
    <char id="578" x="67" y="269" width="9" height="12" xoffset="1" yoffset="7" xadvance="9" page="0" chnl="15" />
    <char id="579" x="60" y="189" width="14" height="15" xoffset="0" yoffset="4" xadvance="14" page="0" chnl="15" />
    <char id="580" x="64" y="173" width="15" height="15" xoffset="1" yoffset="4" xadvance="15" page="0" chnl="15" />
    <char id="581" x="315" y="185" width="14" height="15" xoffset="0" yoffset="4" xadvance="14" page="0" chnl="15" />
    <char id="582" x="34" y="123" width="15" height="17" xoffset="0" yoffset="3" xadvance="14" page="0" chnl="15" />
    <char id="583" x="240" y="41" width="15" height="19" xoffset="-1" yoffset="4" xadvance="11" page="0" chnl="15" />
    <char id="584" x="349" y="201" width="11" height="15" xoffset="0" yoffset="4" xadvance="10" page="0" chnl="15" />
    <char id="585" x="310" y="81" width="9" height="19" xoffset="-3" yoffset="4" xadvance="4" page="0" chnl="15" />
    <char id="586" x="160" y="21" width="16" height="19" xoffset="1" yoffset="4" xadvance="16" page="0" chnl="15" />
    <char id="587" x="401" y="120" width="12" height="16" xoffset="0" yoffset="7" xadvance="11" page="0" chnl="15" />
    <char id="588" x="216" y="153" width="16" height="15" xoffset="0" yoffset="4" xadvance="15" page="0" chnl="15" />
    <char id="589" x="57" y="269" width="9" height="12" xoffset="0" yoffset="7" xadvance="7" page="0" chnl="15" />
    <char id="590" x="16" y="174" width="15" height="15" xoffset="1" yoffset="4" xadvance="14" page="0" chnl="15" />
    <char id="591" x="0" y="206" width="13" height="15" xoffset="0" yoffset="8" xadvance="10" page="0" chnl="15" />
    <char id="894" x="495" y="231" width="6" height="15" xoffset="0" yoffset="8" xadvance="6" page="0" chnl="15" />
    <char id="900" x="120" y="280" width="5" height="3" xoffset="3" yoffset="4" xadvance="7" page="0" chnl="15" />
    <char id="901" x="93" y="280" width="10" height="3" xoffset="0" yoffset="4" xadvance="7" page="0" chnl="15" />
    <char id="902" x="300" y="185" width="14" height="15" xoffset="0" yoffset="4" xadvance="14" page="0" chnl="15" />
    <char id="903" x="96" y="186" width="3" height="2" xoffset="3" yoffset="8" xadvance="6" page="0" chnl="15" />
    <char id="904" x="75" y="157" width="17" height="15" xoffset="1" yoffset="4" xadvance="16" page="0" chnl="15" />
    <char id="905" x="375" y="137" width="18" height="15" xoffset="1" yoffset="4" xadvance="18" page="0" chnl="15" />
    <char id="906" x="373" y="233" width="8" height="15" xoffset="0" yoffset="4" xadvance="8" page="0" chnl="15" />
    <char id="908" x="352" y="153" width="16" height="15" xoffset="0" yoffset="4" xadvance="16" page="0" chnl="15" />
    <char id="910" x="313" y="137" width="20" height="15" xoffset="1" yoffset="4" xadvance="18" page="0" chnl="15" />
    <char id="911" x="111" y="154" width="17" height="15" xoffset="0" yoffset="4" xadvance="16" page="0" chnl="15" />
    <char id="912" x="336" y="233" width="9" height="15" xoffset="0" yoffset="4" xadvance="4" page="0" chnl="15" />
    <char id="913" x="180" y="186" width="14" height="15" xoffset="0" yoffset="4" xadvance="14" page="0" chnl="15" />
    <char id="914" x="210" y="185" width="14" height="15" xoffset="0" yoffset="4" xadvance="14" page="0" chnl="15" />
    <char id="915" x="225" y="185" width="14" height="15" xoffset="0" yoffset="4" xadvance="12" page="0" chnl="15" />
    <char id="916" x="255" y="185" width="14" height="15" xoffset="0" yoffset="4" xadvance="14" page="0" chnl="15" />
    <char id="917" x="144" y="170" width="15" height="15" xoffset="0" yoffset="4" xadvance="14" page="0" chnl="15" />
    <char id="918" x="30" y="190" width="14" height="15" xoffset="0" yoffset="4" xadvance="13" page="0" chnl="15" />
    <char id="919" x="420" y="153" width="16" height="15" xoffset="0" yoffset="4" xadvance="15" page="0" chnl="15" />
    <char id="920" x="469" y="151" width="15" height="15" xoffset="1" yoffset="4" xadvance="16" page="0" chnl="15" />
    <char id="921" x="488" y="232" width="6" height="15" xoffset="1" yoffset="4" xadvance="5" page="0" chnl="15" />
    <char id="922" x="160" y="170" width="15" height="15" xoffset="0" yoffset="4" xadvance="14" page="0" chnl="15" />
    <char id="923" x="165" y="186" width="14" height="15" xoffset="0" yoffset="4" xadvance="14" page="0" chnl="15" />
    <char id="924" x="394" y="137" width="18" height="15" xoffset="0" yoffset="4" xadvance="17" page="0" chnl="15" />
    <char id="925" x="403" y="153" width="16" height="15" xoffset="0" yoffset="4" xadvance="15" page="0" chnl="15" />
    <char id="926" x="240" y="169" width="15" height="15" xoffset="0" yoffset="4" xadvance="13" page="0" chnl="15" />
    <char id="927" x="272" y="169" width="15" height="15" xoffset="1" yoffset="4" xadvance="16" page="0" chnl="15" />
    <char id="928" x="369" y="153" width="16" height="15" xoffset="0" yoffset="4" xadvance="15" page="0" chnl="15" />
    <char id="929" x="384" y="169" width="15" height="15" xoffset="0" yoffset="4" xadvance="14" page="0" chnl="15" />
    <char id="931" x="270" y="185" width="14" height="15" xoffset="0" yoffset="4" xadvance="12" page="0" chnl="15" />
    <char id="932" x="458" y="184" width="13" height="15" xoffset="2" yoffset="4" xadvance="13" page="0" chnl="15" />
    <char id="933" x="320" y="169" width="15" height="15" xoffset="2" yoffset="4" xadvance="14" page="0" chnl="15" />
    <char id="934" x="335" y="153" width="16" height="15" xoffset="1" yoffset="4" xadvance="17" page="0" chnl="15" />
    <char id="935" x="413" y="137" width="18" height="15" xoffset="-1" yoffset="4" xadvance="14" page="0" chnl="15" />
    <char id="936" x="129" y="154" width="17" height="15" xoffset="2" yoffset="4" xadvance="17" page="0" chnl="15" />
    <char id="937" x="57" y="157" width="17" height="15" xoffset="0" yoffset="4" xadvance="16" page="0" chnl="15" />
    <char id="938" x="404" y="100" width="8" height="18" xoffset="1" yoffset="1" xadvance="5" page="0" chnl="15" />
    <char id="939" x="144" y="101" width="15" height="18" xoffset="2" yoffset="1" xadvance="14" page="0" chnl="15" />
    <char id="940" x="14" y="206" width="13" height="15" xoffset="0" yoffset="4" xadvance="12" page="0" chnl="15" />
    <char id="941" x="306" y="233" width="9" height="15" xoffset="0" yoffset="4" xadvance="9" page="0" chnl="15" />
    <char id="942" x="212" y="81" width="11" height="19" xoffset="0" yoffset="4" xadvance="11" page="0" chnl="15" />
    <char id="943" x="14" y="254" width="6" height="15" xoffset="0" yoffset="4" xadvance="4" page="0" chnl="15" />
    <char id="944" x="312" y="217" width="11" height="15" xoffset="1" yoffset="4" xadvance="11" page="0" chnl="15" />
    <char id="945" x="439" y="249" width="13" height="12" xoffset="0" yoffset="7" xadvance="12" page="0" chnl="15" />
    <char id="946" x="387" y="61" width="13" height="19" xoffset="0" yoffset="4" xadvance="12" page="0" chnl="15" />
    <char id="947" x="336" y="217" width="11" height="15" xoffset="1" yoffset="8" xadvance="10" page="0" chnl="15" />
    <char id="948" x="151" y="202" width="12" height="15" xoffset="0" yoffset="4" xadvance="11" page="0" chnl="15" />
    <char id="949" x="47" y="270" width="9" height="12" xoffset="0" yoffset="7" xadvance="9" page="0" chnl="15" />
    <char id="950" x="499" y="60" width="12" height="19" xoffset="0" yoffset="4" xadvance="9" page="0" chnl="15" />
    <char id="951" x="438" y="118" width="11" height="16" xoffset="0" yoffset="7" xadvance="11" page="0" chnl="15" />
    <char id="952" x="384" y="217" width="11" height="15" xoffset="1" yoffset="4" xadvance="11" page="0" chnl="15" />
    <char id="953" x="331" y="263" width="5" height="11" xoffset="0" yoffset="8" xadvance="4" page="0" chnl="15" />
    <char id="954" x="190" y="265" width="11" height="11" xoffset="0" yoffset="8" xadvance="10" page="0" chnl="15" />
    <char id="955" x="396" y="217" width="11" height="15" xoffset="-1" yoffset="4" xadvance="10" page="0" chnl="15" />
    <char id="956" x="28" y="206" width="13" height="15" xoffset="0" yoffset="8" xadvance="11" page="0" chnl="15" />
    <char id="957" x="226" y="265" width="11" height="11" xoffset="1" yoffset="8" xadvance="10" page="0" chnl="15" />
    <char id="958" x="248" y="81" width="10" height="19" xoffset="1" yoffset="4" xadvance="9" page="0" chnl="15" />
    <char id="959" x="477" y="249" width="11" height="12" xoffset="0" yoffset="7" xadvance="11" page="0" chnl="15" />
    <char id="960" x="137" y="265" width="14" height="11" xoffset="1" yoffset="8" xadvance="14" page="0" chnl="15" />
    <char id="961" x="294" y="120" width="13" height="16" xoffset="0" yoffset="7" xadvance="12" page="0" chnl="15" />
    <char id="962" x="450" y="118" width="11" height="16" xoffset="0" yoffset="7" xadvance="10" page="0" chnl="15" />
    <char id="963" x="425" y="249" width="13" height="12" xoffset="0" yoffset="7" xadvance="12" page="0" chnl="15" />
    <char id="964" x="310" y="264" width="8" height="11" xoffset="1" yoffset="8" xadvance="8" page="0" chnl="15" />
    <char id="965" x="238" y="264" width="11" height="11" xoffset="1" yoffset="8" xadvance="11" page="0" chnl="15" />
    <char id="966" x="280" y="120" width="13" height="16" xoffset="0" yoffset="7" xadvance="13" page="0" chnl="15" />
    <char id="967" x="345" y="185" width="14" height="15" xoffset="-1" yoffset="8" xadvance="11" page="0" chnl="15" />
    <char id="968" x="400" y="169" width="15" height="15" xoffset="1" yoffset="8" xadvance="15" page="0" chnl="15" />
    <char id="969" x="87" y="268" width="16" height="11" xoffset="0" yoffset="8" xadvance="16" page="0" chnl="15" />
    <char id="970" x="318" y="249" width="7" height="14" xoffset="0" yoffset="5" xadvance="4" page="0" chnl="15" />
    <char id="971" x="278" y="249" width="11" height="14" xoffset="1" yoffset="5" xadvance="11" page="0" chnl="15" />
    <char id="972" x="492" y="215" width="11" height="15" xoffset="0" yoffset="4" xadvance="11" page="0" chnl="15" />
    <char id="973" x="0" y="238" width="11" height="15" xoffset="1" yoffset="4" xadvance="11" page="0" chnl="15" />
    <char id="974" x="233" y="153" width="16" height="15" xoffset="0" yoffset="4" xadvance="16" page="0" chnl="15" />
    <char id="8355" x="195" y="186" width="14" height="15" xoffset="0" yoffset="4" xadvance="11" page="0" chnl="15" />
    <char id="8356" x="42" y="206" width="13" height="15" xoffset="0" yoffset="4" xadvance="11" page="0" chnl="15" />
    <char id="8359" x="220" y="137" width="23" height="15" xoffset="0" yoffset="4" xadvance="23" page="0" chnl="15" />
    <char id="8364" x="285" y="185" width="14" height="15" xoffset="0" yoffset="4" xadvance="11" page="0" chnl="15" />
    <char id="8706" x="72" y="237" width="11" height="15" xoffset="0" yoffset="4" xadvance="10" page="0" chnl="15" />
    <char id="8710" x="70" y="205" width="13" height="15" xoffset="0" yoffset="4" xadvance="13" page="0" chnl="15" />
    <char id="8719" x="304" y="41" width="15" height="19" xoffset="2" yoffset="4" xadvance="17" page="0" chnl="15" />
    <char id="8721" x="151" y="61" width="14" height="19" xoffset="1" yoffset="4" xadvance="15" page="0" chnl="15" />
    <char id="8722" x="81" y="281" width="11" height="3" xoffset="1" yoffset="10" xadvance="12" page="0" chnl="15" />
    <char id="8725" x="248" y="120" width="16" height="16" xoffset="-5" yoffset="4" xadvance="3" page="0" chnl="15" />
    <char id="8729" x="507" y="177" width="3" height="3" xoffset="1" yoffset="10" xadvance="6" page="0" chnl="15" />
    <char id="8730" x="305" y="0" width="12" height="20" xoffset="0" yoffset="0" xadvance="11" page="0" chnl="15" />
    <char id="8734" x="470" y="262" width="14" height="7" xoffset="1" yoffset="8" xadvance="15" page="0" chnl="15" />
    <char id="8747" x="32" y="0" width="7" height="22" xoffset="0" yoffset="0" xadvance="6" page="0" chnl="15" />
    <char id="8776" x="485" y="262" width="11" height="7" xoffset="1" yoffset="8" xadvance="11" page="0" chnl="15" />
    <char id="8800" x="156" y="234" width="11" height="15" xoffset="1" yoffset="4" xadvance="11" page="0" chnl="15" />
    <char id="8804" x="158" y="250" width="11" height="14" xoffset="1" yoffset="5" xadvance="11" page="0" chnl="15" />
    <char id="8805" x="170" y="250" width="11" height="14" xoffset="1" yoffset="5" xadvance="11" page="0" chnl="15" />
    <char id="9633" x="349" y="263" width="11" height="10" xoffset="1" yoffset="9" xadvance="12" page="0" chnl="15" />
    <char id="9642" x="51" y="283" width="6" height="6" xoffset="1" yoffset="9" xadvance="7" page="0" chnl="15" />
    <char id="9643" x="37" y="283" width="6" height="6" xoffset="1" yoffset="9" xadvance="7" page="0" chnl="15" />
    <char id="9674" x="501" y="150" width="10" height="15" xoffset="1" yoffset="4" xadvance="10" page="0" chnl="15" />
    <char id="9679" x="383" y="262" width="10" height="10" xoffset="1" yoffset="8" xadvance="12" page="0" chnl="15" />
    <char id="9702" x="44" y="283" width="6" height="6" xoffset="1" yoffset="9" xadvance="7" page="0" chnl="15" />
  </chars>
  <kernings count="207">
    <kerning first="32" second="65" amount="-1" />
    <kerning first="950" second="960" amount="-1" />
    <kerning first="32" second="902" amount="-1" />
    <kerning first="950" second="974" amount="-1" />
    <kerning first="32" second="913" amount="-1" />
    <kerning first="32" second="916" amount="-1" />
    <kerning first="950" second="973" amount="-1" />
    <kerning first="950" second="972" amount="-1" />
    <kerning first="950" second="970" amount="1" />
    <kerning first="49" second="49" amount="-1" />
    <kerning first="65" second="32" amount="-1" />
    <kerning first="65" second="84" amount="-1" />
    <kerning first="65" second="86" amount="-1" />
    <kerning first="950" second="969" amount="-1" />
    <kerning first="65" second="89" amount="-1" />
    <kerning first="950" second="965" amount="-1" />
    <kerning first="950" second="959" amount="-2" />
    <kerning first="950" second="953" amount="-1" />
    <kerning first="950" second="951" amount="-1" />
    <kerning first="950" second="942" amount="-1" />
    <kerning first="70" second="44" amount="-3" />
    <kerning first="70" second="46" amount="-3" />
    <kerning first="70" second="65" amount="-1" />
    <kerning first="950" second="941" amount="-1" />
    <kerning first="76" second="84" amount="-1" />
    <kerning first="76" second="86" amount="-1" />
    <kerning first="76" second="87" amount="-1" />
    <kerning first="76" second="89" amount="-2" />
    <kerning first="950" second="940" amount="-1" />
    <kerning first="950" second="966" amount="-1" />
    <kerning first="80" second="32" amount="-1" />
    <kerning first="80" second="44" amount="-3" />
    <kerning first="80" second="46" amount="-3" />
    <kerning first="80" second="65" amount="-1" />
    <kerning first="950" second="964" amount="-1" />
    <kerning first="950" second="963" amount="-1" />
    <kerning first="950" second="949" amount="-1" />
    <kerning first="82" second="89" amount="-1" />
    <kerning first="84" second="44" amount="-2" />
    <kerning first="84" second="45" amount="-2" />
    <kerning first="84" second="46" amount="-2" />
    <kerning first="84" second="58" amount="-1" />
    <kerning first="84" second="894" amount="-1" />
    <kerning first="84" second="65" amount="-1" />
    <kerning first="950" second="945" amount="-1" />
    <kerning first="84" second="97" amount="-2" />
    <kerning first="84" second="99" amount="-2" />
    <kerning first="84" second="101" amount="-2" />
    <kerning first="939" second="972" amount="-1" />
    <kerning first="84" second="111" amount="-2" />
    <kerning first="84" second="114" amount="-1" />
    <kerning first="84" second="115" amount="-2" />
    <kerning first="84" second="117" amount="-1" />
    <kerning first="84" second="119" amount="-1" />
    <kerning first="84" second="121" amount="-1" />
    <kerning first="86" second="44" amount="-1" />
    <kerning first="86" second="45" amount="-1" />
    <kerning first="86" second="46" amount="-1" />
    <kerning first="939" second="970" amount="1" />
    <kerning first="939" second="959" amount="-1" />
    <kerning first="86" second="65" amount="-1" />
    <kerning first="86" second="97" amount="-1" />
    <kerning first="86" second="101" amount="-1" />
    <kerning first="939" second="940" amount="-1" />
    <kerning first="86" second="111" amount="-1" />
    <kerning first="939" second="923" amount="-1" />
    <kerning first="939" second="916" amount="-1" />
    <kerning first="939" second="913" amount="-1" />
    <kerning first="87" second="44" amount="-1" />
    <kerning first="939" second="912" amount="2" />
    <kerning first="87" second="46" amount="-1" />
    <kerning first="939" second="966" amount="-1" />
    <kerning first="939" second="963" amount="-1" />
    <kerning first="939" second="948" amount="-1" />
    <kerning first="939" second="945" amount="-1" />
    <kerning first="937" second="939" amount="-1" />
    <kerning first="89" second="44" amount="-2" />
    <kerning first="89" second="45" amount="-1" />
    <kerning first="89" second="46" amount="-2" />
    <kerning first="89" second="58" amount="-1" />
    <kerning first="89" second="894" amount="-1" />
    <kerning first="89" second="65" amount="-1" />
    <kerning first="89" second="97" amount="-1" />
    <kerning first="89" second="101" amount="-1" />
    <kerning first="937" second="933" amount="-1" />
    <kerning first="89" second="111" amount="-1" />
    <kerning first="89" second="112" amount="-1" />
    <kerning first="89" second="113" amount="-1" />
    <kerning first="89" second="117" amount="-1" />
    <kerning first="89" second="118" amount="-1" />
    <kerning first="933" second="972" amount="-1" />
    <kerning first="114" second="44" amount="-1" />
    <kerning first="933" second="970" amount="1" />
    <kerning first="114" second="46" amount="-1" />
    <kerning first="933" second="959" amount="-1" />
    <kerning first="118" second="44" amount="-1" />
    <kerning first="118" second="46" amount="-1" />
    <kerning first="119" second="44" amount="-1" />
    <kerning first="119" second="46" amount="-1" />
    <kerning first="121" second="44" amount="-1" />
    <kerning first="121" second="46" amount="-1" />
    <kerning first="933" second="940" amount="-1" />
    <kerning first="933" second="923" amount="-1" />
    <kerning first="933" second="916" amount="-1" />
    <kerning first="933" second="913" amount="-1" />
    <kerning first="933" second="912" amount="2" />
    <kerning first="933" second="966" amount="-1" />
    <kerning first="933" second="963" amount="-1" />
    <kerning first="933" second="948" amount="-1" />
    <kerning first="933" second="945" amount="-1" />
    <kerning first="915" second="44" amount="-2" />
    <kerning first="915" second="46" amount="-2" />
    <kerning first="915" second="912" amount="2" />
    <kerning first="915" second="913" amount="-2" />
    <kerning first="915" second="916" amount="-2" />
    <kerning first="915" second="923" amount="-2" />
    <kerning first="915" second="953" amount="-1" />
    <kerning first="915" second="970" amount="1" />
    <kerning first="933" second="894" amount="-1" />
    <kerning first="933" second="58" amount="-1" />
    <kerning first="933" second="46" amount="-2" />
    <kerning first="920" second="933" amount="-1" />
    <kerning first="920" second="939" amount="-1" />
    <kerning first="934" second="913" amount="-1" />
    <kerning first="934" second="933" amount="-1" />
    <kerning first="934" second="939" amount="-1" />
    <kerning first="933" second="45" amount="-1" />
    <kerning first="933" second="44" amount="-2" />
    <kerning first="932" second="973" amount="-1" />
    <kerning first="932" second="972" amount="-2" />
    <kerning first="932" second="971" amount="-1" />
    <kerning first="932" second="970" amount="1" />
    <kerning first="932" second="968" amount="-2" />
    <kerning first="932" second="967" amount="-1" />
    <kerning first="932" second="965" amount="-1" />
    <kerning first="932" second="959" amount="-2" />
    <kerning first="932" second="957" amount="-1" />
    <kerning first="932" second="956" amount="-1" />
    <kerning first="932" second="951" amount="-1" />
    <kerning first="932" second="947" amount="-1" />
    <kerning first="932" second="944" amount="-1" />
    <kerning first="932" second="941" amount="-2" />
    <kerning first="932" second="940" amount="-2" />
    <kerning first="932" second="923" amount="-1" />
    <kerning first="932" second="916" amount="-1" />
    <kerning first="902" second="32" amount="-1" />
    <kerning first="902" second="920" amount="-1" />
    <kerning first="902" second="934" amount="-1" />
    <kerning first="902" second="927" amount="-1" />
    <kerning first="902" second="932" amount="-2" />
    <kerning first="902" second="933" amount="-3" />
    <kerning first="902" second="939" amount="-3" />
    <kerning first="932" second="913" amount="-1" />
    <kerning first="932" second="912" amount="2" />
    <kerning first="932" second="966" amount="-2" />
    <kerning first="908" second="933" amount="-1" />
    <kerning first="908" second="939" amount="-1" />
    <kerning first="910" second="945" amount="-1" />
    <kerning first="910" second="948" amount="-1" />
    <kerning first="910" second="963" amount="-1" />
    <kerning first="910" second="966" amount="-1" />
    <kerning first="910" second="912" amount="2" />
    <kerning first="910" second="913" amount="-1" />
    <kerning first="910" second="916" amount="-1" />
    <kerning first="910" second="923" amount="-1" />
    <kerning first="910" second="940" amount="-1" />
    <kerning first="932" second="963" amount="-2" />
    <kerning first="932" second="949" amount="-2" />
    <kerning first="932" second="945" amount="-2" />
    <kerning first="932" second="894" amount="-1" />
    <kerning first="932" second="58" amount="-1" />
    <kerning first="932" second="46" amount="-2" />
    <kerning first="910" second="959" amount="-1" />
    <kerning first="910" second="970" amount="1" />
    <kerning first="910" second="972" amount="-1" />
    <kerning first="911" second="933" amount="-1" />
    <kerning first="911" second="939" amount="-1" />
    <kerning first="913" second="32" amount="-1" />
    <kerning first="932" second="45" amount="-2" />
    <kerning first="913" second="920" amount="-1" />
    <kerning first="913" second="934" amount="-1" />
    <kerning first="913" second="927" amount="-1" />
    <kerning first="913" second="932" amount="-2" />
    <kerning first="913" second="933" amount="-3" />
    <kerning first="913" second="939" amount="-3" />
    <kerning first="932" second="44" amount="-2" />
    <kerning first="929" second="923" amount="-1" />
    <kerning first="929" second="916" amount="-1" />
    <kerning first="916" second="32" amount="-1" />
    <kerning first="916" second="920" amount="-1" />
    <kerning first="916" second="927" amount="-1" />
    <kerning first="916" second="932" amount="-2" />
    <kerning first="916" second="933" amount="-3" />
    <kerning first="916" second="939" amount="-3" />
    <kerning first="922" second="920" amount="-1" />
    <kerning first="922" second="934" amount="-1" />
    <kerning first="929" second="913" amount="-1" />
    <kerning first="929" second="46" amount="-2" />
    <kerning first="929" second="44" amount="-2" />
    <kerning first="927" second="939" amount="-1" />
    <kerning first="922" second="927" amount="-1" />
    <kerning first="927" second="933" amount="-1" />
    <kerning first="923" second="939" amount="-3" />
    <kerning first="923" second="933" amount="-3" />
    <kerning first="923" second="932" amount="-2" />
    <kerning first="923" second="927" amount="-1" />
    <kerning first="923" second="920" amount="-1" />
  </kernings>
</font>
