<?xml version="1.0"?>
<font>
  <info face="Comic Sans MS" size="32" bold="0" italic="0" charset="" unicode="1" stretchH="100" smooth="1" aa="2" padding="0,0,0,0" spacing="1,1" outline="0"/>
  <common lineHeight="31" base="25" scaleW="512" scaleH="256" pages="1" packed="0" alphaChnl="0" redChnl="4" greenChnl="4" blueChnl="4"/>
  <pages>
    <page id="0" file="ComicSans_32_0.png" />
  </pages>
  <chars count="429">
    <char id="-1" x="277" y="115" width="10" height="19" xoffset="1" yoffset="6" xadvance="11" page="0" chnl="15" />
    <char id="32" x="509" y="198" width="2" height="1" xoffset="0" yoffset="30" xadvance="6" page="0" chnl="15" />
    <char id="33" x="386" y="113" width="3" height="19" xoffset="1" yoffset="6" xadvance="5" page="0" chnl="15" />
    <char id="34" x="381" y="203" width="7" height="8" xoffset="1" yoffset="7" xadvance="9" page="0" chnl="15" />
    <char id="35" x="420" y="113" width="19" height="18" xoffset="0" yoffset="7" xadvance="19" page="0" chnl="15" />
    <char id="36" x="495" y="0" width="14" height="24" xoffset="0" yoffset="5" xadvance="15" page="0" chnl="15" />
    <char id="37" x="257" y="95" width="17" height="19" xoffset="1" yoffset="6" xadvance="18" page="0" chnl="15" />
    <char id="38" x="377" y="93" width="14" height="19" xoffset="0" yoffset="7" xadvance="14" page="0" chnl="15" />
    <char id="39" x="500" y="199" width="3" height="6" xoffset="3" yoffset="6" xadvance="8" page="0" chnl="15" />
    <char id="40" x="217" y="51" width="7" height="23" xoffset="1" yoffset="6" xadvance="8" page="0" chnl="15" />
    <char id="41" x="503" y="25" width="8" height="23" xoffset="0" yoffset="6" xadvance="8" page="0" chnl="15" />
    <char id="42" x="286" y="206" width="11" height="9" xoffset="0" yoffset="7" xadvance="12" page="0" chnl="15" />
    <char id="43" x="342" y="205" width="10" height="9" xoffset="0" yoffset="13" xadvance="11" page="0" chnl="15" />
    <char id="44" x="495" y="199" width="4" height="6" xoffset="2" yoffset="23" xadvance="6" page="0" chnl="15" />
    <char id="45" x="51" y="225" width="8" height="3" xoffset="1" yoffset="17" xadvance="9" page="0" chnl="15" />
    <char id="46" x="69" y="224" width="4" height="3" xoffset="1" yoffset="22" xadvance="5" page="0" chnl="15" />
    <char id="47" x="433" y="71" width="11" height="20" xoffset="0" yoffset="6" xadvance="11" page="0" chnl="15" />
    <char id="48" x="86" y="156" width="13" height="18" xoffset="0" yoffset="7" xadvance="13" page="0" chnl="15" />
    <char id="49" x="140" y="175" width="8" height="18" xoffset="1" yoffset="7" xadvance="10" page="0" chnl="15" />
    <char id="50" x="0" y="177" width="11" height="18" xoffset="1" yoffset="7" xadvance="13" page="0" chnl="15" />
    <char id="51" x="12" y="177" width="11" height="18" xoffset="1" yoffset="7" xadvance="13" page="0" chnl="15" />
    <char id="52" x="58" y="156" width="13" height="18" xoffset="0" yoffset="7" xadvance="13" page="0" chnl="15" />
    <char id="53" x="272" y="154" width="12" height="18" xoffset="1" yoffset="7" xadvance="13" page="0" chnl="15" />
    <char id="54" x="285" y="154" width="12" height="18" xoffset="1" yoffset="7" xadvance="13" page="0" chnl="15" />
    <char id="55" x="44" y="156" width="13" height="18" xoffset="0" yoffset="7" xadvance="13" page="0" chnl="15" />
    <char id="56" x="298" y="154" width="12" height="18" xoffset="1" yoffset="7" xadvance="13" page="0" chnl="15" />
    <char id="57" x="474" y="92" width="12" height="19" xoffset="1" yoffset="7" xadvance="13" page="0" chnl="15" />
    <char id="58" x="230" y="208" width="4" height="11" xoffset="1" yoffset="12" xadvance="6" page="0" chnl="15" />
    <char id="59" x="505" y="169" width="5" height="15" xoffset="0" yoffset="12" xadvance="6" page="0" chnl="15" />
    <char id="60" x="262" y="208" width="7" height="10" xoffset="0" yoffset="13" xadvance="8" page="0" chnl="15" />
    <char id="61" x="298" y="205" width="10" height="9" xoffset="0" yoffset="13" xadvance="11" page="0" chnl="15" />
    <char id="62" x="221" y="209" width="8" height="11" xoffset="0" yoffset="12" xadvance="9" page="0" chnl="15" />
    <char id="63" x="84" y="175" width="11" height="18" xoffset="0" yoffset="8" xadvance="12" page="0" chnl="15" />
    <char id="64" x="181" y="97" width="19" height="19" xoffset="1" yoffset="6" xadvance="20" page="0" chnl="15" />
    <char id="65" x="176" y="175" width="14" height="17" xoffset="1" yoffset="8" xadvance="16" page="0" chnl="15" />
    <char id="66" x="402" y="151" width="12" height="18" xoffset="1" yoffset="7" xadvance="14" page="0" chnl="15" />
    <char id="67" x="128" y="156" width="13" height="18" xoffset="0" yoffset="7" xadvance="13" page="0" chnl="15" />
    <char id="68" x="15" y="158" width="14" height="18" xoffset="1" yoffset="7" xadvance="16" page="0" chnl="15" />
    <char id="69" x="100" y="156" width="13" height="18" xoffset="1" yoffset="7" xadvance="14" page="0" chnl="15" />
    <char id="70" x="207" y="156" width="12" height="18" xoffset="1" yoffset="7" xadvance="13" page="0" chnl="15" />
    <char id="71" x="400" y="132" width="15" height="18" xoffset="0" yoffset="7" xadvance="15" page="0" chnl="15" />
    <char id="72" x="329" y="94" width="15" height="19" xoffset="1" yoffset="7" xadvance="17" page="0" chnl="15" />
    <char id="73" x="415" y="151" width="12" height="18" xoffset="0" yoffset="7" xadvance="12" page="0" chnl="15" />
    <char id="74" x="392" y="93" width="14" height="19" xoffset="0" yoffset="7" xadvance="15" page="0" chnl="15" />
    <char id="75" x="142" y="156" width="12" height="18" xoffset="2" yoffset="7" xadvance="13" page="0" chnl="15" />
    <char id="76" x="389" y="152" width="12" height="18" xoffset="1" yoffset="7" xadvance="12" page="0" chnl="15" />
    <char id="77" x="480" y="112" width="19" height="18" xoffset="1" yoffset="7" xadvance="20" page="0" chnl="15" />
    <char id="78" x="96" y="137" width="17" height="18" xoffset="1" yoffset="7" xadvance="18" page="0" chnl="15" />
    <char id="79" x="114" y="137" width="17" height="18" xoffset="1" yoffset="7" xadvance="18" page="0" chnl="15" />
    <char id="80" x="488" y="150" width="11" height="18" xoffset="0" yoffset="7" xadvance="11" page="0" chnl="15" />
    <char id="81" x="326" y="25" width="19" height="23" xoffset="0" yoffset="7" xadvance="19" page="0" chnl="15" />
    <char id="82" x="416" y="132" width="14" height="18" xoffset="1" yoffset="7" xadvance="14" page="0" chnl="15" />
    <char id="83" x="206" y="175" width="14" height="17" xoffset="1" yoffset="8" xadvance="15" page="0" chnl="15" />
    <char id="84" x="168" y="137" width="16" height="18" xoffset="1" yoffset="7" xadvance="15" page="0" chnl="15" />
    <char id="85" x="491" y="131" width="14" height="18" xoffset="1" yoffset="7" xadvance="16" page="0" chnl="15" />
    <char id="86" x="0" y="158" width="14" height="18" xoffset="1" yoffset="7" xadvance="14" page="0" chnl="15" />
    <char id="87" x="115" y="97" width="23" height="19" xoffset="1" yoffset="7" xadvance="23" page="0" chnl="15" />
    <char id="88" x="185" y="137" width="16" height="18" xoffset="0" yoffset="7" xadvance="16" page="0" chnl="15" />
    <char id="89" x="431" y="132" width="14" height="18" xoffset="0" yoffset="7" xadvance="14" page="0" chnl="15" />
    <char id="90" x="320" y="135" width="15" height="18" xoffset="0" yoffset="7" xadvance="16" page="0" chnl="15" />
    <char id="91" x="183" y="75" width="7" height="21" xoffset="1" yoffset="8" xadvance="8" page="0" chnl="15" />
    <char id="92" x="266" y="115" width="10" height="19" xoffset="1" yoffset="7" xadvance="12" page="0" chnl="15" />
    <char id="93" x="191" y="75" width="7" height="21" xoffset="1" yoffset="8" xadvance="8" page="0" chnl="15" />
    <char id="94" x="406" y="202" width="10" height="7" xoffset="2" yoffset="6" xadvance="12" page="0" chnl="15" />
    <char id="95" x="89" y="224" width="16" height="2" xoffset="-1" yoffset="26" xadvance="14" page="0" chnl="15" />
    <char id="96" x="489" y="199" width="5" height="6" xoffset="1" yoffset="6" xadvance="12" page="0" chnl="15" />
    <char id="97" x="39" y="212" width="12" height="12" xoffset="0" yoffset="13" xadvance="11" page="0" chnl="15" />
    <char id="98" x="52" y="117" width="12" height="19" xoffset="1" yoffset="6" xadvance="13" page="0" chnl="15" />
    <char id="99" x="147" y="211" width="10" height="12" xoffset="1" yoffset="13" xadvance="11" page="0" chnl="15" />
    <char id="100" x="448" y="92" width="12" height="19" xoffset="0" yoffset="6" xadvance="13" page="0" chnl="15" />
    <char id="101" x="13" y="213" width="12" height="12" xoffset="0" yoffset="13" xadvance="12" page="0" chnl="15" />
    <char id="102" x="480" y="71" width="10" height="20" xoffset="0" yoffset="6" xadvance="11" page="0" chnl="15" />
    <char id="103" x="220" y="155" width="12" height="18" xoffset="0" yoffset="13" xadvance="12" page="0" chnl="15" />
    <char id="104" x="89" y="117" width="11" height="19" xoffset="1" yoffset="6" xadvance="13" page="0" chnl="15" />
    <char id="105" x="368" y="172" width="4" height="17" xoffset="1" yoffset="8" xadvance="6" page="0" chnl="15" />
    <char id="106" x="208" y="51" width="8" height="23" xoffset="0" yoffset="8" xadvance="9" page="0" chnl="15" />
    <char id="107" x="24" y="177" width="11" height="18" xoffset="1" yoffset="7" xadvance="12" page="0" chnl="15" />
    <char id="108" x="390" y="113" width="3" height="19" xoffset="1" yoffset="6" xadvance="6" page="0" chnl="15" />
    <char id="109" x="298" y="191" width="16" height="13" xoffset="1" yoffset="13" xadvance="17" page="0" chnl="15" />
    <char id="110" x="330" y="191" width="11" height="13" xoffset="1" yoffset="12" xadvance="12" page="0" chnl="15" />
    <char id="111" x="64" y="211" width="11" height="12" xoffset="0" yoffset="13" xadvance="12" page="0" chnl="15" />
    <char id="112" x="101" y="117" width="11" height="19" xoffset="1" yoffset="12" xadvance="12" page="0" chnl="15" />
    <char id="113" x="118" y="175" width="10" height="18" xoffset="0" yoffset="13" xadvance="11" page="0" chnl="15" />
    <char id="114" x="136" y="211" width="10" height="12" xoffset="1" yoffset="13" xadvance="11" page="0" chnl="15" />
    <char id="115" x="342" y="191" width="11" height="13" xoffset="0" yoffset="12" xadvance="11" page="0" chnl="15" />
    <char id="116" x="97" y="194" width="10" height="16" xoffset="0" yoffset="9" xadvance="10" page="0" chnl="15" />
    <char id="117" x="169" y="210" width="10" height="12" xoffset="1" yoffset="13" xadvance="11" page="0" chnl="15" />
    <char id="118" x="76" y="211" width="11" height="12" xoffset="0" yoffset="13" xadvance="11" page="0" chnl="15" />
    <char id="119" x="447" y="187" width="15" height="12" xoffset="0" yoffset="13" xadvance="16" page="0" chnl="15" />
    <char id="120" x="478" y="186" width="13" height="12" xoffset="0" yoffset="13" xadvance="13" page="0" chnl="15" />
    <char id="121" x="376" y="152" width="12" height="18" xoffset="0" yoffset="13" xadvance="11" page="0" chnl="15" />
    <char id="122" x="112" y="211" width="11" height="12" xoffset="1" yoffset="13" xadvance="12" page="0" chnl="15" />
    <char id="123" x="178" y="51" width="9" height="23" xoffset="0" yoffset="6" xadvance="8" page="0" chnl="15" />
    <char id="124" x="322" y="25" width="3" height="24" xoffset="3" yoffset="5" xadvance="9" page="0" chnl="15" />
    <char id="125" x="198" y="51" width="9" height="23" xoffset="0" yoffset="6" xadvance="8" page="0" chnl="15" />
    <char id="126" x="441" y="200" width="12" height="6" xoffset="1" yoffset="14" xadvance="13" page="0" chnl="15" />
    <char id="160" x="106" y="224" width="2" height="1" xoffset="0" yoffset="30" xadvance="6" page="0" chnl="15" />
    <char id="161" x="506" y="131" width="3" height="18" xoffset="1" yoffset="7" xadvance="5" page="0" chnl="15" />
    <char id="162" x="461" y="92" width="12" height="19" xoffset="1" yoffset="5" xadvance="14" page="0" chnl="15" />
    <char id="163" x="449" y="49" width="16" height="21" xoffset="0" yoffset="6" xadvance="17" page="0" chnl="15" />
    <char id="164" x="315" y="191" width="14" height="13" xoffset="0" yoffset="10" xadvance="14" page="0" chnl="15" />
    <char id="165" x="221" y="174" width="13" height="17" xoffset="1" yoffset="8" xadvance="14" page="0" chnl="15" />
    <char id="166" x="394" y="113" width="3" height="19" xoffset="3" yoffset="6" xadvance="9" page="0" chnl="15" />
    <char id="167" x="0" y="119" width="12" height="19" xoffset="1" yoffset="6" xadvance="14" page="0" chnl="15" />
    <char id="168" x="41" y="225" width="9" height="3" xoffset="2" yoffset="9" xadvance="12" page="0" chnl="15" />
    <char id="169" x="373" y="172" width="17" height="16" xoffset="0" yoffset="6" xadvance="17" page="0" chnl="15" />
    <char id="170" x="309" y="205" width="10" height="9" xoffset="0" yoffset="6" xadvance="11" page="0" chnl="15" />
    <char id="171" x="235" y="208" width="13" height="10" xoffset="0" yoffset="13" xadvance="13" page="0" chnl="15" />
    <char id="172" x="454" y="200" width="11" height="6" xoffset="0" yoffset="16" xadvance="11" page="0" chnl="15" />
    <char id="173" x="60" y="224" width="8" height="3" xoffset="1" yoffset="17" xadvance="9" page="0" chnl="15" />
    <char id="174" x="391" y="171" width="17" height="16" xoffset="0" yoffset="6" xadvance="18" page="0" chnl="15" />
    <char id="175" x="12" y="226" width="16" height="3" xoffset="-1" yoffset="3" xadvance="14" page="0" chnl="15" />
    <char id="176" x="371" y="204" width="9" height="8" xoffset="0" yoffset="6" xadvance="9" page="0" chnl="15" />
    <char id="177" x="354" y="190" width="11" height="13" xoffset="0" yoffset="13" xadvance="11" page="0" chnl="15" />
    <char id="178" x="270" y="208" width="7" height="10" xoffset="4" yoffset="5" xadvance="14" page="0" chnl="15" />
    <char id="179" x="363" y="204" width="7" height="9" xoffset="4" yoffset="6" xadvance="14" page="0" chnl="15" />
    <char id="180" x="482" y="199" width="6" height="6" xoffset="2" yoffset="6" xadvance="12" page="0" chnl="15" />
    <char id="181" x="409" y="170" width="14" height="16" xoffset="0" yoffset="13" xadvance="11" page="0" chnl="15" />
    <char id="182" x="0" y="76" width="15" height="21" xoffset="0" yoffset="6" xadvance="15" page="0" chnl="15" />
    <char id="183" x="74" y="224" width="4" height="3" xoffset="1" yoffset="15" xadvance="5" page="0" chnl="15" />
    <char id="184" x="433" y="200" width="7" height="7" xoffset="3" yoffset="23" xadvance="12" page="0" chnl="15" />
    <char id="185" x="278" y="206" width="7" height="10" xoffset="4" yoffset="5" xadvance="14" page="0" chnl="15" />
    <char id="186" x="320" y="205" width="10" height="9" xoffset="0" yoffset="6" xadvance="10" page="0" chnl="15" />
    <char id="187" x="249" y="208" width="12" height="10" xoffset="0" yoffset="13" xadvance="13" page="0" chnl="15" />
    <char id="188" x="250" y="26" width="12" height="24" xoffset="1" yoffset="5" xadvance="14" page="0" chnl="15" />
    <char id="189" x="90" y="51" width="12" height="23" xoffset="1" yoffset="5" xadvance="14" page="0" chnl="15" />
    <char id="190" x="289" y="26" width="12" height="24" xoffset="1" yoffset="5" xadvance="14" page="0" chnl="15" />
    <char id="191" x="500" y="112" width="11" height="18" xoffset="0" yoffset="8" xadvance="12" page="0" chnl="15" />
    <char id="192" x="75" y="26" width="14" height="24" xoffset="1" yoffset="1" xadvance="16" page="0" chnl="15" />
    <char id="193" x="480" y="0" width="14" height="24" xoffset="1" yoffset="1" xadvance="16" page="0" chnl="15" />
    <char id="194" x="90" y="26" width="14" height="24" xoffset="1" yoffset="1" xadvance="16" page="0" chnl="15" />
    <char id="195" x="454" y="25" width="16" height="23" xoffset="1" yoffset="2" xadvance="16" page="0" chnl="15" />
    <char id="196" x="16" y="75" width="14" height="21" xoffset="1" yoffset="4" xadvance="16" page="0" chnl="15" />
    <char id="197" x="30" y="51" width="14" height="23" xoffset="1" yoffset="2" xadvance="16" page="0" chnl="15" />
    <char id="198" x="62" y="97" width="26" height="19" xoffset="0" yoffset="7" xadvance="25" page="0" chnl="15" />
    <char id="199" x="296" y="51" width="13" height="22" xoffset="0" yoffset="7" xadvance="13" page="0" chnl="15" />
    <char id="200" x="201" y="0" width="13" height="25" xoffset="1" yoffset="0" xadvance="14" page="0" chnl="15" />
    <char id="201" x="187" y="0" width="13" height="25" xoffset="1" yoffset="0" xadvance="14" page="0" chnl="15" />
    <char id="202" x="173" y="0" width="13" height="25" xoffset="1" yoffset="0" xadvance="14" page="0" chnl="15" />
    <char id="203" x="324" y="50" width="13" height="22" xoffset="1" yoffset="3" xadvance="14" page="0" chnl="15" />
    <char id="204" x="276" y="26" width="12" height="24" xoffset="0" yoffset="1" xadvance="12" page="0" chnl="15" />
    <char id="205" x="263" y="26" width="12" height="24" xoffset="0" yoffset="1" xadvance="12" page="0" chnl="15" />
    <char id="206" x="228" y="0" width="12" height="25" xoffset="0" yoffset="0" xadvance="12" page="0" chnl="15" />
    <char id="207" x="119" y="75" width="12" height="21" xoffset="0" yoffset="4" xadvance="12" page="0" chnl="15" />
    <char id="208" x="311" y="95" width="17" height="19" xoffset="-1" yoffset="7" xadvance="16" page="0" chnl="15" />
    <char id="209" x="400" y="25" width="17" height="23" xoffset="1" yoffset="2" xadvance="18" page="0" chnl="15" />
    <char id="210" x="365" y="0" width="17" height="24" xoffset="1" yoffset="1" xadvance="18" page="0" chnl="15" />
    <char id="211" x="347" y="0" width="17" height="24" xoffset="1" yoffset="1" xadvance="18" page="0" chnl="15" />
    <char id="212" x="329" y="0" width="17" height="24" xoffset="1" yoffset="1" xadvance="18" page="0" chnl="15" />
    <char id="213" x="418" y="25" width="17" height="23" xoffset="1" yoffset="2" xadvance="18" page="0" chnl="15" />
    <char id="214" x="431" y="49" width="17" height="21" xoffset="1" yoffset="4" xadvance="18" page="0" chnl="15" />
    <char id="215" x="353" y="205" width="9" height="9" xoffset="0" yoffset="13" xadvance="11" page="0" chnl="15" />
    <char id="216" x="201" y="96" width="18" height="19" xoffset="0" yoffset="7" xadvance="18" page="0" chnl="15" />
    <char id="217" x="15" y="26" width="14" height="24" xoffset="1" yoffset="1" xadvance="16" page="0" chnl="15" />
    <char id="218" x="0" y="27" width="14" height="24" xoffset="1" yoffset="1" xadvance="16" page="0" chnl="15" />
    <char id="219" x="165" y="26" width="14" height="24" xoffset="1" yoffset="1" xadvance="16" page="0" chnl="15" />
    <char id="220" x="76" y="75" width="14" height="21" xoffset="1" yoffset="4" xadvance="16" page="0" chnl="15" />
    <char id="221" x="158" y="0" width="14" height="25" xoffset="0" yoffset="0" xadvance="14" page="0" chnl="15" />
    <char id="222" x="428" y="151" width="11" height="18" xoffset="0" yoffset="7" xadvance="11" page="0" chnl="15" />
    <char id="223" x="445" y="71" width="11" height="20" xoffset="0" yoffset="6" xadvance="10" page="0" chnl="15" />
    <char id="224" x="113" y="117" width="11" height="19" xoffset="0" yoffset="6" xadvance="11" page="0" chnl="15" />
    <char id="225" x="125" y="117" width="11" height="19" xoffset="0" yoffset="6" xadvance="11" page="0" chnl="15" />
    <char id="226" x="173" y="117" width="11" height="19" xoffset="0" yoffset="6" xadvance="11" page="0" chnl="15" />
    <char id="227" x="194" y="156" width="12" height="18" xoffset="0" yoffset="7" xadvance="11" page="0" chnl="15" />
    <char id="228" x="61" y="194" width="11" height="16" xoffset="0" yoffset="9" xadvance="11" page="0" chnl="15" />
    <char id="229" x="421" y="71" width="11" height="20" xoffset="0" yoffset="5" xadvance="11" page="0" chnl="15" />
    <char id="230" x="387" y="189" width="20" height="12" xoffset="0" yoffset="13" xadvance="20" page="0" chnl="15" />
    <char id="231" x="332" y="173" width="10" height="17" xoffset="1" yoffset="13" xadvance="11" page="0" chnl="15" />
    <char id="232" x="13" y="118" width="12" height="19" xoffset="0" yoffset="6" xadvance="12" page="0" chnl="15" />
    <char id="233" x="26" y="118" width="12" height="19" xoffset="0" yoffset="6" xadvance="12" page="0" chnl="15" />
    <char id="234" x="39" y="117" width="12" height="19" xoffset="0" yoffset="6" xadvance="12" page="0" chnl="15" />
    <char id="235" x="248" y="174" width="12" height="17" xoffset="0" yoffset="8" xadvance="12" page="0" chnl="15" />
    <char id="236" x="372" y="113" width="6" height="19" xoffset="0" yoffset="6" xadvance="6" page="0" chnl="15" />
    <char id="237" x="379" y="113" width="6" height="19" xoffset="0" yoffset="6" xadvance="6" page="0" chnl="15" />
    <char id="238" x="244" y="116" width="10" height="19" xoffset="-2" yoffset="6" xadvance="6" page="0" chnl="15" />
    <char id="239" x="163" y="193" width="9" height="16" xoffset="-1" yoffset="9" xadvance="6" page="0" chnl="15" />
    <char id="240" x="129" y="175" width="10" height="18" xoffset="1" yoffset="7" xadvance="11" page="0" chnl="15" />
    <char id="241" x="72" y="175" width="11" height="18" xoffset="1" yoffset="7" xadvance="12" page="0" chnl="15" />
    <char id="242" x="137" y="117" width="11" height="19" xoffset="0" yoffset="6" xadvance="12" page="0" chnl="15" />
    <char id="243" x="149" y="117" width="11" height="19" xoffset="0" yoffset="6" xadvance="12" page="0" chnl="15" />
    <char id="244" x="161" y="117" width="11" height="19" xoffset="0" yoffset="6" xadvance="12" page="0" chnl="15" />
    <char id="245" x="259" y="155" width="12" height="18" xoffset="0" yoffset="7" xadvance="12" page="0" chnl="15" />
    <char id="246" x="73" y="194" width="11" height="16" xoffset="0" yoffset="9" xadvance="12" page="0" chnl="15" />
    <char id="247" x="209" y="209" width="11" height="11" xoffset="0" yoffset="12" xadvance="11" page="0" chnl="15" />
    <char id="248" x="26" y="213" width="12" height="12" xoffset="0" yoffset="13" xadvance="12" page="0" chnl="15" />
    <char id="249" x="332" y="114" width="10" height="19" xoffset="1" yoffset="6" xadvance="11" page="0" chnl="15" />
    <char id="250" x="310" y="115" width="10" height="19" xoffset="1" yoffset="6" xadvance="11" page="0" chnl="15" />
    <char id="251" x="343" y="114" width="10" height="19" xoffset="1" yoffset="6" xadvance="11" page="0" chnl="15" />
    <char id="252" x="321" y="173" width="10" height="17" xoffset="1" yoffset="8" xadvance="11" page="0" chnl="15" />
    <char id="253" x="280" y="0" width="12" height="25" xoffset="0" yoffset="6" xadvance="11" page="0" chnl="15" />
    <char id="254" x="154" y="51" width="11" height="23" xoffset="1" yoffset="8" xadvance="12" page="0" chnl="15" />
    <char id="255" x="351" y="49" width="12" height="22" xoffset="0" yoffset="9" xadvance="9" page="0" chnl="15" />
    <char id="256" x="351" y="72" width="14" height="20" xoffset="1" yoffset="5" xadvance="16" page="0" chnl="15" />
    <char id="257" x="199" y="193" width="12" height="15" xoffset="0" yoffset="10" xadvance="11" page="0" chnl="15" />
    <char id="258" x="471" y="25" width="15" height="23" xoffset="1" yoffset="2" xadvance="16" page="0" chnl="15" />
    <char id="259" x="155" y="156" width="12" height="18" xoffset="0" yoffset="7" xadvance="11" page="0" chnl="15" />
    <char id="260" x="281" y="74" width="17" height="20" xoffset="1" yoffset="8" xadvance="16" page="0" chnl="15" />
    <char id="261" x="183" y="193" width="15" height="15" xoffset="0" yoffset="13" xadvance="11" page="0" chnl="15" />
    <char id="262" x="208" y="26" width="13" height="24" xoffset="0" yoffset="1" xadvance="13" page="0" chnl="15" />
    <char id="263" x="299" y="115" width="10" height="19" xoffset="1" yoffset="6" xadvance="11" page="0" chnl="15" />
    <char id="264" x="120" y="26" width="14" height="24" xoffset="0" yoffset="1" xadvance="13" page="0" chnl="15" />
    <char id="265" x="321" y="115" width="10" height="19" xoffset="1" yoffset="6" xadvance="11" page="0" chnl="15" />
    <char id="266" x="498" y="49" width="13" height="21" xoffset="0" yoffset="4" xadvance="13" page="0" chnl="15" />
    <char id="267" x="108" y="194" width="10" height="16" xoffset="1" yoffset="9" xadvance="11" page="0" chnl="15" />
    <char id="268" x="222" y="26" width="13" height="24" xoffset="0" yoffset="1" xadvance="13" page="0" chnl="15" />
    <char id="269" x="255" y="116" width="10" height="19" xoffset="1" yoffset="6" xadvance="13" page="0" chnl="15" />
    <char id="270" x="465" y="0" width="14" height="24" xoffset="1" yoffset="1" xadvance="16" page="0" chnl="15" />
    <char id="271" x="275" y="95" width="17" height="19" xoffset="0" yoffset="6" xadvance="18" page="0" chnl="15" />
    <char id="272" x="239" y="96" width="17" height="19" xoffset="-1" yoffset="7" xadvance="16" page="0" chnl="15" />
    <char id="273" x="407" y="93" width="13" height="19" xoffset="0" yoffset="6" xadvance="13" page="0" chnl="15" />
    <char id="274" x="105" y="75" width="13" height="21" xoffset="1" yoffset="4" xadvance="14" page="0" chnl="15" />
    <char id="275" x="212" y="193" width="12" height="15" xoffset="0" yoffset="10" xadvance="12" page="0" chnl="15" />
    <char id="276" x="180" y="26" width="13" height="24" xoffset="1" yoffset="1" xadvance="14" page="0" chnl="15" />
    <char id="277" x="337" y="153" width="12" height="18" xoffset="0" yoffset="7" xadvance="12" page="0" chnl="15" />
    <char id="278" x="91" y="75" width="13" height="21" xoffset="1" yoffset="4" xadvance="14" page="0" chnl="15" />
    <char id="279" x="453" y="169" width="12" height="16" xoffset="0" yoffset="9" xadvance="12" page="0" chnl="15" />
    <char id="280" x="310" y="50" width="13" height="22" xoffset="2" yoffset="7" xadvance="14" page="0" chnl="15" />
    <char id="281" x="0" y="196" width="12" height="16" xoffset="0" yoffset="13" xadvance="12" page="0" chnl="15" />
    <char id="282" x="236" y="26" width="13" height="24" xoffset="1" yoffset="1" xadvance="14" page="0" chnl="15" />
    <char id="283" x="487" y="92" width="12" height="19" xoffset="0" yoffset="6" xadvance="12" page="0" chnl="15" />
    <char id="284" x="433" y="0" width="15" height="24" xoffset="0" yoffset="1" xadvance="15" page="0" chnl="15" />
    <char id="285" x="267" y="0" width="12" height="25" xoffset="0" yoffset="6" xadvance="12" page="0" chnl="15" />
    <char id="286" x="487" y="25" width="15" height="23" xoffset="0" yoffset="2" xadvance="15" page="0" chnl="15" />
    <char id="287" x="194" y="26" width="13" height="24" xoffset="0" yoffset="7" xadvance="12" page="0" chnl="15" />
    <char id="288" x="466" y="49" width="15" height="21" xoffset="0" yoffset="4" xadvance="15" page="0" chnl="15" />
    <char id="289" x="338" y="49" width="12" height="22" xoffset="0" yoffset="9" xadvance="12" page="0" chnl="15" />
    <char id="290" x="265" y="51" width="15" height="22" xoffset="0" yoffset="7" xadvance="15" page="0" chnl="15" />
    <char id="291" x="215" y="0" width="12" height="25" xoffset="0" yoffset="6" xadvance="12" page="0" chnl="15" />
    <char id="292" x="97" y="0" width="15" height="25" xoffset="1" yoffset="1" xadvance="17" page="0" chnl="15" />
    <char id="293" x="254" y="0" width="12" height="25" xoffset="1" yoffset="0" xadvance="13" page="0" chnl="15" />
    <char id="294" x="20" y="138" width="19" height="18" xoffset="0" yoffset="7" xadvance="17" page="0" chnl="15" />
    <char id="295" x="421" y="92" width="13" height="19" xoffset="0" yoffset="6" xadvance="13" page="0" chnl="15" />
    <char id="296" x="116" y="51" width="12" height="23" xoffset="0" yoffset="2" xadvance="12" page="0" chnl="15" />
    <char id="297" x="48" y="175" width="11" height="18" xoffset="-2" yoffset="7" xadvance="6" page="0" chnl="15" />
    <char id="298" x="396" y="72" width="12" height="20" xoffset="0" yoffset="5" xadvance="12" page="0" chnl="15" />
    <char id="299" x="260" y="192" width="9" height="15" xoffset="-1" yoffset="10" xadvance="6" page="0" chnl="15" />
    <char id="300" x="129" y="51" width="12" height="23" xoffset="0" yoffset="2" xadvance="12" page="0" chnl="15" />
    <char id="301" x="60" y="175" width="11" height="18" xoffset="-2" yoffset="7" xadvance="6" page="0" chnl="15" />
    <char id="302" x="145" y="75" width="12" height="21" xoffset="0" yoffset="7" xadvance="12" page="0" chnl="15" />
    <char id="303" x="0" y="98" width="7" height="20" xoffset="0" yoffset="8" xadvance="6" page="0" chnl="15" />
    <char id="304" x="158" y="75" width="12" height="21" xoffset="0" yoffset="4" xadvance="12" page="0" chnl="15" />
    <char id="305" x="506" y="185" width="4" height="12" xoffset="1" yoffset="13" xadvance="6" page="0" chnl="15" />
    <char id="306" x="89" y="97" width="25" height="19" xoffset="0" yoffset="7" xadvance="25" page="0" chnl="15" />
    <char id="307" x="188" y="51" width="9" height="23" xoffset="1" yoffset="8" xadvance="12" page="0" chnl="15" />
    <char id="308" x="113" y="0" width="14" height="25" xoffset="0" yoffset="1" xadvance="15" page="0" chnl="15" />
    <char id="309" x="0" y="0" width="10" height="26" xoffset="-1" yoffset="5" xadvance="9" page="0" chnl="15" />
    <char id="310" x="103" y="51" width="12" height="23" xoffset="2" yoffset="7" xadvance="13" page="0" chnl="15" />
    <char id="311" x="166" y="51" width="11" height="23" xoffset="1" yoffset="7" xadvance="12" page="0" chnl="15" />
    <char id="312" x="276" y="191" width="11" height="14" xoffset="1" yoffset="11" xadvance="12" page="0" chnl="15" />
    <char id="313" x="302" y="25" width="12" height="24" xoffset="1" yoffset="1" xadvance="12" page="0" chnl="15" />
    <char id="314" x="315" y="25" width="6" height="24" xoffset="1" yoffset="1" xadvance="6" page="0" chnl="15" />
    <char id="315" x="364" y="49" width="12" height="22" xoffset="1" yoffset="7" xadvance="12" page="0" chnl="15" />
    <char id="316" x="225" y="51" width="6" height="23" xoffset="1" yoffset="7" xadvance="6" page="0" chnl="15" />
    <char id="317" x="233" y="155" width="12" height="18" xoffset="1" yoffset="7" xadvance="12" page="0" chnl="15" />
    <char id="318" x="354" y="114" width="8" height="19" xoffset="1" yoffset="6" xadvance="10" page="0" chnl="15" />
    <char id="319" x="246" y="155" width="12" height="18" xoffset="1" yoffset="7" xadvance="12" page="0" chnl="15" />
    <char id="320" x="363" y="113" width="8" height="19" xoffset="1" yoffset="6" xadvance="9" page="0" chnl="15" />
    <char id="321" x="368" y="133" width="15" height="18" xoffset="-2" yoffset="7" xadvance="12" page="0" chnl="15" />
    <char id="322" x="353" y="172" width="8" height="17" xoffset="-1" yoffset="8" xadvance="5" page="0" chnl="15" />
    <char id="323" x="293" y="0" width="17" height="24" xoffset="1" yoffset="1" xadvance="18" page="0" chnl="15" />
    <char id="324" x="185" y="117" width="11" height="19" xoffset="1" yoffset="6" xadvance="12" page="0" chnl="15" />
    <char id="325" x="364" y="25" width="17" height="23" xoffset="1" yoffset="7" xadvance="18" page="0" chnl="15" />
    <char id="326" x="500" y="150" width="11" height="18" xoffset="1" yoffset="12" xadvance="12" page="0" chnl="15" />
    <char id="327" x="311" y="0" width="17" height="24" xoffset="1" yoffset="1" xadvance="18" page="0" chnl="15" />
    <char id="328" x="197" y="117" width="11" height="19" xoffset="1" yoffset="6" xadvance="12" page="0" chnl="15" />
    <char id="329" x="30" y="157" width="13" height="18" xoffset="0" yoffset="7" xadvance="14" page="0" chnl="15" />
    <char id="330" x="346" y="25" width="17" height="23" xoffset="1" yoffset="7" xadvance="18" page="0" chnl="15" />
    <char id="331" x="440" y="151" width="11" height="18" xoffset="1" yoffset="13" xadvance="12" page="0" chnl="15" />
    <char id="332" x="299" y="74" width="17" height="20" xoffset="1" yoffset="5" xadvance="18" page="0" chnl="15" />
    <char id="333" x="237" y="192" width="11" height="15" xoffset="0" yoffset="10" xadvance="12" page="0" chnl="15" />
    <char id="334" x="436" y="25" width="17" height="23" xoffset="1" yoffset="2" xadvance="18" page="0" chnl="15" />
    <char id="335" x="168" y="156" width="12" height="18" xoffset="0" yoffset="7" xadvance="12" page="0" chnl="15" />
    <char id="336" x="382" y="25" width="17" height="23" xoffset="1" yoffset="2" xadvance="18" page="0" chnl="15" />
    <char id="337" x="181" y="156" width="12" height="18" xoffset="0" yoffset="7" xadvance="12" page="0" chnl="15" />
    <char id="338" x="8" y="98" width="26" height="19" xoffset="1" yoffset="6" xadvance="27" page="0" chnl="15" />
    <char id="339" x="408" y="188" width="20" height="12" xoffset="0" yoffset="13" xadvance="20" page="0" chnl="15" />
    <char id="340" x="30" y="26" width="14" height="24" xoffset="1" yoffset="1" xadvance="14" page="0" chnl="15" />
    <char id="341" x="233" y="116" width="10" height="19" xoffset="1" yoffset="6" xadvance="11" page="0" chnl="15" />
    <char id="342" x="15" y="51" width="14" height="23" xoffset="1" yoffset="7" xadvance="14" page="0" chnl="15" />
    <char id="343" x="130" y="194" width="10" height="16" xoffset="0" yoffset="13" xadvance="11" page="0" chnl="15" />
    <char id="344" x="105" y="26" width="14" height="24" xoffset="1" yoffset="1" xadvance="14" page="0" chnl="15" />
    <char id="345" x="288" y="115" width="10" height="19" xoffset="1" yoffset="6" xadvance="11" page="0" chnl="15" />
    <char id="346" x="135" y="26" width="14" height="24" xoffset="1" yoffset="1" xadvance="15" page="0" chnl="15" />
    <char id="347" x="209" y="116" width="11" height="19" xoffset="0" yoffset="6" xadvance="11" page="0" chnl="15" />
    <char id="348" x="60" y="26" width="14" height="24" xoffset="1" yoffset="1" xadvance="15" page="0" chnl="15" />
    <char id="349" x="457" y="71" width="11" height="20" xoffset="0" yoffset="5" xadvance="11" page="0" chnl="15" />
    <char id="350" x="31" y="75" width="14" height="21" xoffset="1" yoffset="8" xadvance="15" page="0" chnl="15" />
    <char id="351" x="285" y="173" width="11" height="17" xoffset="0" yoffset="12" xadvance="11" page="0" chnl="15" />
    <char id="352" x="45" y="26" width="14" height="24" xoffset="1" yoffset="1" xadvance="15" page="0" chnl="15" />
    <char id="353" x="221" y="116" width="11" height="19" xoffset="0" yoffset="6" xadvance="11" page="0" chnl="15" />
    <char id="354" x="232" y="51" width="16" height="22" xoffset="1" yoffset="7" xadvance="15" page="0" chnl="15" />
    <char id="355" x="491" y="71" width="10" height="20" xoffset="0" yoffset="9" xadvance="10" page="0" chnl="15" />
    <char id="356" x="400" y="0" width="16" height="24" xoffset="1" yoffset="1" xadvance="15" page="0" chnl="15" />
    <char id="357" x="424" y="170" width="14" height="16" xoffset="0" yoffset="9" xadvance="14" page="0" chnl="15" />
    <char id="358" x="236" y="136" width="16" height="18" xoffset="0" yoffset="7" xadvance="15" page="0" chnl="15" />
    <char id="359" x="119" y="194" width="10" height="16" xoffset="0" yoffset="9" xadvance="10" page="0" chnl="15" />
    <char id="360" x="60" y="51" width="14" height="23" xoffset="1" yoffset="2" xadvance="16" page="0" chnl="15" />
    <char id="361" x="464" y="150" width="11" height="18" xoffset="1" yoffset="7" xadvance="11" page="0" chnl="15" />
    <char id="362" x="381" y="72" width="14" height="20" xoffset="1" yoffset="5" xadvance="16" page="0" chnl="15" />
    <char id="363" x="249" y="192" width="10" height="15" xoffset="1" yoffset="10" xadvance="11" page="0" chnl="15" />
    <char id="364" x="75" y="51" width="14" height="23" xoffset="1" yoffset="2" xadvance="16" page="0" chnl="15" />
    <char id="365" x="96" y="175" width="10" height="18" xoffset="1" yoffset="7" xadvance="11" page="0" chnl="15" />
    <char id="366" x="143" y="0" width="14" height="25" xoffset="1" yoffset="0" xadvance="16" page="0" chnl="15" />
    <char id="367" x="469" y="71" width="10" height="20" xoffset="1" yoffset="5" xadvance="11" page="0" chnl="15" />
    <char id="368" x="45" y="51" width="14" height="23" xoffset="1" yoffset="2" xadvance="16" page="0" chnl="15" />
    <char id="369" x="476" y="150" width="11" height="18" xoffset="1" yoffset="7" xadvance="11" page="0" chnl="15" />
    <char id="370" x="281" y="51" width="14" height="22" xoffset="1" yoffset="7" xadvance="16" page="0" chnl="15" />
    <char id="371" x="479" y="169" width="12" height="16" xoffset="1" yoffset="13" xadvance="11" page="0" chnl="15" />
    <char id="372" x="38" y="0" width="23" height="25" xoffset="1" yoffset="1" xadvance="23" page="0" chnl="15" />
    <char id="373" x="345" y="94" width="15" height="19" xoffset="0" yoffset="6" xadvance="16" page="0" chnl="15" />
    <char id="374" x="150" y="26" width="14" height="24" xoffset="0" yoffset="1" xadvance="14" page="0" chnl="15" />
    <char id="375" x="241" y="0" width="12" height="25" xoffset="0" yoffset="6" xadvance="11" page="0" chnl="15" />
    <char id="376" x="46" y="75" width="14" height="21" xoffset="0" yoffset="4" xadvance="14" page="0" chnl="15" />
    <char id="377" x="417" y="0" width="15" height="24" xoffset="0" yoffset="1" xadvance="16" page="0" chnl="15" />
    <char id="378" x="500" y="92" width="11" height="19" xoffset="1" yoffset="6" xadvance="12" page="0" chnl="15" />
    <char id="379" x="482" y="49" width="15" height="21" xoffset="0" yoffset="4" xadvance="16" page="0" chnl="15" />
    <char id="380" x="49" y="194" width="11" height="16" xoffset="1" yoffset="9" xadvance="12" page="0" chnl="15" />
    <char id="381" x="81" y="0" width="15" height="25" xoffset="0" yoffset="0" xadvance="16" page="0" chnl="15" />
    <char id="382" x="65" y="117" width="11" height="19" xoffset="1" yoffset="6" xadvance="12" page="0" chnl="15" />
    <char id="383" x="502" y="71" width="8" height="20" xoffset="3" yoffset="7" xadvance="11" page="0" chnl="15" />
    <char id="402" x="249" y="51" width="15" height="22" xoffset="-1" yoffset="7" xadvance="9" page="0" chnl="15" />
    <char id="506" x="128" y="0" width="14" height="25" xoffset="1" yoffset="0" xadvance="16" page="0" chnl="15" />
    <char id="507" x="142" y="51" width="11" height="23" xoffset="0" yoffset="2" xadvance="11" page="0" chnl="15" />
    <char id="508" x="11" y="0" width="26" height="25" xoffset="0" yoffset="1" xadvance="25" page="0" chnl="15" />
    <char id="509" x="160" y="97" width="20" height="19" xoffset="0" yoffset="6" xadvance="20" page="0" chnl="15" />
    <char id="510" x="62" y="0" width="18" height="25" xoffset="0" yoffset="1" xadvance="18" page="0" chnl="15" />
    <char id="511" x="435" y="92" width="12" height="19" xoffset="0" yoffset="6" xadvance="12" page="0" chnl="15" />
    <char id="536" x="0" y="52" width="14" height="23" xoffset="1" yoffset="8" xadvance="15" page="0" chnl="15" />
    <char id="537" x="77" y="117" width="11" height="19" xoffset="0" yoffset="12" xadvance="11" page="0" chnl="15" />
    <char id="538" x="383" y="0" width="16" height="24" xoffset="1" yoffset="7" xadvance="15" page="0" chnl="15" />
    <char id="539" x="389" y="49" width="10" height="22" xoffset="0" yoffset="9" xadvance="10" page="0" chnl="15" />
    <char id="567" x="149" y="175" width="8" height="18" xoffset="-1" yoffset="13" xadvance="7" page="0" chnl="15" />
    <char id="894" x="270" y="192" width="5" height="15" xoffset="0" yoffset="12" xadvance="6" page="0" chnl="15" />
    <char id="900" x="504" y="199" width="4" height="4" xoffset="4" yoffset="8" xadvance="12" page="0" chnl="15" />
    <char id="901" x="0" y="226" width="11" height="4" xoffset="1" yoffset="8" xadvance="12" page="0" chnl="15" />
    <char id="902" x="446" y="131" width="14" height="18" xoffset="1" yoffset="7" xadvance="16" page="0" chnl="15" />
    <char id="903" x="79" y="224" width="4" height="3" xoffset="1" yoffset="15" xadvance="5" page="0" chnl="15" />
    <char id="904" x="219" y="136" width="16" height="18" xoffset="1" yoffset="7" xadvance="18" page="0" chnl="15" />
    <char id="905" x="139" y="97" width="20" height="19" xoffset="1" yoffset="7" xadvance="22" page="0" chnl="15" />
    <char id="906" x="78" y="137" width="17" height="18" xoffset="0" yoffset="7" xadvance="17" page="0" chnl="15" />
    <char id="908" x="0" y="139" width="19" height="18" xoffset="0" yoffset="7" xadvance="19" page="0" chnl="15" />
    <char id="910" x="440" y="112" width="19" height="18" xoffset="0" yoffset="7" xadvance="19" page="0" chnl="15" />
    <char id="911" x="199" y="75" width="21" height="20" xoffset="0" yoffset="6" xadvance="22" page="0" chnl="15" />
    <char id="912" x="273" y="173" width="11" height="17" xoffset="-1" yoffset="8" xadvance="6" page="0" chnl="15" />
    <char id="913" x="191" y="175" width="14" height="17" xoffset="1" yoffset="8" xadvance="16" page="0" chnl="15" />
    <char id="914" x="311" y="154" width="12" height="18" xoffset="1" yoffset="7" xadvance="14" page="0" chnl="15" />
    <char id="915" x="324" y="154" width="12" height="18" xoffset="1" yoffset="7" xadvance="14" page="0" chnl="15" />
    <char id="916" x="243" y="74" width="18" height="20" xoffset="0" yoffset="6" xadvance="18" page="0" chnl="15" />
    <char id="917" x="72" y="156" width="13" height="18" xoffset="1" yoffset="7" xadvance="14" page="0" chnl="15" />
    <char id="918" x="352" y="134" width="15" height="18" xoffset="0" yoffset="7" xadvance="16" page="0" chnl="15" />
    <char id="919" x="361" y="93" width="15" height="19" xoffset="1" yoffset="7" xadvance="17" page="0" chnl="15" />
    <char id="920" x="60" y="137" width="17" height="18" xoffset="1" yoffset="7" xadvance="18" page="0" chnl="15" />
    <char id="921" x="350" y="153" width="12" height="18" xoffset="0" yoffset="7" xadvance="12" page="0" chnl="15" />
    <char id="922" x="363" y="153" width="12" height="18" xoffset="2" yoffset="7" xadvance="13" page="0" chnl="15" />
    <char id="923" x="202" y="137" width="16" height="18" xoffset="0" yoffset="7" xadvance="15" page="0" chnl="15" />
    <char id="924" x="460" y="112" width="19" height="18" xoffset="1" yoffset="7" xadvance="20" page="0" chnl="15" />
    <char id="925" x="150" y="137" width="17" height="18" xoffset="1" yoffset="7" xadvance="18" page="0" chnl="15" />
    <char id="926" x="253" y="136" width="16" height="18" xoffset="0" yoffset="7" xadvance="16" page="0" chnl="15" />
    <char id="927" x="132" y="137" width="17" height="18" xoffset="1" yoffset="7" xadvance="18" page="0" chnl="15" />
    <char id="928" x="40" y="137" width="19" height="18" xoffset="1" yoffset="7" xadvance="20" page="0" chnl="15" />
    <char id="929" x="36" y="176" width="11" height="18" xoffset="0" yoffset="7" xadvance="11" page="0" chnl="15" />
    <char id="931" x="384" y="133" width="15" height="18" xoffset="1" yoffset="7" xadvance="17" page="0" chnl="15" />
    <char id="932" x="287" y="135" width="16" height="18" xoffset="1" yoffset="7" xadvance="15" page="0" chnl="15" />
    <char id="933" x="476" y="131" width="14" height="18" xoffset="0" yoffset="7" xadvance="14" page="0" chnl="15" />
    <char id="934" x="461" y="131" width="14" height="18" xoffset="0" yoffset="7" xadvance="14" page="0" chnl="15" />
    <char id="935" x="270" y="135" width="16" height="18" xoffset="0" yoffset="7" xadvance="16" page="0" chnl="15" />
    <char id="936" x="336" y="134" width="15" height="18" xoffset="0" yoffset="7" xadvance="15" page="0" chnl="15" />
    <char id="937" x="221" y="75" width="21" height="20" xoffset="0" yoffset="6" xadvance="21" page="0" chnl="15" />
    <char id="938" x="132" y="75" width="12" height="21" xoffset="0" yoffset="4" xadvance="12" page="0" chnl="15" />
    <char id="939" x="61" y="75" width="14" height="21" xoffset="0" yoffset="4" xadvance="14" page="0" chnl="15" />
    <char id="940" x="235" y="174" width="12" height="17" xoffset="0" yoffset="8" xadvance="12" page="0" chnl="15" />
    <char id="941" x="343" y="172" width="9" height="17" xoffset="1" yoffset="8" xadvance="11" page="0" chnl="15" />
    <char id="942" x="409" y="72" width="11" height="20" xoffset="1" yoffset="8" xadvance="12" page="0" chnl="15" />
    <char id="943" x="362" y="172" width="5" height="17" xoffset="1" yoffset="8" xadvance="6" page="0" chnl="15" />
    <char id="944" x="261" y="174" width="11" height="17" xoffset="0" yoffset="8" xadvance="11" page="0" chnl="15" />
    <char id="945" x="0" y="213" width="12" height="12" xoffset="0" yoffset="13" xadvance="12" page="0" chnl="15" />
    <char id="946" x="171" y="75" width="11" height="21" xoffset="1" yoffset="8" xadvance="13" page="0" chnl="15" />
    <char id="947" x="13" y="196" width="11" height="16" xoffset="0" yoffset="13" xadvance="11" page="0" chnl="15" />
    <char id="948" x="452" y="150" width="11" height="18" xoffset="0" yoffset="7" xadvance="12" page="0" chnl="15" />
    <char id="949" x="180" y="210" width="9" height="12" xoffset="1" yoffset="13" xadvance="11" page="0" chnl="15" />
    <char id="950" x="377" y="49" width="11" height="22" xoffset="1" yoffset="7" xadvance="11" page="0" chnl="15" />
    <char id="951" x="225" y="192" width="11" height="15" xoffset="1" yoffset="13" xadvance="12" page="0" chnl="15" />
    <char id="952" x="114" y="156" width="13" height="18" xoffset="0" yoffset="7" xadvance="13" page="0" chnl="15" />
    <char id="953" x="190" y="209" width="4" height="12" xoffset="1" yoffset="13" xadvance="6" page="0" chnl="15" />
    <char id="954" x="100" y="211" width="11" height="12" xoffset="1" yoffset="13" xadvance="12" page="0" chnl="15" />
    <char id="955" x="25" y="196" width="11" height="16" xoffset="0" yoffset="9" xadvance="11" page="0" chnl="15" />
    <char id="956" x="141" y="194" width="10" height="16" xoffset="1" yoffset="13" xadvance="11" page="0" chnl="15" />
    <char id="957" x="52" y="211" width="11" height="12" xoffset="0" yoffset="13" xadvance="11" page="0" chnl="15" />
    <char id="958" x="400" y="49" width="10" height="22" xoffset="1" yoffset="7" xadvance="11" page="0" chnl="15" />
    <char id="959" x="124" y="211" width="11" height="12" xoffset="0" yoffset="13" xadvance="12" page="0" chnl="15" />
    <char id="960" x="463" y="186" width="14" height="12" xoffset="0" yoffset="13" xadvance="14" page="0" chnl="15" />
    <char id="961" x="85" y="194" width="11" height="16" xoffset="0" yoffset="13" xadvance="12" page="0" chnl="15" />
    <char id="962" x="152" y="194" width="10" height="16" xoffset="1" yoffset="13" xadvance="11" page="0" chnl="15" />
    <char id="963" x="492" y="186" width="13" height="12" xoffset="0" yoffset="13" xadvance="12" page="0" chnl="15" />
    <char id="964" x="158" y="211" width="10" height="12" xoffset="0" yoffset="13" xadvance="10" page="0" chnl="15" />
    <char id="965" x="88" y="211" width="11" height="12" xoffset="0" yoffset="13" xadvance="11" page="0" chnl="15" />
    <char id="966" x="492" y="169" width="12" height="16" xoffset="1" yoffset="13" xadvance="14" page="0" chnl="15" />
    <char id="967" x="439" y="170" width="13" height="16" xoffset="0" yoffset="13" xadvance="13" page="0" chnl="15" />
    <char id="968" x="466" y="169" width="12" height="16" xoffset="0" yoffset="13" xadvance="13" page="0" chnl="15" />
    <char id="969" x="429" y="187" width="17" height="12" xoffset="0" yoffset="13" xadvance="17" page="0" chnl="15" />
    <char id="970" x="173" y="193" width="9" height="16" xoffset="-1" yoffset="9" xadvance="6" page="0" chnl="15" />
    <char id="971" x="37" y="195" width="11" height="16" xoffset="0" yoffset="9" xadvance="11" page="0" chnl="15" />
    <char id="972" x="309" y="173" width="11" height="17" xoffset="0" yoffset="8" xadvance="12" page="0" chnl="15" />
    <char id="973" x="297" y="173" width="11" height="17" xoffset="0" yoffset="8" xadvance="11" page="0" chnl="15" />
    <char id="974" x="158" y="175" width="17" height="17" xoffset="0" yoffset="8" xadvance="17" page="0" chnl="15" />
    <char id="8355" x="398" y="113" width="21" height="18" xoffset="1" yoffset="7" xadvance="22" page="0" chnl="15" />
    <char id="8356" x="317" y="73" width="16" height="20" xoffset="0" yoffset="7" xadvance="18" page="0" chnl="15" />
    <char id="8359" x="35" y="97" width="26" height="19" xoffset="0" yoffset="7" xadvance="27" page="0" chnl="15" />
    <char id="8364" x="304" y="135" width="15" height="18" xoffset="-1" yoffset="7" xadvance="13" page="0" chnl="15" />
    <char id="8706" x="107" y="175" width="10" height="18" xoffset="2" yoffset="7" xadvance="12" page="0" chnl="15" />
    <char id="8710" x="262" y="74" width="18" height="20" xoffset="0" yoffset="6" xadvance="18" page="0" chnl="15" />
    <char id="8719" x="411" y="49" width="19" height="21" xoffset="1" yoffset="7" xadvance="20" page="0" chnl="15" />
    <char id="8721" x="293" y="95" width="17" height="19" xoffset="0" yoffset="9" xadvance="16" page="0" chnl="15" />
    <char id="8722" x="29" y="226" width="11" height="3" xoffset="0" yoffset="16" xadvance="11" page="0" chnl="15" />
    <char id="8725" x="220" y="96" width="18" height="19" xoffset="0" yoffset="6" xadvance="19" page="0" chnl="15" />
    <char id="8729" x="84" y="224" width="4" height="3" xoffset="1" yoffset="15" xadvance="5" page="0" chnl="15" />
    <char id="8730" x="366" y="72" width="14" height="20" xoffset="0" yoffset="6" xadvance="13" page="0" chnl="15" />
    <char id="8734" x="389" y="202" width="16" height="7" xoffset="1" yoffset="14" xadvance="18" page="0" chnl="15" />
    <char id="8747" x="449" y="0" width="15" height="24" xoffset="0" yoffset="5" xadvance="16" page="0" chnl="15" />
    <char id="8776" x="195" y="209" width="13" height="11" xoffset="1" yoffset="11" xadvance="14" page="0" chnl="15" />
    <char id="8800" x="366" y="190" width="10" height="13" xoffset="0" yoffset="11" xadvance="11" page="0" chnl="15" />
    <char id="8804" x="377" y="189" width="9" height="13" xoffset="0" yoffset="13" xadvance="9" page="0" chnl="15" />
    <char id="8805" x="288" y="191" width="9" height="14" xoffset="0" yoffset="12" xadvance="9" page="0" chnl="15" />
    <char id="9633" x="331" y="205" width="10" height="9" xoffset="3" yoffset="16" xadvance="16" page="0" chnl="15" />
    <char id="9642" x="466" y="199" width="7" height="6" xoffset="4" yoffset="17" xadvance="14" page="0" chnl="15" />
    <char id="9643" x="417" y="201" width="7" height="7" xoffset="3" yoffset="17" xadvance="14" page="0" chnl="15" />
    <char id="9674" x="334" y="73" width="16" height="20" xoffset="0" yoffset="6" xadvance="16" page="0" chnl="15" />
    <char id="9679" x="474" y="199" width="7" height="6" xoffset="4" yoffset="17" xadvance="14" page="0" chnl="15" />
    <char id="9702" x="425" y="201" width="7" height="7" xoffset="3" yoffset="17" xadvance="14" page="0" chnl="15" />
  </chars>
</font>
