<?xml version="1.0"?>
<font>
  <info face="Consolas" size="32" bold="1" italic="0" charset="" unicode="1" stretchH="100" smooth="1" aa="2" padding="0,0,0,0" spacing="1,1" outline="0"/>
  <common lineHeight="32" base="25" scaleW="512" scaleH="512" pages="1" packed="0" alphaChnl="0" redChnl="4" greenChnl="4" blueChnl="4"/>
  <pages>
    <page id="0" file="Consolas_32_bold_0.png" />
  </pages>
  <chars count="625">
    <char id="-1" x="0" y="319" width="14" height="18" xoffset="0" yoffset="7" xadvance="15" page="0" chnl="15" />
    <char id="32" x="509" y="23" width="2" height="1" xoffset="0" yoffset="31" xadvance="15" page="0" chnl="15" />
    <char id="33" x="502" y="169" width="5" height="20" xoffset="5" yoffset="6" xadvance="15" page="0" chnl="15" />
    <char id="34" x="186" y="372" width="10" height="7" xoffset="2" yoffset="6" xadvance="15" page="0" chnl="15" />
    <char id="35" x="295" y="296" width="15" height="18" xoffset="0" yoffset="7" xadvance="15" page="0" chnl="15" />
    <char id="36" x="245" y="27" width="13" height="25" xoffset="1" yoffset="4" xadvance="15" page="0" chnl="15" />
    <char id="37" x="227" y="151" width="16" height="21" xoffset="0" yoffset="5" xadvance="15" page="0" chnl="15" />
    <char id="38" x="37" y="176" width="16" height="20" xoffset="0" yoffset="6" xadvance="15" page="0" chnl="15" />
    <char id="39" x="507" y="51" width="4" height="7" xoffset="5" yoffset="6" xadvance="15" page="0" chnl="15" />
    <char id="40" x="391" y="0" width="10" height="26" xoffset="3" yoffset="5" xadvance="15" page="0" chnl="15" />
    <char id="41" x="402" y="0" width="9" height="26" xoffset="3" yoffset="5" xadvance="15" page="0" chnl="15" />
    <char id="42" x="0" y="373" width="12" height="12" xoffset="1" yoffset="6" xadvance="15" page="0" chnl="15" />
    <char id="43" x="434" y="348" width="14" height="13" xoffset="0" yoffset="11" xadvance="15" page="0" chnl="15" />
    <char id="44" x="102" y="373" width="8" height="10" xoffset="2" yoffset="20" xadvance="15" page="0" chnl="15" />
    <char id="45" x="308" y="367" width="9" height="3" xoffset="3" yoffset="16" xadvance="15" page="0" chnl="15" />
    <char id="46" x="212" y="368" width="6" height="6" xoffset="4" yoffset="20" xadvance="15" page="0" chnl="15" />
    <char id="47" x="33" y="153" width="14" height="22" xoffset="0" yoffset="6" xadvance="15" page="0" chnl="15" />
    <char id="48" x="278" y="256" width="14" height="19" xoffset="0" yoffset="7" xadvance="15" page="0" chnl="15" />
    <char id="49" x="312" y="315" width="13" height="18" xoffset="1" yoffset="7" xadvance="15" page="0" chnl="15" />
    <char id="50" x="298" y="315" width="13" height="18" xoffset="1" yoffset="7" xadvance="15" page="0" chnl="15" />
    <char id="51" x="168" y="278" width="13" height="19" xoffset="1" yoffset="7" xadvance="15" page="0" chnl="15" />
    <char id="52" x="199" y="297" width="15" height="18" xoffset="0" yoffset="7" xadvance="15" page="0" chnl="15" />
    <char id="53" x="210" y="277" width="13" height="19" xoffset="1" yoffset="7" xadvance="15" page="0" chnl="15" />
    <char id="54" x="218" y="256" width="14" height="19" xoffset="1" yoffset="7" xadvance="15" page="0" chnl="15" />
    <char id="55" x="284" y="315" width="13" height="18" xoffset="1" yoffset="7" xadvance="15" page="0" chnl="15" />
    <char id="56" x="224" y="276" width="13" height="19" xoffset="1" yoffset="7" xadvance="15" page="0" chnl="15" />
    <char id="57" x="470" y="293" width="14" height="18" xoffset="0" yoffset="7" xadvance="15" page="0" chnl="15" />
    <char id="58" x="501" y="331" width="6" height="15" xoffset="4" yoffset="11" xadvance="15" page="0" chnl="15" />
    <char id="59" x="353" y="276" width="8" height="19" xoffset="2" yoffset="11" xadvance="15" page="0" chnl="15" />
    <char id="60" x="335" y="334" width="12" height="16" xoffset="1" yoffset="10" xadvance="15" page="0" chnl="15" />
    <char id="61" x="125" y="373" width="12" height="9" xoffset="1" yoffset="13" xadvance="15" page="0" chnl="15" />
    <char id="62" x="322" y="334" width="12" height="16" xoffset="2" yoffset="10" xadvance="15" page="0" chnl="15" />
    <char id="63" x="155" y="237" width="10" height="20" xoffset="3" yoffset="6" xadvance="15" page="0" chnl="15" />
    <char id="64" x="67" y="0" width="16" height="26" xoffset="0" yoffset="5" xadvance="15" page="0" chnl="15" />
    <char id="65" x="34" y="300" width="16" height="18" xoffset="0" yoffset="7" xadvance="15" page="0" chnl="15" />
    <char id="66" x="382" y="315" width="13" height="18" xoffset="1" yoffset="7" xadvance="15" page="0" chnl="15" />
    <char id="67" x="338" y="256" width="14" height="19" xoffset="0" yoffset="7" xadvance="15" page="0" chnl="15" />
    <char id="68" x="105" y="319" width="14" height="18" xoffset="1" yoffset="7" xadvance="15" page="0" chnl="15" />
    <char id="69" x="499" y="274" width="12" height="18" xoffset="2" yoffset="7" xadvance="15" page="0" chnl="15" />
    <char id="70" x="500" y="293" width="11" height="18" xoffset="2" yoffset="7" xadvance="15" page="0" chnl="15" />
    <char id="71" x="323" y="256" width="14" height="19" xoffset="0" yoffset="7" xadvance="15" page="0" chnl="15" />
    <char id="72" x="480" y="312" width="13" height="18" xoffset="1" yoffset="7" xadvance="15" page="0" chnl="15" />
    <char id="73" x="70" y="338" width="12" height="18" xoffset="1" yoffset="7" xadvance="15" page="0" chnl="15" />
    <char id="74" x="500" y="232" width="11" height="19" xoffset="2" yoffset="7" xadvance="15" page="0" chnl="15" />
    <char id="75" x="60" y="319" width="14" height="18" xoffset="1" yoffset="7" xadvance="15" page="0" chnl="15" />
    <char id="76" x="109" y="338" width="12" height="18" xoffset="2" yoffset="7" xadvance="15" page="0" chnl="15" />
    <char id="77" x="279" y="296" width="15" height="18" xoffset="0" yoffset="7" xadvance="15" page="0" chnl="15" />
    <char id="78" x="30" y="319" width="14" height="18" xoffset="1" yoffset="7" xadvance="15" page="0" chnl="15" />
    <char id="79" x="96" y="260" width="15" height="19" xoffset="0" yoffset="7" xadvance="15" page="0" chnl="15" />
    <char id="80" x="354" y="315" width="13" height="18" xoffset="1" yoffset="7" xadvance="15" page="0" chnl="15" />
    <char id="81" x="409" y="27" width="16" height="24" xoffset="0" yoffset="7" xadvance="15" page="0" chnl="15" />
    <char id="82" x="368" y="315" width="13" height="18" xoffset="1" yoffset="7" xadvance="15" page="0" chnl="15" />
    <char id="83" x="368" y="256" width="13" height="19" xoffset="1" yoffset="7" xadvance="15" page="0" chnl="15" />
    <char id="84" x="15" y="319" width="14" height="18" xoffset="0" yoffset="7" xadvance="15" page="0" chnl="15" />
    <char id="85" x="173" y="257" width="14" height="19" xoffset="1" yoffset="7" xadvance="15" page="0" chnl="15" />
    <char id="86" x="85" y="300" width="16" height="18" xoffset="0" yoffset="7" xadvance="15" page="0" chnl="15" />
    <char id="87" x="375" y="296" width="15" height="18" xoffset="0" yoffset="7" xadvance="15" page="0" chnl="15" />
    <char id="88" x="102" y="300" width="16" height="18" xoffset="0" yoffset="7" xadvance="15" page="0" chnl="15" />
    <char id="89" x="439" y="293" width="15" height="18" xoffset="0" yoffset="7" xadvance="15" page="0" chnl="15" />
    <char id="90" x="494" y="312" width="13" height="18" xoffset="1" yoffset="7" xadvance="15" page="0" chnl="15" />
    <char id="91" x="412" y="0" width="8" height="26" xoffset="3" yoffset="5" xadvance="15" page="0" chnl="15" />
    <char id="92" x="106" y="152" width="13" height="22" xoffset="1" yoffset="6" xadvance="15" page="0" chnl="15" />
    <char id="93" x="421" y="0" width="8" height="26" xoffset="3" yoffset="5" xadvance="15" page="0" chnl="15" />
    <char id="94" x="111" y="373" width="13" height="9" xoffset="1" yoffset="7" xadvance="15" page="0" chnl="15" />
    <char id="95" x="233" y="368" width="16" height="4" xoffset="0" yoffset="27" xadvance="15" page="0" chnl="15" />
    <char id="96" x="275" y="367" width="9" height="4" xoffset="1" yoffset="6" xadvance="15" page="0" chnl="15" />
    <char id="97" x="29" y="357" width="13" height="15" xoffset="1" yoffset="11" xadvance="15" page="0" chnl="15" />
    <char id="98" x="322" y="215" width="13" height="20" xoffset="1" yoffset="6" xadvance="15" page="0" chnl="15" />
    <char id="99" x="126" y="357" width="12" height="15" xoffset="1" yoffset="11" xadvance="15" page="0" chnl="15" />
    <char id="100" x="336" y="215" width="13" height="20" xoffset="0" yoffset="6" xadvance="15" page="0" chnl="15" />
    <char id="101" x="15" y="357" width="13" height="15" xoffset="1" yoffset="11" xadvance="15" page="0" chnl="15" />
    <char id="102" x="180" y="195" width="14" height="20" xoffset="0" yoffset="5" xadvance="15" page="0" chnl="15" />
    <char id="103" x="135" y="195" width="14" height="20" xoffset="0" yoffset="11" xadvance="15" page="0" chnl="15" />
    <char id="104" x="251" y="276" width="12" height="19" xoffset="1" yoffset="6" xadvance="15" page="0" chnl="15" />
    <char id="105" x="350" y="215" width="13" height="20" xoffset="1" yoffset="5" xadvance="15" page="0" chnl="15" />
    <char id="106" x="354" y="0" width="12" height="26" xoffset="1" yoffset="5" xadvance="15" page="0" chnl="15" />
    <char id="107" x="143" y="258" width="14" height="19" xoffset="1" yoffset="6" xadvance="15" page="0" chnl="15" />
    <char id="108" x="382" y="256" width="13" height="19" xoffset="1" yoffset="6" xadvance="15" page="0" chnl="15" />
    <char id="109" x="275" y="352" width="14" height="14" xoffset="0" yoffset="11" xadvance="15" page="0" chnl="15" />
    <char id="110" x="375" y="350" width="12" height="14" xoffset="1" yoffset="11" xadvance="15" page="0" chnl="15" />
    <char id="111" x="456" y="331" width="14" height="15" xoffset="0" yoffset="11" xadvance="15" page="0" chnl="15" />
    <char id="112" x="498" y="148" width="13" height="20" xoffset="1" yoffset="11" xadvance="15" page="0" chnl="15" />
    <char id="113" x="240" y="194" width="13" height="20" xoffset="0" yoffset="11" xadvance="15" page="0" chnl="15" />
    <char id="114" x="388" y="350" width="12" height="14" xoffset="2" yoffset="11" xadvance="15" page="0" chnl="15" />
    <char id="115" x="152" y="357" width="12" height="15" xoffset="1" yoffset="11" xadvance="15" page="0" chnl="15" />
    <char id="116" x="410" y="255" width="13" height="19" xoffset="0" yoffset="7" xadvance="15" page="0" chnl="15" />
    <char id="117" x="113" y="357" width="12" height="15" xoffset="1" yoffset="11" xadvance="15" page="0" chnl="15" />
    <char id="118" x="243" y="353" width="15" height="14" xoffset="0" yoffset="11" xadvance="15" page="0" chnl="15" />
    <char id="119" x="178" y="357" width="16" height="14" xoffset="0" yoffset="11" xadvance="15" page="0" chnl="15" />
    <char id="120" x="227" y="353" width="15" height="14" xoffset="0" yoffset="11" xadvance="15" page="0" chnl="15" />
    <char id="121" x="284" y="173" width="15" height="20" xoffset="0" yoffset="11" xadvance="15" page="0" chnl="15" />
    <char id="122" x="349" y="351" width="12" height="14" xoffset="1" yoffset="11" xadvance="15" page="0" chnl="15" />
    <char id="123" x="379" y="0" width="11" height="26" xoffset="1" yoffset="5" xadvance="15" page="0" chnl="15" />
    <char id="124" x="37" y="0" width="4" height="28" xoffset="5" yoffset="3" xadvance="15" page="0" chnl="15" />
    <char id="125" x="367" y="0" width="11" height="26" xoffset="2" yoffset="5" xadvance="15" page="0" chnl="15" />
    <char id="126" x="156" y="373" width="15" height="7" xoffset="0" yoffset="14" xadvance="15" page="0" chnl="15" />
    <char id="160" x="509" y="21" width="2" height="1" xoffset="0" yoffset="31" xadvance="15" page="0" chnl="15" />
    <char id="161" x="166" y="237" width="5" height="20" xoffset="5" yoffset="11" xadvance="15" page="0" chnl="15" />
    <char id="162" x="389" y="77" width="12" height="24" xoffset="1" yoffset="5" xadvance="15" page="0" chnl="15" />
    <char id="163" x="150" y="319" width="14" height="18" xoffset="0" yoffset="7" xadvance="15" page="0" chnl="15" />
    <char id="164" x="250" y="334" width="15" height="17" xoffset="0" yoffset="8" xadvance="15" page="0" chnl="15" />
    <char id="165" x="407" y="295" width="15" height="18" xoffset="0" yoffset="7" xadvance="15" page="0" chnl="15" />
    <char id="166" x="42" y="0" width="4" height="28" xoffset="5" yoffset="3" xadvance="15" page="0" chnl="15" />
    <char id="167" x="492" y="51" width="14" height="24" xoffset="1" yoffset="5" xadvance="15" page="0" chnl="15" />
    <char id="168" x="264" y="367" width="10" height="4" xoffset="2" yoffset="6" xadvance="15" page="0" chnl="15" />
    <char id="169" x="484" y="234" width="15" height="19" xoffset="0" yoffset="7" xadvance="15" page="0" chnl="15" />
    <char id="170" x="401" y="350" width="10" height="14" xoffset="2" yoffset="7" xadvance="15" page="0" chnl="15" />
    <char id="171" x="478" y="347" width="13" height="12" xoffset="1" yoffset="12" xadvance="15" page="0" chnl="15" />
    <char id="172" x="172" y="373" width="13" height="7" xoffset="1" yoffset="16" xadvance="15" page="0" chnl="15" />
    <char id="173" x="318" y="367" width="9" height="3" xoffset="3" yoffset="16" xadvance="15" page="0" chnl="15" />
    <char id="174" x="320" y="352" width="14" height="14" xoffset="0" yoffset="5" xadvance="15" page="0" chnl="15" />
    <char id="175" x="328" y="367" width="8" height="3" xoffset="3" yoffset="6" xadvance="15" page="0" chnl="15" />
    <char id="176" x="90" y="373" width="11" height="10" xoffset="2" yoffset="5" xadvance="15" page="0" chnl="15" />
    <char id="177" x="282" y="334" width="13" height="17" xoffset="1" yoffset="8" xadvance="15" page="0" chnl="15" />
    <char id="178" x="13" y="373" width="10" height="12" xoffset="2" yoffset="5" xadvance="15" page="0" chnl="15" />
    <char id="179" x="24" y="373" width="9" height="12" xoffset="3" yoffset="5" xadvance="15" page="0" chnl="15" />
    <char id="180" x="285" y="367" width="9" height="4" xoffset="5" yoffset="6" xadvance="15" page="0" chnl="15" />
    <char id="181" x="150" y="195" width="14" height="20" xoffset="1" yoffset="11" xadvance="15" page="0" chnl="15" />
    <char id="182" x="423" y="102" width="14" height="23" xoffset="0" yoffset="6" xadvance="15" page="0" chnl="15" />
    <char id="183" x="219" y="368" width="6" height="6" xoffset="4" yoffset="14" xadvance="15" page="0" chnl="15" />
    <char id="184" x="506" y="347" width="5" height="4" xoffset="5" yoffset="25" xadvance="15" page="0" chnl="15" />
    <char id="185" x="62" y="373" width="10" height="11" xoffset="2" yoffset="6" xadvance="15" page="0" chnl="15" />
    <char id="186" x="412" y="349" width="10" height="14" xoffset="2" yoffset="7" xadvance="15" page="0" chnl="15" />
    <char id="187" x="48" y="373" width="13" height="11" xoffset="1" yoffset="12" xadvance="15" page="0" chnl="15" />
    <char id="188" x="301" y="236" width="16" height="19" xoffset="0" yoffset="6" xadvance="15" page="0" chnl="15" />
    <char id="189" x="284" y="236" width="16" height="19" xoffset="0" yoffset="6" xadvance="15" page="0" chnl="15" />
    <char id="190" x="88" y="176" width="16" height="20" xoffset="0" yoffset="5" xadvance="15" page="0" chnl="15" />
    <char id="191" x="501" y="0" width="10" height="20" xoffset="2" yoffset="11" xadvance="15" page="0" chnl="15" />
    <char id="192" x="85" y="104" width="16" height="23" xoffset="0" yoffset="2" xadvance="15" page="0" chnl="15" />
    <char id="193" x="119" y="103" width="16" height="23" xoffset="0" yoffset="2" xadvance="15" page="0" chnl="15" />
    <char id="194" x="51" y="105" width="16" height="23" xoffset="0" yoffset="2" xadvance="15" page="0" chnl="15" />
    <char id="195" x="187" y="103" width="16" height="23" xoffset="0" yoffset="2" xadvance="15" page="0" chnl="15" />
    <char id="196" x="136" y="103" width="16" height="23" xoffset="0" yoffset="2" xadvance="15" page="0" chnl="15" />
    <char id="197" x="68" y="105" width="16" height="23" xoffset="0" yoffset="2" xadvance="15" page="0" chnl="15" />
    <char id="198" x="431" y="274" width="16" height="18" xoffset="-1" yoffset="7" xadvance="15" page="0" chnl="15" />
    <char id="199" x="48" y="153" width="14" height="22" xoffset="0" yoffset="7" xadvance="15" page="0" chnl="15" />
    <char id="200" x="306" y="127" width="12" height="23" xoffset="1" yoffset="2" xadvance="15" page="0" chnl="15" />
    <char id="201" x="280" y="127" width="12" height="23" xoffset="2" yoffset="2" xadvance="15" page="0" chnl="15" />
    <char id="202" x="228" y="127" width="12" height="23" xoffset="2" yoffset="2" xadvance="15" page="0" chnl="15" />
    <char id="203" x="267" y="127" width="12" height="23" xoffset="2" yoffset="2" xadvance="15" page="0" chnl="15" />
    <char id="204" x="254" y="127" width="12" height="23" xoffset="1" yoffset="2" xadvance="15" page="0" chnl="15" />
    <char id="205" x="176" y="127" width="12" height="23" xoffset="1" yoffset="2" xadvance="15" page="0" chnl="15" />
    <char id="206" x="150" y="127" width="12" height="23" xoffset="1" yoffset="2" xadvance="15" page="0" chnl="15" />
    <char id="207" x="111" y="127" width="12" height="23" xoffset="1" yoffset="2" xadvance="15" page="0" chnl="15" />
    <char id="208" x="391" y="295" width="15" height="18" xoffset="0" yoffset="7" xadvance="15" page="0" chnl="15" />
    <char id="209" x="453" y="102" width="14" height="23" xoffset="1" yoffset="2" xadvance="15" page="0" chnl="15" />
    <char id="210" x="16" y="55" width="15" height="24" xoffset="0" yoffset="2" xadvance="15" page="0" chnl="15" />
    <char id="211" x="493" y="26" width="15" height="24" xoffset="0" yoffset="2" xadvance="15" page="0" chnl="15" />
    <char id="212" x="477" y="26" width="15" height="24" xoffset="0" yoffset="2" xadvance="15" page="0" chnl="15" />
    <char id="213" x="0" y="55" width="15" height="24" xoffset="0" yoffset="2" xadvance="15" page="0" chnl="15" />
    <char id="214" x="32" y="55" width="15" height="24" xoffset="0" yoffset="2" xadvance="15" page="0" chnl="15" />
    <char id="215" x="464" y="347" width="13" height="12" xoffset="1" yoffset="12" xadvance="15" page="0" chnl="15" />
    <char id="216" x="64" y="54" width="15" height="24" xoffset="0" yoffset="4" xadvance="15" page="0" chnl="15" />
    <char id="217" x="267" y="53" width="14" height="24" xoffset="1" yoffset="2" xadvance="15" page="0" chnl="15" />
    <char id="218" x="252" y="53" width="14" height="24" xoffset="1" yoffset="2" xadvance="15" page="0" chnl="15" />
    <char id="219" x="207" y="53" width="14" height="24" xoffset="1" yoffset="2" xadvance="15" page="0" chnl="15" />
    <char id="220" x="192" y="53" width="14" height="24" xoffset="1" yoffset="2" xadvance="15" page="0" chnl="15" />
    <char id="221" x="252" y="103" width="15" height="23" xoffset="0" yoffset="2" xadvance="15" page="0" chnl="15" />
    <char id="222" x="410" y="314" width="13" height="18" xoffset="1" yoffset="7" xadvance="15" page="0" chnl="15" />
    <char id="223" x="425" y="149" width="13" height="21" xoffset="1" yoffset="5" xadvance="15" page="0" chnl="15" />
    <char id="224" x="478" y="192" width="13" height="20" xoffset="1" yoffset="6" xadvance="15" page="0" chnl="15" />
    <char id="225" x="294" y="215" width="13" height="20" xoffset="1" yoffset="6" xadvance="15" page="0" chnl="15" />
    <char id="226" x="252" y="215" width="13" height="20" xoffset="1" yoffset="6" xadvance="15" page="0" chnl="15" />
    <char id="227" x="397" y="149" width="13" height="21" xoffset="1" yoffset="5" xadvance="15" page="0" chnl="15" />
    <char id="228" x="182" y="216" width="13" height="20" xoffset="1" yoffset="6" xadvance="15" page="0" chnl="15" />
    <char id="229" x="439" y="149" width="13" height="21" xoffset="1" yoffset="5" xadvance="15" page="0" chnl="15" />
    <char id="230" x="409" y="333" width="15" height="15" xoffset="0" yoffset="11" xadvance="15" page="0" chnl="15" />
    <char id="231" x="187" y="336" width="12" height="18" xoffset="1" yoffset="11" xadvance="15" page="0" chnl="15" />
    <char id="232" x="168" y="216" width="13" height="20" xoffset="1" yoffset="6" xadvance="15" page="0" chnl="15" />
    <char id="233" x="154" y="216" width="13" height="20" xoffset="1" yoffset="6" xadvance="15" page="0" chnl="15" />
    <char id="234" x="126" y="218" width="13" height="20" xoffset="1" yoffset="6" xadvance="15" page="0" chnl="15" />
    <char id="235" x="98" y="218" width="13" height="20" xoffset="1" yoffset="6" xadvance="15" page="0" chnl="15" />
    <char id="236" x="424" y="254" width="13" height="19" xoffset="1" yoffset="6" xadvance="15" page="0" chnl="15" />
    <char id="237" x="438" y="254" width="13" height="19" xoffset="1" yoffset="6" xadvance="15" page="0" chnl="15" />
    <char id="238" x="452" y="254" width="13" height="19" xoffset="1" yoffset="6" xadvance="15" page="0" chnl="15" />
    <char id="239" x="480" y="254" width="13" height="19" xoffset="1" yoffset="6" xadvance="15" page="0" chnl="15" />
    <char id="240" x="45" y="197" width="14" height="20" xoffset="0" yoffset="6" xadvance="15" page="0" chnl="15" />
    <char id="241" x="117" y="239" width="12" height="20" xoffset="1" yoffset="5" xadvance="15" page="0" chnl="15" />
    <char id="242" x="60" y="197" width="14" height="20" xoffset="0" yoffset="6" xadvance="15" page="0" chnl="15" />
    <char id="243" x="120" y="197" width="14" height="20" xoffset="0" yoffset="6" xadvance="15" page="0" chnl="15" />
    <char id="244" x="427" y="171" width="14" height="20" xoffset="0" yoffset="6" xadvance="15" page="0" chnl="15" />
    <char id="245" x="308" y="151" width="14" height="21" xoffset="0" yoffset="5" xadvance="15" page="0" chnl="15" />
    <char id="246" x="225" y="194" width="14" height="20" xoffset="0" yoffset="6" xadvance="15" page="0" chnl="15" />
    <char id="247" x="441" y="332" width="14" height="15" xoffset="0" yoffset="10" xadvance="15" page="0" chnl="15" />
    <char id="248" x="195" y="194" width="14" height="20" xoffset="0" yoffset="8" xadvance="15" page="0" chnl="15" />
    <char id="249" x="436" y="192" width="13" height="20" xoffset="1" yoffset="6" xadvance="15" page="0" chnl="15" />
    <char id="250" x="422" y="192" width="13" height="20" xoffset="1" yoffset="6" xadvance="15" page="0" chnl="15" />
    <char id="251" x="443" y="213" width="12" height="20" xoffset="1" yoffset="6" xadvance="15" page="0" chnl="15" />
    <char id="252" x="456" y="213" width="12" height="20" xoffset="1" yoffset="6" xadvance="15" page="0" chnl="15" />
    <char id="253" x="0" y="29" width="15" height="25" xoffset="0" yoffset="6" xadvance="15" page="0" chnl="15" />
    <char id="254" x="259" y="27" width="13" height="25" xoffset="1" yoffset="6" xadvance="15" page="0" chnl="15" />
    <char id="255" x="16" y="29" width="15" height="25" xoffset="0" yoffset="6" xadvance="15" page="0" chnl="15" />
    <char id="256" x="473" y="125" width="16" height="22" xoffset="0" yoffset="3" xadvance="15" page="0" chnl="15" />
    <char id="257" x="408" y="192" width="13" height="20" xoffset="1" yoffset="6" xadvance="15" page="0" chnl="15" />
    <char id="258" x="170" y="103" width="16" height="23" xoffset="0" yoffset="2" xadvance="15" page="0" chnl="15" />
    <char id="259" x="394" y="193" width="13" height="20" xoffset="1" yoffset="6" xadvance="15" page="0" chnl="15" />
    <char id="260" x="443" y="26" width="16" height="24" xoffset="0" yoffset="7" xadvance="15" page="0" chnl="15" />
    <char id="261" x="380" y="193" width="13" height="20" xoffset="1" yoffset="11" xadvance="15" page="0" chnl="15" />
    <char id="262" x="327" y="53" width="14" height="24" xoffset="0" yoffset="2" xadvance="15" page="0" chnl="15" />
    <char id="263" x="84" y="218" width="13" height="20" xoffset="1" yoffset="6" xadvance="15" page="0" chnl="15" />
    <char id="264" x="432" y="52" width="14" height="24" xoffset="0" yoffset="2" xadvance="15" page="0" chnl="15" />
    <char id="265" x="104" y="239" width="12" height="20" xoffset="1" yoffset="6" xadvance="15" page="0" chnl="15" />
    <char id="266" x="75" y="79" width="14" height="24" xoffset="0" yoffset="2" xadvance="15" page="0" chnl="15" />
    <char id="267" x="482" y="213" width="12" height="20" xoffset="1" yoffset="6" xadvance="15" page="0" chnl="15" />
    <char id="268" x="150" y="78" width="14" height="24" xoffset="0" yoffset="2" xadvance="15" page="0" chnl="15" />
    <char id="269" x="13" y="239" width="12" height="20" xoffset="1" yoffset="6" xadvance="15" page="0" chnl="15" />
    <char id="270" x="363" y="102" width="14" height="23" xoffset="1" yoffset="2" xadvance="15" page="0" chnl="15" />
    <char id="271" x="173" y="151" width="18" height="21" xoffset="0" yoffset="5" xadvance="15" page="0" chnl="15" />
    <char id="272" x="343" y="296" width="15" height="18" xoffset="0" yoffset="7" xadvance="15" page="0" chnl="15" />
    <char id="273" x="172" y="174" width="15" height="20" xoffset="0" yoffset="6" xadvance="15" page="0" chnl="15" />
    <char id="274" x="147" y="151" width="12" height="22" xoffset="2" yoffset="3" xadvance="15" page="0" chnl="15" />
    <char id="275" x="224" y="215" width="13" height="20" xoffset="1" yoffset="6" xadvance="15" page="0" chnl="15" />
    <char id="276" x="293" y="127" width="12" height="23" xoffset="2" yoffset="2" xadvance="15" page="0" chnl="15" />
    <char id="277" x="296" y="194" width="13" height="20" xoffset="1" yoffset="6" xadvance="15" page="0" chnl="15" />
    <char id="278" x="319" y="127" width="12" height="23" xoffset="2" yoffset="2" xadvance="15" page="0" chnl="15" />
    <char id="279" x="310" y="194" width="13" height="20" xoffset="1" yoffset="6" xadvance="15" page="0" chnl="15" />
    <char id="280" x="415" y="77" width="12" height="24" xoffset="2" yoffset="7" xadvance="15" page="0" chnl="15" />
    <char id="281" x="324" y="194" width="13" height="20" xoffset="1" yoffset="11" xadvance="15" page="0" chnl="15" />
    <char id="282" x="332" y="127" width="12" height="23" xoffset="2" yoffset="2" xadvance="15" page="0" chnl="15" />
    <char id="283" x="338" y="194" width="13" height="20" xoffset="1" yoffset="6" xadvance="15" page="0" chnl="15" />
    <char id="284" x="342" y="53" width="14" height="24" xoffset="0" yoffset="2" xadvance="15" page="0" chnl="15" />
    <char id="285" x="141" y="27" width="14" height="25" xoffset="0" yoffset="6" xadvance="15" page="0" chnl="15" />
    <char id="286" x="462" y="51" width="14" height="24" xoffset="0" yoffset="2" xadvance="15" page="0" chnl="15" />
    <char id="287" x="126" y="27" width="14" height="25" xoffset="0" yoffset="6" xadvance="15" page="0" chnl="15" />
    <char id="288" x="15" y="80" width="14" height="24" xoffset="0" yoffset="2" xadvance="15" page="0" chnl="15" />
    <char id="289" x="111" y="27" width="14" height="25" xoffset="0" yoffset="6" xadvance="15" page="0" chnl="15" />
    <char id="290" x="120" y="78" width="14" height="24" xoffset="0" yoffset="7" xadvance="15" page="0" chnl="15" />
    <char id="291" x="164" y="0" width="14" height="26" xoffset="0" yoffset="5" xadvance="15" page="0" chnl="15" />
    <char id="292" x="70" y="129" width="13" height="23" xoffset="1" yoffset="2" xadvance="15" page="0" chnl="15" />
    <char id="293" x="467" y="76" width="12" height="24" xoffset="1" yoffset="1" xadvance="15" page="0" chnl="15" />
    <char id="294" x="231" y="296" width="15" height="18" xoffset="0" yoffset="7" xadvance="15" page="0" chnl="15" />
    <char id="295" x="233" y="256" width="14" height="19" xoffset="0" yoffset="6" xadvance="15" page="0" chnl="15" />
    <char id="296" x="189" y="127" width="12" height="23" xoffset="1" yoffset="2" xadvance="15" page="0" chnl="15" />
    <char id="297" x="492" y="190" width="13" height="20" xoffset="1" yoffset="5" xadvance="15" page="0" chnl="15" />
    <char id="298" x="160" y="151" width="12" height="22" xoffset="1" yoffset="3" xadvance="15" page="0" chnl="15" />
    <char id="299" x="56" y="280" width="13" height="19" xoffset="1" yoffset="6" xadvance="15" page="0" chnl="15" />
    <char id="300" x="345" y="127" width="12" height="23" xoffset="1" yoffset="2" xadvance="15" page="0" chnl="15" />
    <char id="301" x="494" y="254" width="13" height="19" xoffset="1" yoffset="6" xadvance="15" page="0" chnl="15" />
    <char id="302" x="221" y="78" width="13" height="24" xoffset="1" yoffset="7" xadvance="15" page="0" chnl="15" />
    <char id="303" x="284" y="0" width="13" height="26" xoffset="1" yoffset="5" xadvance="15" page="0" chnl="15" />
    <char id="304" x="163" y="127" width="12" height="23" xoffset="1" yoffset="2" xadvance="15" page="0" chnl="15" />
    <char id="305" x="335" y="351" width="13" height="14" xoffset="1" yoffset="11" xadvance="15" page="0" chnl="15" />
    <char id="306" x="0" y="280" width="13" height="19" xoffset="1" yoffset="7" xadvance="15" page="0" chnl="15" />
    <char id="307" x="231" y="27" width="13" height="25" xoffset="1" yoffset="6" xadvance="15" page="0" chnl="15" />
    <char id="308" x="480" y="76" width="11" height="24" xoffset="2" yoffset="2" xadvance="15" page="0" chnl="15" />
    <char id="309" x="329" y="27" width="12" height="25" xoffset="1" yoffset="6" xadvance="15" page="0" chnl="15" />
    <char id="310" x="105" y="78" width="14" height="24" xoffset="1" yoffset="7" xadvance="15" page="0" chnl="15" />
    <char id="311" x="96" y="27" width="14" height="25" xoffset="1" yoffset="6" xadvance="15" page="0" chnl="15" />
    <char id="312" x="305" y="352" width="14" height="14" xoffset="1" yoffset="11" xadvance="15" page="0" chnl="15" />
    <char id="313" x="124" y="127" width="12" height="23" xoffset="2" yoffset="2" xadvance="15" page="0" chnl="15" />
    <char id="314" x="235" y="78" width="13" height="24" xoffset="1" yoffset="1" xadvance="15" page="0" chnl="15" />
    <char id="315" x="402" y="77" width="12" height="24" xoffset="2" yoffset="7" xadvance="15" page="0" chnl="15" />
    <char id="316" x="315" y="27" width="13" height="25" xoffset="1" yoffset="6" xadvance="15" page="0" chnl="15" />
    <char id="317" x="26" y="239" width="12" height="20" xoffset="2" yoffset="5" xadvance="15" page="0" chnl="15" />
    <char id="318" x="30" y="197" width="14" height="20" xoffset="1" yoffset="5" xadvance="15" page="0" chnl="15" />
    <char id="319" x="225" y="316" width="14" height="18" xoffset="1" yoffset="7" xadvance="15" page="0" chnl="15" />
    <char id="320" x="266" y="236" width="17" height="19" xoffset="0" yoffset="6" xadvance="15" page="0" chnl="15" />
    <char id="321" x="180" y="317" width="14" height="18" xoffset="0" yoffset="7" xadvance="15" page="0" chnl="15" />
    <char id="322" x="14" y="280" width="13" height="19" xoffset="1" yoffset="6" xadvance="15" page="0" chnl="15" />
    <char id="323" x="483" y="101" width="14" height="23" xoffset="1" yoffset="2" xadvance="15" page="0" chnl="15" />
    <char id="324" x="28" y="280" width="13" height="19" xoffset="1" yoffset="6" xadvance="15" page="0" chnl="15" />
    <char id="325" x="45" y="80" width="14" height="24" xoffset="1" yoffset="7" xadvance="15" page="0" chnl="15" />
    <char id="326" x="404" y="214" width="12" height="20" xoffset="1" yoffset="11" xadvance="15" page="0" chnl="15" />
    <char id="327" x="393" y="102" width="14" height="23" xoffset="1" yoffset="2" xadvance="15" page="0" chnl="15" />
    <char id="328" x="290" y="276" width="12" height="19" xoffset="1" yoffset="6" xadvance="15" page="0" chnl="15" />
    <char id="329" x="260" y="151" width="15" height="21" xoffset="0" yoffset="4" xadvance="15" page="0" chnl="15" />
    <char id="330" x="30" y="80" width="14" height="24" xoffset="1" yoffset="7" xadvance="15" page="0" chnl="15" />
    <char id="331" x="130" y="239" width="12" height="20" xoffset="1" yoffset="11" xadvance="15" page="0" chnl="15" />
    <char id="332" x="316" y="103" width="15" height="23" xoffset="0" yoffset="3" xadvance="15" page="0" chnl="15" />
    <char id="333" x="412" y="171" width="14" height="20" xoffset="0" yoffset="6" xadvance="15" page="0" chnl="15" />
    <char id="334" x="144" y="53" width="15" height="24" xoffset="0" yoffset="2" xadvance="15" page="0" chnl="15" />
    <char id="335" x="0" y="197" width="14" height="20" xoffset="0" yoffset="6" xadvance="15" page="0" chnl="15" />
    <char id="336" x="426" y="27" width="16" height="24" xoffset="0" yoffset="2" xadvance="15" page="0" chnl="15" />
    <char id="337" x="122" y="174" width="16" height="20" xoffset="0" yoffset="6" xadvance="15" page="0" chnl="15" />
    <char id="338" x="436" y="234" width="15" height="19" xoffset="0" yoffset="7" xadvance="15" page="0" chnl="15" />
    <char id="339" x="377" y="334" width="15" height="15" xoffset="0" yoffset="11" xadvance="15" page="0" chnl="15" />
    <char id="340" x="42" y="129" width="13" height="23" xoffset="1" yoffset="2" xadvance="15" page="0" chnl="15" />
    <char id="341" x="264" y="276" width="12" height="19" xoffset="2" yoffset="6" xadvance="15" page="0" chnl="15" />
    <char id="342" x="263" y="78" width="13" height="24" xoffset="1" yoffset="7" xadvance="15" page="0" chnl="15" />
    <char id="343" x="39" y="239" width="12" height="20" xoffset="2" yoffset="11" xadvance="15" page="0" chnl="15" />
    <char id="344" x="0" y="129" width="13" height="23" xoffset="1" yoffset="2" xadvance="15" page="0" chnl="15" />
    <char id="345" x="238" y="276" width="12" height="19" xoffset="2" yoffset="6" xadvance="15" page="0" chnl="15" />
    <char id="346" x="277" y="78" width="13" height="24" xoffset="1" yoffset="2" xadvance="15" page="0" chnl="15" />
    <char id="347" x="42" y="218" width="13" height="20" xoffset="1" yoffset="6" xadvance="15" page="0" chnl="15" />
    <char id="348" x="291" y="78" width="13" height="24" xoffset="1" yoffset="2" xadvance="15" page="0" chnl="15" />
    <char id="349" x="430" y="213" width="12" height="20" xoffset="1" yoffset="6" xadvance="15" page="0" chnl="15" />
    <char id="350" x="92" y="153" width="13" height="22" xoffset="1" yoffset="7" xadvance="15" page="0" chnl="15" />
    <char id="351" x="161" y="338" width="12" height="18" xoffset="1" yoffset="11" xadvance="15" page="0" chnl="15" />
    <char id="352" x="305" y="78" width="13" height="24" xoffset="1" yoffset="2" xadvance="15" page="0" chnl="15" />
    <char id="353" x="495" y="211" width="12" height="20" xoffset="1" yoffset="6" xadvance="15" page="0" chnl="15" />
    <char id="354" x="63" y="153" width="14" height="22" xoffset="0" yoffset="7" xadvance="15" page="0" chnl="15" />
    <char id="355" x="120" y="151" width="13" height="22" xoffset="0" yoffset="7" xadvance="15" page="0" chnl="15" />
    <char id="356" x="438" y="102" width="14" height="23" xoffset="0" yoffset="2" xadvance="15" page="0" chnl="15" />
    <char id="357" x="292" y="151" width="15" height="21" xoffset="0" yoffset="5" xadvance="15" page="0" chnl="15" />
    <char id="358" x="165" y="319" width="14" height="18" xoffset="0" yoffset="7" xadvance="15" page="0" chnl="15" />
    <char id="359" x="42" y="280" width="13" height="19" xoffset="0" yoffset="7" xadvance="15" page="0" chnl="15" />
    <char id="360" x="402" y="52" width="14" height="24" xoffset="1" yoffset="2" xadvance="15" page="0" chnl="15" />
    <char id="361" x="453" y="149" width="12" height="21" xoffset="1" yoffset="5" xadvance="15" page="0" chnl="15" />
    <char id="362" x="348" y="103" width="14" height="23" xoffset="1" yoffset="3" xadvance="15" page="0" chnl="15" />
    <char id="363" x="65" y="239" width="12" height="20" xoffset="1" yoffset="6" xadvance="15" page="0" chnl="15" />
    <char id="364" x="447" y="51" width="14" height="24" xoffset="1" yoffset="2" xadvance="15" page="0" chnl="15" />
    <char id="365" x="469" y="213" width="12" height="20" xoffset="1" yoffset="6" xadvance="15" page="0" chnl="15" />
    <char id="366" x="312" y="53" width="14" height="24" xoffset="1" yoffset="2" xadvance="15" page="0" chnl="15" />
    <char id="367" x="466" y="149" width="12" height="21" xoffset="1" yoffset="5" xadvance="15" page="0" chnl="15" />
    <char id="368" x="160" y="53" width="15" height="24" xoffset="1" yoffset="2" xadvance="15" page="0" chnl="15" />
    <char id="369" x="252" y="173" width="15" height="20" xoffset="1" yoffset="6" xadvance="15" page="0" chnl="15" />
    <char id="370" x="0" y="80" width="14" height="24" xoffset="1" yoffset="7" xadvance="15" page="0" chnl="15" />
    <char id="371" x="0" y="218" width="13" height="20" xoffset="1" yoffset="11" xadvance="15" page="0" chnl="15" />
    <char id="372" x="284" y="103" width="15" height="23" xoffset="0" yoffset="2" xadvance="15" page="0" chnl="15" />
    <char id="373" x="335" y="236" width="16" height="19" xoffset="0" yoffset="6" xadvance="15" page="0" chnl="15" />
    <char id="374" x="220" y="103" width="15" height="23" xoffset="0" yoffset="2" xadvance="15" page="0" chnl="15" />
    <char id="375" x="32" y="29" width="15" height="25" xoffset="0" yoffset="6" xadvance="15" page="0" chnl="15" />
    <char id="376" x="332" y="103" width="15" height="23" xoffset="0" yoffset="2" xadvance="15" page="0" chnl="15" />
    <char id="377" x="498" y="100" width="13" height="23" xoffset="1" yoffset="2" xadvance="15" page="0" chnl="15" />
    <char id="378" x="70" y="280" width="13" height="19" xoffset="1" yoffset="6" xadvance="15" page="0" chnl="15" />
    <char id="379" x="56" y="129" width="13" height="23" xoffset="1" yoffset="2" xadvance="15" page="0" chnl="15" />
    <char id="380" x="329" y="276" width="12" height="19" xoffset="1" yoffset="6" xadvance="15" page="0" chnl="15" />
    <char id="381" x="84" y="129" width="13" height="23" xoffset="1" yoffset="2" xadvance="15" page="0" chnl="15" />
    <char id="382" x="316" y="276" width="12" height="19" xoffset="1" yoffset="6" xadvance="15" page="0" chnl="15" />
    <char id="383" x="78" y="239" width="12" height="20" xoffset="3" yoffset="5" xadvance="15" page="0" chnl="15" />
    <char id="384" x="380" y="172" width="15" height="20" xoffset="0" yoffset="6" xadvance="15" page="0" chnl="15" />
    <char id="385" x="397" y="276" width="16" height="18" xoffset="-1" yoffset="7" xadvance="15" page="0" chnl="15" />
    <char id="386" x="424" y="313" width="13" height="18" xoffset="1" yoffset="7" xadvance="15" page="0" chnl="15" />
    <char id="387" x="14" y="218" width="13" height="20" xoffset="1" yoffset="6" xadvance="15" page="0" chnl="15" />
    <char id="388" x="359" y="296" width="15" height="18" xoffset="0" yoffset="7" xadvance="15" page="0" chnl="15" />
    <char id="389" x="332" y="173" width="15" height="20" xoffset="0" yoffset="6" xadvance="15" page="0" chnl="15" />
    <char id="390" x="84" y="280" width="13" height="19" xoffset="1" yoffset="7" xadvance="15" page="0" chnl="15" />
    <char id="391" x="0" y="153" width="16" height="22" xoffset="0" yoffset="4" xadvance="15" page="0" chnl="15" />
    <char id="392" x="195" y="316" width="14" height="18" xoffset="1" yoffset="8" xadvance="15" page="0" chnl="15" />
    <char id="393" x="119" y="300" width="15" height="18" xoffset="0" yoffset="7" xadvance="15" page="0" chnl="15" />
    <char id="394" x="0" y="300" width="16" height="18" xoffset="-1" yoffset="7" xadvance="15" page="0" chnl="15" />
    <char id="395" x="452" y="312" width="13" height="18" xoffset="0" yoffset="7" xadvance="15" page="0" chnl="15" />
    <char id="396" x="450" y="192" width="13" height="20" xoffset="0" yoffset="6" xadvance="15" page="0" chnl="15" />
    <char id="397" x="323" y="151" width="14" height="21" xoffset="0" yoffset="5" xadvance="15" page="0" chnl="15" />
    <char id="398" x="122" y="338" width="12" height="18" xoffset="1" yoffset="7" xadvance="15" page="0" chnl="15" />
    <char id="399" x="468" y="234" width="15" height="19" xoffset="0" yoffset="7" xadvance="15" page="0" chnl="15" />
    <char id="400" x="203" y="257" width="14" height="19" xoffset="1" yoffset="7" xadvance="15" page="0" chnl="15" />
    <char id="401" x="176" y="53" width="15" height="24" xoffset="-1" yoffset="7" xadvance="15" page="0" chnl="15" />
    <char id="402" x="80" y="53" width="15" height="24" xoffset="0" yoffset="5" xadvance="15" page="0" chnl="15" />
    <char id="403" x="438" y="126" width="17" height="22" xoffset="0" yoffset="4" xadvance="15" page="0" chnl="15" />
    <char id="404" x="68" y="300" width="16" height="18" xoffset="0" yoffset="7" xadvance="15" page="0" chnl="15" />
    <char id="405" x="442" y="171" width="14" height="20" xoffset="1" yoffset="6" xadvance="15" page="0" chnl="15" />
    <char id="406" x="362" y="276" width="8" height="19" xoffset="5" yoffset="6" xadvance="15" page="0" chnl="15" />
    <char id="407" x="135" y="338" width="12" height="18" xoffset="1" yoffset="7" xadvance="15" page="0" chnl="15" />
    <char id="408" x="45" y="319" width="14" height="18" xoffset="1" yoffset="7" xadvance="15" page="0" chnl="15" />
    <char id="409" x="472" y="171" width="14" height="20" xoffset="1" yoffset="5" xadvance="15" page="0" chnl="15" />
    <char id="410" x="98" y="280" width="13" height="19" xoffset="1" yoffset="6" xadvance="15" page="0" chnl="15" />
    <char id="411" x="244" y="151" width="15" height="21" xoffset="0" yoffset="5" xadvance="15" page="0" chnl="15" />
    <char id="412" x="188" y="257" width="14" height="19" xoffset="0" yoffset="7" xadvance="15" page="0" chnl="15" />
    <char id="413" x="391" y="27" width="17" height="24" xoffset="-2" yoffset="7" xadvance="15" page="0" chnl="15" />
    <char id="414" x="282" y="194" width="13" height="20" xoffset="1" yoffset="11" xadvance="15" page="0" chnl="15" />
    <char id="415" x="112" y="260" width="15" height="19" xoffset="0" yoffset="7" xadvance="15" page="0" chnl="15" />
    <char id="416" x="192" y="151" width="17" height="21" xoffset="0" yoffset="5" xadvance="15" page="0" chnl="15" />
    <char id="417" x="200" y="335" width="16" height="17" xoffset="0" yoffset="9" xadvance="15" page="0" chnl="15" />
    <char id="418" x="158" y="258" width="14" height="19" xoffset="0" yoffset="7" xadvance="15" page="0" chnl="15" />
    <char id="419" x="486" y="331" width="14" height="15" xoffset="0" yoffset="11" xadvance="15" page="0" chnl="15" />
    <char id="420" x="482" y="274" width="16" height="18" xoffset="-1" yoffset="7" xadvance="15" page="0" chnl="15" />
    <char id="421" x="312" y="0" width="13" height="26" xoffset="1" yoffset="5" xadvance="15" page="0" chnl="15" />
    <char id="422" x="268" y="194" width="13" height="20" xoffset="1" yoffset="7" xadvance="15" page="0" chnl="15" />
    <char id="423" x="112" y="280" width="13" height="19" xoffset="1" yoffset="7" xadvance="15" page="0" chnl="15" />
    <char id="424" x="165" y="357" width="12" height="15" xoffset="1" yoffset="11" xadvance="15" page="0" chnl="15" />
    <char id="425" x="270" y="315" width="13" height="18" xoffset="1" yoffset="7" xadvance="15" page="0" chnl="15" />
    <char id="426" x="52" y="0" width="14" height="27" xoffset="0" yoffset="4" xadvance="15" page="0" chnl="15" />
    <char id="427" x="249" y="78" width="13" height="24" xoffset="0" yoffset="7" xadvance="15" page="0" chnl="15" />
    <char id="428" x="423" y="294" width="15" height="18" xoffset="0" yoffset="7" xadvance="15" page="0" chnl="15" />
    <char id="429" x="383" y="149" width="13" height="21" xoffset="0" yoffset="5" xadvance="15" page="0" chnl="15" />
    <char id="430" x="135" y="78" width="14" height="24" xoffset="0" yoffset="7" xadvance="15" page="0" chnl="15" />
    <char id="431" x="210" y="151" width="16" height="21" xoffset="0" yoffset="5" xadvance="15" page="0" chnl="15" />
    <char id="432" x="217" y="335" width="16" height="17" xoffset="1" yoffset="9" xadvance="15" page="0" chnl="15" />
    <char id="433" x="420" y="234" width="15" height="19" xoffset="0" yoffset="7" xadvance="15" page="0" chnl="15" />
    <char id="434" x="248" y="256" width="14" height="19" xoffset="1" yoffset="7" xadvance="15" page="0" chnl="15" />
    <char id="435" x="51" y="300" width="16" height="18" xoffset="0" yoffset="7" xadvance="15" page="0" chnl="15" />
    <char id="436" x="71" y="176" width="16" height="20" xoffset="0" yoffset="11" xadvance="15" page="0" chnl="15" />
    <char id="437" x="0" y="338" width="13" height="18" xoffset="1" yoffset="7" xadvance="15" page="0" chnl="15" />
    <char id="438" x="362" y="350" width="12" height="14" xoffset="1" yoffset="11" xadvance="15" page="0" chnl="15" />
    <char id="439" x="126" y="280" width="13" height="19" xoffset="1" yoffset="7" xadvance="15" page="0" chnl="15" />
    <char id="440" x="353" y="256" width="14" height="19" xoffset="1" yoffset="7" xadvance="15" page="0" chnl="15" />
    <char id="441" x="140" y="280" width="13" height="19" xoffset="1" yoffset="11" xadvance="15" page="0" chnl="15" />
    <char id="442" x="411" y="149" width="13" height="21" xoffset="1" yoffset="11" xadvance="15" page="0" chnl="15" />
    <char id="443" x="340" y="315" width="13" height="18" xoffset="1" yoffset="7" xadvance="15" page="0" chnl="15" />
    <char id="444" x="308" y="256" width="14" height="19" xoffset="0" yoffset="7" xadvance="15" page="0" chnl="15" />
    <char id="445" x="0" y="357" width="14" height="15" xoffset="0" yoffset="11" xadvance="15" page="0" chnl="15" />
    <char id="446" x="348" y="334" width="11" height="16" xoffset="2" yoffset="9" xadvance="15" page="0" chnl="15" />
    <char id="447" x="254" y="194" width="13" height="20" xoffset="1" yoffset="11" xadvance="15" page="0" chnl="15" />
    <char id="448" x="47" y="0" width="4" height="28" xoffset="5" yoffset="3" xadvance="15" page="0" chnl="15" />
    <char id="449" x="27" y="0" width="9" height="28" xoffset="3" yoffset="3" xadvance="15" page="0" chnl="15" />
    <char id="450" x="16" y="0" width="10" height="28" xoffset="2" yoffset="3" xadvance="15" page="0" chnl="15" />
    <char id="451" x="506" y="190" width="5" height="20" xoffset="5" yoffset="6" xadvance="15" page="0" chnl="15" />
    <char id="452" x="204" y="103" width="15" height="23" xoffset="0" yoffset="2" xadvance="15" page="0" chnl="15" />
    <char id="453" x="48" y="260" width="15" height="19" xoffset="0" yoffset="6" xadvance="15" page="0" chnl="15" />
    <char id="454" x="268" y="173" width="15" height="20" xoffset="0" yoffset="6" xadvance="15" page="0" chnl="15" />
    <char id="455" x="240" y="315" width="14" height="18" xoffset="0" yoffset="7" xadvance="15" page="0" chnl="15" />
    <char id="456" x="179" y="0" width="14" height="26" xoffset="0" yoffset="5" xadvance="15" page="0" chnl="15" />
    <char id="457" x="194" y="0" width="14" height="26" xoffset="0" yoffset="5" xadvance="15" page="0" chnl="15" />
    <char id="458" x="183" y="297" width="15" height="18" xoffset="0" yoffset="7" xadvance="15" page="0" chnl="15" />
    <char id="459" x="171" y="27" width="14" height="25" xoffset="0" yoffset="6" xadvance="15" page="0" chnl="15" />
    <char id="460" x="100" y="0" width="15" height="26" xoffset="0" yoffset="5" xadvance="15" page="0" chnl="15" />
    <char id="461" x="34" y="105" width="16" height="23" xoffset="0" yoffset="2" xadvance="15" page="0" chnl="15" />
    <char id="462" x="364" y="215" width="13" height="20" xoffset="1" yoffset="6" xadvance="15" page="0" chnl="15" />
    <char id="463" x="215" y="127" width="12" height="23" xoffset="1" yoffset="2" xadvance="15" page="0" chnl="15" />
    <char id="464" x="154" y="278" width="13" height="19" xoffset="1" yoffset="6" xadvance="15" page="0" chnl="15" />
    <char id="465" x="48" y="55" width="15" height="24" xoffset="0" yoffset="2" xadvance="15" page="0" chnl="15" />
    <char id="466" x="210" y="194" width="14" height="20" xoffset="0" yoffset="6" xadvance="15" page="0" chnl="15" />
    <char id="467" x="297" y="53" width="14" height="24" xoffset="1" yoffset="2" xadvance="15" page="0" chnl="15" />
    <char id="468" x="378" y="215" width="12" height="20" xoffset="1" yoffset="6" xadvance="15" page="0" chnl="15" />
    <char id="469" x="254" y="0" width="14" height="26" xoffset="1" yoffset="0" xadvance="15" page="0" chnl="15" />
    <char id="470" x="454" y="76" width="12" height="24" xoffset="1" yoffset="2" xadvance="15" page="0" chnl="15" />
    <char id="471" x="269" y="0" width="14" height="26" xoffset="1" yoffset="0" xadvance="15" page="0" chnl="15" />
    <char id="472" x="207" y="78" width="13" height="24" xoffset="1" yoffset="2" xadvance="15" page="0" chnl="15" />
    <char id="473" x="209" y="0" width="14" height="26" xoffset="1" yoffset="0" xadvance="15" page="0" chnl="15" />
    <char id="474" x="441" y="77" width="12" height="24" xoffset="1" yoffset="2" xadvance="15" page="0" chnl="15" />
    <char id="475" x="239" y="0" width="14" height="26" xoffset="1" yoffset="0" xadvance="15" page="0" chnl="15" />
    <char id="476" x="179" y="78" width="13" height="24" xoffset="1" yoffset="2" xadvance="15" page="0" chnl="15" />
    <char id="477" x="71" y="357" width="13" height="15" xoffset="1" yoffset="11" xadvance="15" page="0" chnl="15" />
    <char id="478" x="467" y="0" width="16" height="25" xoffset="0" yoffset="0" xadvance="15" page="0" chnl="15" />
    <char id="479" x="193" y="78" width="13" height="24" xoffset="1" yoffset="2" xadvance="15" page="0" chnl="15" />
    <char id="480" x="450" y="0" width="16" height="25" xoffset="0" yoffset="0" xadvance="15" page="0" chnl="15" />
    <char id="481" x="319" y="78" width="13" height="24" xoffset="1" yoffset="2" xadvance="15" page="0" chnl="15" />
    <char id="482" x="456" y="126" width="16" height="22" xoffset="-1" yoffset="3" xadvance="15" page="0" chnl="15" />
    <char id="483" x="236" y="173" width="15" height="20" xoffset="0" yoffset="6" xadvance="15" page="0" chnl="15" />
    <char id="484" x="318" y="236" width="16" height="19" xoffset="0" yoffset="7" xadvance="15" page="0" chnl="15" />
    <char id="485" x="54" y="176" width="16" height="20" xoffset="0" yoffset="11" xadvance="15" page="0" chnl="15" />
    <char id="486" x="237" y="53" width="14" height="24" xoffset="0" yoffset="2" xadvance="15" page="0" chnl="15" />
    <char id="487" x="201" y="27" width="14" height="25" xoffset="0" yoffset="6" xadvance="15" page="0" chnl="15" />
    <char id="488" x="408" y="102" width="14" height="23" xoffset="1" yoffset="2" xadvance="15" page="0" chnl="15" />
    <char id="489" x="378" y="102" width="14" height="23" xoffset="1" yoffset="2" xadvance="15" page="0" chnl="15" />
    <char id="490" x="128" y="53" width="15" height="24" xoffset="0" yoffset="7" xadvance="15" page="0" chnl="15" />
    <char id="491" x="487" y="169" width="14" height="20" xoffset="0" yoffset="11" xadvance="15" page="0" chnl="15" />
    <char id="492" x="0" y="0" width="15" height="28" xoffset="0" yoffset="3" xadvance="15" page="0" chnl="15" />
    <char id="493" x="186" y="27" width="14" height="25" xoffset="0" yoffset="6" xadvance="15" page="0" chnl="15" />
    <char id="494" x="165" y="78" width="13" height="24" xoffset="1" yoffset="2" xadvance="15" page="0" chnl="15" />
    <char id="495" x="375" y="77" width="13" height="24" xoffset="1" yoffset="6" xadvance="15" page="0" chnl="15" />
    <char id="496" x="342" y="27" width="12" height="25" xoffset="1" yoffset="6" xadvance="15" page="0" chnl="15" />
    <char id="497" x="135" y="300" width="15" height="18" xoffset="0" yoffset="7" xadvance="15" page="0" chnl="15" />
    <char id="498" x="151" y="300" width="15" height="18" xoffset="0" yoffset="7" xadvance="15" page="0" chnl="15" />
    <char id="499" x="452" y="234" width="15" height="19" xoffset="0" yoffset="6" xadvance="15" page="0" chnl="15" />
    <char id="500" x="372" y="52" width="14" height="24" xoffset="0" yoffset="2" xadvance="15" page="0" chnl="15" />
    <char id="501" x="156" y="27" width="14" height="25" xoffset="0" yoffset="6" xadvance="15" page="0" chnl="15" />
    <char id="502" x="293" y="256" width="14" height="19" xoffset="1" yoffset="7" xadvance="15" page="0" chnl="15" />
    <char id="503" x="60" y="80" width="14" height="24" xoffset="1" yoffset="7" xadvance="15" page="0" chnl="15" />
    <char id="504" x="468" y="101" width="14" height="23" xoffset="1" yoffset="2" xadvance="15" page="0" chnl="15" />
    <char id="505" x="277" y="276" width="12" height="19" xoffset="1" yoffset="6" xadvance="15" page="0" chnl="15" />
    <char id="506" x="484" y="0" width="16" height="25" xoffset="0" yoffset="0" xadvance="15" page="0" chnl="15" />
    <char id="507" x="326" y="0" width="13" height="26" xoffset="1" yoffset="0" xadvance="15" page="0" chnl="15" />
    <char id="508" x="17" y="105" width="16" height="23" xoffset="-1" yoffset="2" xadvance="15" page="0" chnl="15" />
    <char id="509" x="396" y="171" width="15" height="20" xoffset="0" yoffset="6" xadvance="15" page="0" chnl="15" />
    <char id="510" x="84" y="0" width="15" height="26" xoffset="0" yoffset="2" xadvance="15" page="0" chnl="15" />
    <char id="511" x="90" y="78" width="14" height="24" xoffset="0" yoffset="4" xadvance="15" page="0" chnl="15" />
    <char id="512" x="492" y="76" width="17" height="23" xoffset="-1" yoffset="2" xadvance="15" page="0" chnl="15" />
    <char id="513" x="364" y="173" width="15" height="20" xoffset="0" yoffset="6" xadvance="15" page="0" chnl="15" />
    <char id="514" x="153" y="103" width="16" height="23" xoffset="0" yoffset="2" xadvance="15" page="0" chnl="15" />
    <char id="515" x="112" y="218" width="13" height="20" xoffset="1" yoffset="6" xadvance="15" page="0" chnl="15" />
    <char id="516" x="300" y="103" width="15" height="23" xoffset="-1" yoffset="2" xadvance="15" page="0" chnl="15" />
    <char id="517" x="220" y="173" width="15" height="20" xoffset="0" yoffset="6" xadvance="15" page="0" chnl="15" />
    <char id="518" x="137" y="127" width="12" height="23" xoffset="2" yoffset="2" xadvance="15" page="0" chnl="15" />
    <char id="519" x="366" y="194" width="13" height="20" xoffset="1" yoffset="6" xadvance="15" page="0" chnl="15" />
    <char id="520" x="268" y="103" width="15" height="23" xoffset="-1" yoffset="2" xadvance="15" page="0" chnl="15" />
    <char id="521" x="16" y="260" width="15" height="19" xoffset="0" yoffset="6" xadvance="15" page="0" chnl="15" />
    <char id="522" x="241" y="127" width="12" height="23" xoffset="1" yoffset="2" xadvance="15" page="0" chnl="15" />
    <char id="523" x="466" y="254" width="13" height="19" xoffset="1" yoffset="6" xadvance="15" page="0" chnl="15" />
    <char id="524" x="355" y="27" width="17" height="24" xoffset="-1" yoffset="2" xadvance="15" page="0" chnl="15" />
    <char id="525" x="300" y="173" width="15" height="20" xoffset="0" yoffset="6" xadvance="15" page="0" chnl="15" />
    <char id="526" x="112" y="53" width="15" height="24" xoffset="0" yoffset="2" xadvance="15" page="0" chnl="15" />
    <char id="527" x="105" y="197" width="14" height="20" xoffset="0" yoffset="6" xadvance="15" page="0" chnl="15" />
    <char id="528" x="0" y="105" width="16" height="23" xoffset="-1" yoffset="2" xadvance="15" page="0" chnl="15" />
    <char id="529" x="80" y="260" width="15" height="19" xoffset="0" yoffset="6" xadvance="15" page="0" chnl="15" />
    <char id="530" x="28" y="129" width="13" height="23" xoffset="1" yoffset="2" xadvance="15" page="0" chnl="15" />
    <char id="531" x="303" y="276" width="12" height="19" xoffset="2" yoffset="6" xadvance="15" page="0" chnl="15" />
    <char id="532" x="460" y="26" width="16" height="24" xoffset="-1" yoffset="2" xadvance="15" page="0" chnl="15" />
    <char id="533" x="204" y="173" width="15" height="20" xoffset="0" yoffset="6" xadvance="15" page="0" chnl="15" />
    <char id="534" x="282" y="53" width="14" height="24" xoffset="1" yoffset="2" xadvance="15" page="0" chnl="15" />
    <char id="535" x="417" y="213" width="12" height="20" xoffset="1" yoffset="6" xadvance="15" page="0" chnl="15" />
    <char id="536" x="333" y="78" width="13" height="24" xoffset="1" yoffset="7" xadvance="15" page="0" chnl="15" />
    <char id="537" x="391" y="214" width="12" height="20" xoffset="1" yoffset="11" xadvance="15" page="0" chnl="15" />
    <char id="538" x="222" y="53" width="14" height="24" xoffset="0" yoffset="7" xadvance="15" page="0" chnl="15" />
    <char id="539" x="347" y="78" width="13" height="24" xoffset="0" yoffset="7" xadvance="15" page="0" chnl="15" />
    <char id="540" x="182" y="277" width="13" height="19" xoffset="1" yoffset="7" xadvance="15" page="0" chnl="15" />
    <char id="541" x="196" y="277" width="13" height="19" xoffset="1" yoffset="11" xadvance="15" page="0" chnl="15" />
    <char id="542" x="14" y="129" width="13" height="23" xoffset="1" yoffset="2" xadvance="15" page="0" chnl="15" />
    <char id="543" x="98" y="128" width="12" height="23" xoffset="1" yoffset="2" xadvance="15" page="0" chnl="15" />
    <char id="544" x="428" y="77" width="12" height="24" xoffset="1" yoffset="7" xadvance="15" page="0" chnl="15" />
    <char id="545" x="430" y="0" width="19" height="25" xoffset="0" yoffset="6" xadvance="15" page="0" chnl="15" />
    <char id="546" x="396" y="256" width="13" height="19" xoffset="1" yoffset="7" xadvance="15" page="0" chnl="15" />
    <char id="547" x="196" y="215" width="13" height="20" xoffset="1" yoffset="6" xadvance="15" page="0" chnl="15" />
    <char id="548" x="361" y="77" width="13" height="24" xoffset="1" yoffset="7" xadvance="15" page="0" chnl="15" />
    <char id="549" x="52" y="239" width="12" height="20" xoffset="1" yoffset="11" xadvance="15" page="0" chnl="15" />
    <char id="550" x="102" y="103" width="16" height="23" xoffset="0" yoffset="2" xadvance="15" page="0" chnl="15" />
    <char id="551" x="238" y="215" width="13" height="20" xoffset="1" yoffset="6" xadvance="15" page="0" chnl="15" />
    <char id="552" x="134" y="151" width="12" height="22" xoffset="2" yoffset="7" xadvance="15" page="0" chnl="15" />
    <char id="553" x="42" y="338" width="13" height="18" xoffset="1" yoffset="11" xadvance="15" page="0" chnl="15" />
    <char id="554" x="116" y="0" width="15" height="26" xoffset="0" yoffset="0" xadvance="15" page="0" chnl="15" />
    <char id="555" x="417" y="52" width="14" height="24" xoffset="0" yoffset="2" xadvance="15" page="0" chnl="15" />
    <char id="556" x="132" y="0" width="15" height="26" xoffset="0" yoffset="0" xadvance="15" page="0" chnl="15" />
    <char id="557" x="357" y="52" width="14" height="24" xoffset="0" yoffset="2" xadvance="15" page="0" chnl="15" />
    <char id="558" x="96" y="53" width="15" height="24" xoffset="0" yoffset="2" xadvance="15" page="0" chnl="15" />
    <char id="559" x="457" y="171" width="14" height="20" xoffset="0" yoffset="6" xadvance="15" page="0" chnl="15" />
    <char id="560" x="148" y="0" width="15" height="26" xoffset="0" yoffset="0" xadvance="15" page="0" chnl="15" />
    <char id="561" x="477" y="51" width="14" height="24" xoffset="0" yoffset="2" xadvance="15" page="0" chnl="15" />
    <char id="562" x="17" y="153" width="15" height="22" xoffset="0" yoffset="3" xadvance="15" page="0" chnl="15" />
    <char id="563" x="80" y="27" width="15" height="25" xoffset="0" yoffset="6" xadvance="15" page="0" chnl="15" />
    <char id="564" x="216" y="27" width="14" height="25" xoffset="2" yoffset="6" xadvance="15" page="0" chnl="15" />
    <char id="565" x="0" y="176" width="18" height="20" xoffset="1" yoffset="11" xadvance="15" page="0" chnl="15" />
    <char id="566" x="387" y="52" width="14" height="24" xoffset="0" yoffset="7" xadvance="15" page="0" chnl="15" />
    <char id="567" x="143" y="237" width="11" height="20" xoffset="1" yoffset="11" xadvance="15" page="0" chnl="15" />
    <char id="568" x="75" y="197" width="14" height="20" xoffset="0" yoffset="6" xadvance="15" page="0" chnl="15" />
    <char id="569" x="188" y="173" width="15" height="20" xoffset="0" yoffset="11" xadvance="15" page="0" chnl="15" />
    <char id="570" x="418" y="126" width="19" height="22" xoffset="-2" yoffset="6" xadvance="15" page="0" chnl="15" />
    <char id="571" x="398" y="126" width="19" height="22" xoffset="-2" yoffset="6" xadvance="15" page="0" chnl="15" />
    <char id="572" x="234" y="335" width="15" height="17" xoffset="0" yoffset="11" xadvance="15" page="0" chnl="15" />
    <char id="573" x="135" y="319" width="14" height="18" xoffset="0" yoffset="7" xadvance="15" page="0" chnl="15" />
    <char id="574" x="378" y="126" width="19" height="22" xoffset="-2" yoffset="6" xadvance="15" page="0" chnl="15" />
    <char id="575" x="91" y="239" width="12" height="20" xoffset="1" yoffset="11" xadvance="15" page="0" chnl="15" />
    <char id="576" x="352" y="194" width="13" height="20" xoffset="1" yoffset="11" xadvance="15" page="0" chnl="15" />
    <char id="577" x="342" y="276" width="10" height="19" xoffset="3" yoffset="6" xadvance="15" page="0" chnl="15" />
    <char id="578" x="423" y="349" width="10" height="14" xoffset="3" yoffset="11" xadvance="15" page="0" chnl="15" />
    <char id="579" x="247" y="296" width="15" height="18" xoffset="0" yoffset="7" xadvance="15" page="0" chnl="15" />
    <char id="580" x="403" y="235" width="16" height="19" xoffset="0" yoffset="7" xadvance="15" page="0" chnl="15" />
    <char id="581" x="465" y="274" width="16" height="18" xoffset="0" yoffset="7" xadvance="15" page="0" chnl="15" />
    <char id="582" x="358" y="127" width="19" height="22" xoffset="-2" yoffset="6" xadvance="15" page="0" chnl="15" />
    <char id="583" x="266" y="334" width="15" height="17" xoffset="0" yoffset="11" xadvance="15" page="0" chnl="15" />
    <char id="584" x="128" y="260" width="14" height="19" xoffset="2" yoffset="7" xadvance="15" page="0" chnl="15" />
    <char id="585" x="224" y="0" width="14" height="26" xoffset="1" yoffset="5" xadvance="15" page="0" chnl="15" />
    <char id="586" x="373" y="27" width="17" height="24" xoffset="0" yoffset="7" xadvance="15" page="0" chnl="15" />
    <char id="587" x="19" y="176" width="17" height="20" xoffset="0" yoffset="11" xadvance="15" page="0" chnl="15" />
    <char id="588" x="167" y="298" width="15" height="18" xoffset="0" yoffset="7" xadvance="15" page="0" chnl="15" />
    <char id="589" x="259" y="352" width="15" height="14" xoffset="0" yoffset="11" xadvance="15" page="0" chnl="15" />
    <char id="590" x="414" y="275" width="16" height="18" xoffset="0" yoffset="7" xadvance="15" page="0" chnl="15" />
    <char id="591" x="105" y="176" width="16" height="20" xoffset="0" yoffset="11" xadvance="15" page="0" chnl="15" />
    <char id="894" x="371" y="276" width="8" height="19" xoffset="2" yoffset="11" xadvance="15" page="0" chnl="15" />
    <char id="900" x="501" y="21" width="7" height="4" xoffset="5" yoffset="6" xadvance="15" page="0" chnl="15" />
    <char id="901" x="250" y="368" width="13" height="4" xoffset="1" yoffset="6" xadvance="15" page="0" chnl="15" />
    <char id="902" x="230" y="236" width="17" height="19" xoffset="-1" yoffset="6" xadvance="15" page="0" chnl="15" />
    <char id="903" x="226" y="368" width="6" height="6" xoffset="4" yoffset="8" xadvance="15" page="0" chnl="15" />
    <char id="904" x="352" y="236" width="16" height="19" xoffset="-2" yoffset="6" xadvance="15" page="0" chnl="15" />
    <char id="905" x="211" y="236" width="18" height="19" xoffset="-3" yoffset="6" xadvance="15" page="0" chnl="15" />
    <char id="906" x="248" y="236" width="17" height="19" xoffset="-3" yoffset="6" xadvance="15" page="0" chnl="15" />
    <char id="908" x="479" y="148" width="18" height="20" xoffset="-3" yoffset="6" xadvance="15" page="0" chnl="15" />
    <char id="910" x="172" y="237" width="19" height="19" xoffset="-4" yoffset="6" xadvance="15" page="0" chnl="15" />
    <char id="911" x="192" y="237" width="18" height="19" xoffset="-3" yoffset="6" xadvance="15" page="0" chnl="15" />
    <char id="912" x="464" y="192" width="13" height="20" xoffset="1" yoffset="6" xadvance="15" page="0" chnl="15" />
    <char id="913" x="17" y="300" width="16" height="18" xoffset="0" yoffset="7" xadvance="15" page="0" chnl="15" />
    <char id="914" x="396" y="314" width="13" height="18" xoffset="1" yoffset="7" xadvance="15" page="0" chnl="15" />
    <char id="915" x="174" y="338" width="12" height="18" xoffset="2" yoffset="7" xadvance="15" page="0" chnl="15" />
    <char id="916" x="255" y="315" width="14" height="18" xoffset="0" yoffset="7" xadvance="15" page="0" chnl="15" />
    <char id="917" x="83" y="338" width="12" height="18" xoffset="2" yoffset="7" xadvance="15" page="0" chnl="15" />
    <char id="918" x="438" y="313" width="13" height="18" xoffset="1" yoffset="7" xadvance="15" page="0" chnl="15" />
    <char id="919" x="466" y="312" width="13" height="18" xoffset="1" yoffset="7" xadvance="15" page="0" chnl="15" />
    <char id="920" x="64" y="260" width="15" height="19" xoffset="0" yoffset="7" xadvance="15" page="0" chnl="15" />
    <char id="921" x="148" y="338" width="12" height="18" xoffset="1" yoffset="7" xadvance="15" page="0" chnl="15" />
    <char id="922" x="455" y="293" width="14" height="18" xoffset="1" yoffset="7" xadvance="15" page="0" chnl="15" />
    <char id="923" x="448" y="274" width="16" height="18" xoffset="0" yoffset="7" xadvance="15" page="0" chnl="15" />
    <char id="924" x="327" y="296" width="15" height="18" xoffset="0" yoffset="7" xadvance="15" page="0" chnl="15" />
    <char id="925" x="210" y="316" width="14" height="18" xoffset="1" yoffset="7" xadvance="15" page="0" chnl="15" />
    <char id="926" x="96" y="338" width="12" height="18" xoffset="1" yoffset="7" xadvance="15" page="0" chnl="15" />
    <char id="927" x="0" y="260" width="15" height="19" xoffset="0" yoffset="7" xadvance="15" page="0" chnl="15" />
    <char id="928" x="14" y="338" width="13" height="18" xoffset="1" yoffset="7" xadvance="15" page="0" chnl="15" />
    <char id="929" x="28" y="338" width="13" height="18" xoffset="1" yoffset="7" xadvance="15" page="0" chnl="15" />
    <char id="931" x="56" y="338" width="13" height="18" xoffset="1" yoffset="7" xadvance="15" page="0" chnl="15" />
    <char id="932" x="485" y="293" width="14" height="18" xoffset="0" yoffset="7" xadvance="15" page="0" chnl="15" />
    <char id="933" x="311" y="296" width="15" height="18" xoffset="0" yoffset="7" xadvance="15" page="0" chnl="15" />
    <char id="934" x="156" y="174" width="15" height="20" xoffset="0" yoffset="6" xadvance="15" page="0" chnl="15" />
    <char id="935" x="380" y="276" width="16" height="18" xoffset="0" yoffset="7" xadvance="15" page="0" chnl="15" />
    <char id="936" x="263" y="296" width="15" height="18" xoffset="0" yoffset="7" xadvance="15" page="0" chnl="15" />
    <char id="937" x="215" y="297" width="15" height="18" xoffset="0" yoffset="7" xadvance="15" page="0" chnl="15" />
    <char id="938" x="202" y="127" width="12" height="23" xoffset="1" yoffset="2" xadvance="15" page="0" chnl="15" />
    <char id="939" x="236" y="103" width="15" height="23" xoffset="0" yoffset="2" xadvance="15" page="0" chnl="15" />
    <char id="940" x="139" y="174" width="16" height="20" xoffset="0" yoffset="6" xadvance="15" page="0" chnl="15" />
    <char id="941" x="28" y="218" width="13" height="20" xoffset="1" yoffset="6" xadvance="15" page="0" chnl="15" />
    <char id="942" x="301" y="27" width="13" height="25" xoffset="1" yoffset="6" xadvance="15" page="0" chnl="15" />
    <char id="943" x="56" y="218" width="13" height="20" xoffset="1" yoffset="6" xadvance="15" page="0" chnl="15" />
    <char id="944" x="70" y="218" width="13" height="20" xoffset="1" yoffset="6" xadvance="15" page="0" chnl="15" />
    <char id="945" x="360" y="334" width="16" height="15" xoffset="0" yoffset="11" xadvance="15" page="0" chnl="15" />
    <char id="946" x="340" y="0" width="13" height="26" xoffset="1" yoffset="5" xadvance="15" page="0" chnl="15" />
    <char id="947" x="15" y="197" width="14" height="20" xoffset="0" yoffset="11" xadvance="15" page="0" chnl="15" />
    <char id="948" x="353" y="151" width="14" height="21" xoffset="0" yoffset="5" xadvance="15" page="0" chnl="15" />
    <char id="949" x="57" y="357" width="13" height="15" xoffset="1" yoffset="11" xadvance="15" page="0" chnl="15" />
    <char id="950" x="287" y="27" width="13" height="25" xoffset="1" yoffset="6" xadvance="15" page="0" chnl="15" />
    <char id="951" x="140" y="216" width="13" height="20" xoffset="1" yoffset="11" xadvance="15" page="0" chnl="15" />
    <char id="952" x="338" y="151" width="14" height="21" xoffset="0" yoffset="5" xadvance="15" page="0" chnl="15" />
    <char id="953" x="43" y="357" width="13" height="15" xoffset="1" yoffset="11" xadvance="15" page="0" chnl="15" />
    <char id="954" x="290" y="352" width="14" height="14" xoffset="1" yoffset="11" xadvance="15" page="0" chnl="15" />
    <char id="955" x="276" y="151" width="15" height="21" xoffset="0" yoffset="5" xadvance="15" page="0" chnl="15" />
    <char id="956" x="90" y="197" width="14" height="20" xoffset="1" yoffset="11" xadvance="15" page="0" chnl="15" />
    <char id="957" x="211" y="353" width="15" height="14" xoffset="0" yoffset="11" xadvance="15" page="0" chnl="15" />
    <char id="958" x="273" y="27" width="13" height="25" xoffset="1" yoffset="6" xadvance="15" page="0" chnl="15" />
    <char id="959" x="471" y="331" width="14" height="15" xoffset="0" yoffset="11" xadvance="15" page="0" chnl="15" />
    <char id="960" x="195" y="355" width="15" height="14" xoffset="0" yoffset="11" xadvance="15" page="0" chnl="15" />
    <char id="961" x="210" y="215" width="13" height="20" xoffset="1" yoffset="11" xadvance="15" page="0" chnl="15" />
    <char id="962" x="0" y="239" width="12" height="20" xoffset="1" yoffset="11" xadvance="15" page="0" chnl="15" />
    <char id="963" x="425" y="332" width="15" height="15" xoffset="0" yoffset="11" xadvance="15" page="0" chnl="15" />
    <char id="964" x="99" y="357" width="13" height="15" xoffset="0" yoffset="11" xadvance="15" page="0" chnl="15" />
    <char id="965" x="85" y="357" width="13" height="15" xoffset="1" yoffset="11" xadvance="15" page="0" chnl="15" />
    <char id="966" x="64" y="28" width="15" height="25" xoffset="0" yoffset="6" xadvance="15" page="0" chnl="15" />
    <char id="967" x="316" y="173" width="15" height="20" xoffset="0" yoffset="11" xadvance="15" page="0" chnl="15" />
    <char id="968" x="48" y="29" width="15" height="25" xoffset="0" yoffset="6" xadvance="15" page="0" chnl="15" />
    <char id="969" x="393" y="334" width="15" height="15" xoffset="0" yoffset="11" xadvance="15" page="0" chnl="15" />
    <char id="970" x="266" y="215" width="13" height="20" xoffset="1" yoffset="6" xadvance="15" page="0" chnl="15" />
    <char id="971" x="280" y="215" width="13" height="20" xoffset="1" yoffset="6" xadvance="15" page="0" chnl="15" />
    <char id="972" x="165" y="195" width="14" height="20" xoffset="0" yoffset="6" xadvance="15" page="0" chnl="15" />
    <char id="973" x="308" y="215" width="13" height="20" xoffset="1" yoffset="6" xadvance="15" page="0" chnl="15" />
    <char id="974" x="348" y="173" width="15" height="20" xoffset="0" yoffset="6" xadvance="15" page="0" chnl="15" />
    <char id="8355" x="326" y="315" width="13" height="18" xoffset="0" yoffset="7" xadvance="15" page="0" chnl="15" />
    <char id="8356" x="75" y="319" width="14" height="18" xoffset="0" yoffset="7" xadvance="15" page="0" chnl="15" />
    <char id="8359" x="32" y="260" width="15" height="19" xoffset="0" yoffset="7" xadvance="15" page="0" chnl="15" />
    <char id="8364" x="263" y="256" width="14" height="19" xoffset="0" yoffset="7" xadvance="15" page="0" chnl="15" />
    <char id="8706" x="368" y="150" width="14" height="21" xoffset="0" yoffset="5" xadvance="15" page="0" chnl="15" />
    <char id="8710" x="90" y="319" width="14" height="18" xoffset="0" yoffset="7" xadvance="15" page="0" chnl="15" />
    <char id="8719" x="490" y="125" width="16" height="22" xoffset="0" yoffset="6" xadvance="15" page="0" chnl="15" />
    <char id="8721" x="78" y="153" width="13" height="22" xoffset="1" yoffset="6" xadvance="15" page="0" chnl="15" />
    <char id="8722" x="295" y="367" width="12" height="3" xoffset="1" yoffset="16" xadvance="15" page="0" chnl="15" />
    <char id="8725" x="369" y="236" width="16" height="19" xoffset="0" yoffset="6" xadvance="15" page="0" chnl="15" />
    <char id="8729" x="205" y="370" width="6" height="6" xoffset="4" yoffset="14" xadvance="15" page="0" chnl="15" />
    <char id="8730" x="386" y="236" width="16" height="19" xoffset="0" yoffset="6" xadvance="15" page="0" chnl="15" />
    <char id="8734" x="73" y="373" width="16" height="10" xoffset="0" yoffset="13" xadvance="15" page="0" chnl="15" />
    <char id="8747" x="298" y="0" width="13" height="26" xoffset="1" yoffset="5" xadvance="15" page="0" chnl="15" />
    <char id="8776" x="34" y="373" width="13" height="11" xoffset="1" yoffset="12" xadvance="15" page="0" chnl="15" />
    <char id="8800" x="139" y="357" width="12" height="15" xoffset="1" yoffset="10" xadvance="15" page="0" chnl="15" />
    <char id="8804" x="309" y="334" width="12" height="17" xoffset="1" yoffset="8" xadvance="15" page="0" chnl="15" />
    <char id="8805" x="296" y="334" width="12" height="17" xoffset="1" yoffset="8" xadvance="15" page="0" chnl="15" />
    <char id="9633" x="449" y="348" width="14" height="13" xoffset="1" yoffset="12" xadvance="15" page="0" chnl="15" />
    <char id="9642" x="138" y="373" width="8" height="9" xoffset="3" yoffset="13" xadvance="15" page="0" chnl="15" />
    <char id="9643" x="197" y="370" width="7" height="6" xoffset="4" yoffset="13" xadvance="15" page="0" chnl="15" />
    <char id="9674" x="120" y="319" width="14" height="18" xoffset="0" yoffset="7" xadvance="15" page="0" chnl="15" />
    <char id="9679" x="492" y="347" width="13" height="12" xoffset="1" yoffset="11" xadvance="15" page="0" chnl="15" />
    <char id="9702" x="147" y="373" width="8" height="8" xoffset="4" yoffset="12" xadvance="15" page="0" chnl="15" />
  </chars>
</font>
