<?xml version="1.0"?>
<font>
  <info face="Consolas" size="16" bold="1" italic="0" charset="" unicode="1" stretchH="100" smooth="1" aa="2" padding="0,0,0,0" spacing="1,1" outline="0"/>
  <common lineHeight="16" base="13" scaleW="512" scaleH="128" pages="1" packed="0" alphaChnl="0" redChnl="4" greenChnl="4" blueChnl="4"/>
  <pages>
    <page id="0" file="Consolas_16_bold_0.png" />
  </pages>
  <chars count="625">
    <char id="-1" x="198" y="83" width="8" height="9" xoffset="0" yoffset="4" xadvance="7" page="0" chnl="15" />
    <char id="32" x="509" y="70" width="2" height="1" xoffset="0" yoffset="15" xadvance="7" page="0" chnl="15" />
    <char id="33" x="508" y="26" width="3" height="10" xoffset="2" yoffset="3" xadvance="7" page="0" chnl="15" />
    <char id="34" x="446" y="100" width="6" height="4" xoffset="1" yoffset="3" xadvance="7" page="0" chnl="15" />
    <char id="35" x="275" y="73" width="8" height="9" xoffset="0" yoffset="4" xadvance="7" page="0" chnl="15" />
    <char id="36" x="269" y="0" width="8" height="12" xoffset="0" yoffset="2" xadvance="7" page="0" chnl="15" />
    <char id="37" x="376" y="38" width="9" height="10" xoffset="0" yoffset="3" xadvance="7" page="0" chnl="15" />
    <char id="38" x="153" y="52" width="8" height="10" xoffset="0" yoffset="3" xadvance="7" page="0" chnl="15" />
    <char id="39" x="469" y="100" width="3" height="4" xoffset="2" yoffset="3" xadvance="7" page="0" chnl="15" />
    <char id="40" x="149" y="0" width="5" height="13" xoffset="1" yoffset="2" xadvance="7" page="0" chnl="15" />
    <char id="41" x="155" y="0" width="5" height="13" xoffset="1" yoffset="2" xadvance="7" page="0" chnl="15" />
    <char id="42" x="322" y="103" width="7" height="6" xoffset="0" yoffset="3" xadvance="7" page="0" chnl="15" />
    <char id="43" x="99" y="104" width="8" height="7" xoffset="0" yoffset="5" xadvance="7" page="0" chnl="15" />
    <char id="44" x="415" y="101" width="5" height="5" xoffset="1" yoffset="10" xadvance="7" page="0" chnl="15" />
    <char id="45" x="30" y="113" width="5" height="2" xoffset="1" yoffset="8" xadvance="7" page="0" chnl="15" />
    <char id="46" x="491" y="100" width="4" height="3" xoffset="2" yoffset="10" xadvance="7" page="0" chnl="15" />
    <char id="47" x="132" y="40" width="7" height="11" xoffset="0" yoffset="3" xadvance="7" page="0" chnl="15" />
    <char id="48" x="284" y="73" width="8" height="9" xoffset="0" yoffset="4" xadvance="7" page="0" chnl="15" />
    <char id="49" x="271" y="83" width="7" height="9" xoffset="0" yoffset="4" xadvance="7" page="0" chnl="15" />
    <char id="50" x="263" y="83" width="7" height="9" xoffset="0" yoffset="4" xadvance="7" page="0" chnl="15" />
    <char id="51" x="255" y="83" width="7" height="9" xoffset="0" yoffset="4" xadvance="7" page="0" chnl="15" />
    <char id="52" x="293" y="73" width="8" height="9" xoffset="0" yoffset="4" xadvance="7" page="0" chnl="15" />
    <char id="53" x="247" y="83" width="7" height="9" xoffset="0" yoffset="4" xadvance="7" page="0" chnl="15" />
    <char id="54" x="239" y="83" width="7" height="9" xoffset="0" yoffset="4" xadvance="7" page="0" chnl="15" />
    <char id="55" x="231" y="83" width="7" height="9" xoffset="0" yoffset="4" xadvance="7" page="0" chnl="15" />
    <char id="56" x="223" y="83" width="7" height="9" xoffset="0" yoffset="4" xadvance="7" page="0" chnl="15" />
    <char id="57" x="215" y="83" width="7" height="9" xoffset="0" yoffset="4" xadvance="7" page="0" chnl="15" />
    <char id="58" x="317" y="103" width="4" height="7" xoffset="2" yoffset="6" xadvance="7" page="0" chnl="15" />
    <char id="59" x="429" y="91" width="5" height="9" xoffset="1" yoffset="6" xadvance="7" page="0" chnl="15" />
    <char id="60" x="489" y="91" width="6" height="8" xoffset="0" yoffset="5" xadvance="7" page="0" chnl="15" />
    <char id="61" x="400" y="101" width="7" height="5" xoffset="0" yoffset="6" xadvance="7" page="0" chnl="15" />
    <char id="62" x="482" y="91" width="6" height="8" xoffset="1" yoffset="5" xadvance="7" page="0" chnl="15" />
    <char id="63" x="474" y="60" width="6" height="10" xoffset="1" yoffset="3" xadvance="7" page="0" chnl="15" />
    <char id="64" x="182" y="0" width="9" height="12" xoffset="0" yoffset="3" xadvance="7" page="0" chnl="15" />
    <char id="65" x="302" y="73" width="8" height="9" xoffset="0" yoffset="4" xadvance="7" page="0" chnl="15" />
    <char id="66" x="16" y="95" width="7" height="9" xoffset="0" yoffset="4" xadvance="7" page="0" chnl="15" />
    <char id="67" x="487" y="81" width="7" height="9" xoffset="0" yoffset="4" xadvance="7" page="0" chnl="15" />
    <char id="68" x="311" y="73" width="8" height="9" xoffset="0" yoffset="4" xadvance="7" page="0" chnl="15" />
    <char id="69" x="422" y="91" width="6" height="9" xoffset="1" yoffset="4" xadvance="7" page="0" chnl="15" />
    <char id="70" x="415" y="91" width="6" height="9" xoffset="1" yoffset="4" xadvance="7" page="0" chnl="15" />
    <char id="71" x="320" y="73" width="8" height="9" xoffset="0" yoffset="4" xadvance="7" page="0" chnl="15" />
    <char id="72" x="407" y="81" width="7" height="9" xoffset="0" yoffset="4" xadvance="7" page="0" chnl="15" />
    <char id="73" x="399" y="81" width="7" height="9" xoffset="0" yoffset="4" xadvance="7" page="0" chnl="15" />
    <char id="74" x="387" y="91" width="6" height="9" xoffset="1" yoffset="4" xadvance="7" page="0" chnl="15" />
    <char id="75" x="383" y="81" width="7" height="9" xoffset="0" yoffset="4" xadvance="7" page="0" chnl="15" />
    <char id="76" x="373" y="91" width="6" height="9" xoffset="1" yoffset="4" xadvance="7" page="0" chnl="15" />
    <char id="77" x="392" y="71" width="8" height="9" xoffset="0" yoffset="4" xadvance="7" page="0" chnl="15" />
    <char id="78" x="375" y="81" width="7" height="9" xoffset="0" yoffset="4" xadvance="7" page="0" chnl="15" />
    <char id="79" x="428" y="71" width="8" height="9" xoffset="0" yoffset="4" xadvance="7" page="0" chnl="15" />
    <char id="80" x="336" y="93" width="7" height="9" xoffset="0" yoffset="4" xadvance="7" page="0" chnl="15" />
    <char id="81" x="45" y="40" width="8" height="11" xoffset="0" yoffset="4" xadvance="7" page="0" chnl="15" />
    <char id="82" x="320" y="93" width="7" height="9" xoffset="0" yoffset="4" xadvance="7" page="0" chnl="15" />
    <char id="83" x="279" y="83" width="7" height="9" xoffset="0" yoffset="4" xadvance="7" page="0" chnl="15" />
    <char id="84" x="437" y="71" width="8" height="9" xoffset="0" yoffset="4" xadvance="7" page="0" chnl="15" />
    <char id="85" x="446" y="71" width="8" height="9" xoffset="0" yoffset="4" xadvance="7" page="0" chnl="15" />
    <char id="86" x="10" y="75" width="9" height="9" xoffset="0" yoffset="4" xadvance="7" page="0" chnl="15" />
    <char id="87" x="455" y="71" width="8" height="9" xoffset="0" yoffset="4" xadvance="7" page="0" chnl="15" />
    <char id="88" x="464" y="71" width="8" height="9" xoffset="0" yoffset="4" xadvance="7" page="0" chnl="15" />
    <char id="89" x="473" y="71" width="8" height="9" xoffset="0" yoffset="4" xadvance="7" page="0" chnl="15" />
    <char id="90" x="295" y="83" width="7" height="9" xoffset="0" yoffset="4" xadvance="7" page="0" chnl="15" />
    <char id="91" x="314" y="26" width="5" height="12" xoffset="1" yoffset="3" xadvance="7" page="0" chnl="15" />
    <char id="92" x="156" y="40" width="7" height="11" xoffset="0" yoffset="3" xadvance="7" page="0" chnl="15" />
    <char id="93" x="320" y="26" width="4" height="12" xoffset="1" yoffset="3" xadvance="7" page="0" chnl="15" />
    <char id="94" x="430" y="101" width="7" height="4" xoffset="0" yoffset="4" xadvance="7" page="0" chnl="15" />
    <char id="95" x="0" y="113" width="9" height="2" xoffset="0" yoffset="13" xadvance="7" page="0" chnl="15" />
    <char id="96" x="24" y="113" width="5" height="2" xoffset="0" yoffset="3" xadvance="7" page="0" chnl="15" />
    <char id="97" x="256" y="103" width="7" height="7" xoffset="0" yoffset="6" xadvance="7" page="0" chnl="15" />
    <char id="98" x="474" y="49" width="7" height="10" xoffset="0" yoffset="3" xadvance="7" page="0" chnl="15" />
    <char id="99" x="296" y="103" width="6" height="7" xoffset="0" yoffset="6" xadvance="7" page="0" chnl="15" />
    <char id="100" x="410" y="49" width="7" height="10" xoffset="0" yoffset="3" xadvance="7" page="0" chnl="15" />
    <char id="101" x="240" y="103" width="7" height="7" xoffset="0" yoffset="6" xadvance="7" page="0" chnl="15" />
    <char id="102" x="81" y="52" width="8" height="10" xoffset="0" yoffset="3" xadvance="7" page="0" chnl="15" />
    <char id="103" x="482" y="71" width="8" height="9" xoffset="0" yoffset="6" xadvance="7" page="0" chnl="15" />
    <char id="104" x="402" y="49" width="7" height="10" xoffset="0" yoffset="3" xadvance="7" page="0" chnl="15" />
    <char id="105" x="394" y="49" width="7" height="10" xoffset="0" yoffset="3" xadvance="7" page="0" chnl="15" />
    <char id="106" x="237" y="26" width="6" height="12" xoffset="0" yoffset="3" xadvance="7" page="0" chnl="15" />
    <char id="107" x="386" y="49" width="7" height="10" xoffset="0" yoffset="3" xadvance="7" page="0" chnl="15" />
    <char id="108" x="378" y="49" width="7" height="10" xoffset="0" yoffset="3" xadvance="7" page="0" chnl="15" />
    <char id="109" x="0" y="105" width="8" height="7" xoffset="0" yoffset="6" xadvance="7" page="0" chnl="15" />
    <char id="110" x="176" y="104" width="7" height="7" xoffset="0" yoffset="6" xadvance="7" page="0" chnl="15" />
    <char id="111" x="27" y="105" width="8" height="7" xoffset="0" yoffset="6" xadvance="7" page="0" chnl="15" />
    <char id="112" x="32" y="95" width="7" height="9" xoffset="0" yoffset="6" xadvance="7" page="0" chnl="15" />
    <char id="113" x="48" y="94" width="7" height="9" xoffset="0" yoffset="6" xadvance="7" page="0" chnl="15" />
    <char id="114" x="208" y="103" width="7" height="7" xoffset="1" yoffset="6" xadvance="7" page="0" chnl="15" />
    <char id="115" x="200" y="103" width="7" height="7" xoffset="0" yoffset="6" xadvance="7" page="0" chnl="15" />
    <char id="116" x="72" y="94" width="7" height="9" xoffset="0" yoffset="4" xadvance="7" page="0" chnl="15" />
    <char id="117" x="192" y="103" width="7" height="7" xoffset="0" yoffset="6" xadvance="7" page="0" chnl="15" />
    <char id="118" x="54" y="104" width="8" height="7" xoffset="0" yoffset="6" xadvance="7" page="0" chnl="15" />
    <char id="119" x="18" y="105" width="8" height="7" xoffset="0" yoffset="6" xadvance="7" page="0" chnl="15" />
    <char id="120" x="496" y="90" width="8" height="7" xoffset="0" yoffset="6" xadvance="7" page="0" chnl="15" />
    <char id="121" x="0" y="85" width="8" height="9" xoffset="0" yoffset="6" xadvance="7" page="0" chnl="15" />
    <char id="122" x="168" y="104" width="7" height="7" xoffset="0" yoffset="6" xadvance="7" page="0" chnl="15" />
    <char id="123" x="293" y="26" width="6" height="12" xoffset="0" yoffset="3" xadvance="7" page="0" chnl="15" />
    <char id="124" x="13" y="0" width="3" height="14" xoffset="2" yoffset="1" xadvance="7" page="0" chnl="15" />
    <char id="125" x="272" y="26" width="6" height="12" xoffset="1" yoffset="3" xadvance="7" page="0" chnl="15" />
    <char id="126" x="421" y="101" width="8" height="4" xoffset="0" yoffset="7" xadvance="7" page="0" chnl="15" />
    <char id="160" x="53" y="113" width="2" height="1" xoffset="0" yoffset="15" xadvance="7" page="0" chnl="15" />
    <char id="161" x="435" y="91" width="3" height="9" xoffset="2" yoffset="6" xadvance="7" page="0" chnl="15" />
    <char id="162" x="265" y="26" width="6" height="12" xoffset="0" yoffset="2" xadvance="7" page="0" chnl="15" />
    <char id="163" x="176" y="94" width="7" height="9" xoffset="0" yoffset="4" xadvance="7" page="0" chnl="15" />
    <char id="164" x="9" y="85" width="8" height="9" xoffset="0" yoffset="4" xadvance="7" page="0" chnl="15" />
    <char id="165" x="18" y="85" width="8" height="9" xoffset="0" yoffset="4" xadvance="7" page="0" chnl="15" />
    <char id="166" x="17" y="0" width="3" height="14" xoffset="2" yoffset="1" xadvance="7" page="0" chnl="15" />
    <char id="167" x="27" y="41" width="8" height="11" xoffset="0" yoffset="3" xadvance="7" page="0" chnl="15" />
    <char id="168" x="505" y="98" width="6" height="2" xoffset="1" yoffset="3" xadvance="7" page="0" chnl="15" />
    <char id="169" x="27" y="85" width="8" height="9" xoffset="0" yoffset="4" xadvance="7" page="0" chnl="15" />
    <char id="170" x="310" y="103" width="6" height="7" xoffset="1" yoffset="4" xadvance="7" page="0" chnl="15" />
    <char id="171" x="362" y="101" width="7" height="6" xoffset="0" yoffset="6" xadvance="7" page="0" chnl="15" />
    <char id="172" x="438" y="101" width="7" height="4" xoffset="0" yoffset="8" xadvance="7" page="0" chnl="15" />
    <char id="173" x="36" y="113" width="5" height="2" xoffset="1" yoffset="8" xadvance="7" page="0" chnl="15" />
    <char id="174" x="63" y="104" width="8" height="7" xoffset="0" yoffset="3" xadvance="7" page="0" chnl="15" />
    <char id="175" x="47" y="113" width="5" height="1" xoffset="1" yoffset="4" xadvance="7" page="0" chnl="15" />
    <char id="176" x="408" y="101" width="6" height="5" xoffset="1" yoffset="3" xadvance="7" page="0" chnl="15" />
    <char id="177" x="466" y="91" width="7" height="8" xoffset="0" yoffset="5" xadvance="7" page="0" chnl="15" />
    <char id="178" x="370" y="101" width="6" height="6" xoffset="1" yoffset="3" xadvance="7" page="0" chnl="15" />
    <char id="179" x="377" y="101" width="6" height="6" xoffset="1" yoffset="3" xadvance="7" page="0" chnl="15" />
    <char id="180" x="18" y="113" width="5" height="2" xoffset="2" yoffset="3" xadvance="7" page="0" chnl="15" />
    <char id="181" x="112" y="94" width="7" height="9" xoffset="0" yoffset="6" xadvance="7" page="0" chnl="15" />
    <char id="182" x="418" y="26" width="8" height="11" xoffset="0" yoffset="3" xadvance="7" page="0" chnl="15" />
    <char id="183" x="481" y="100" width="4" height="3" xoffset="2" yoffset="7" xadvance="7" page="0" chnl="15" />
    <char id="184" x="501" y="98" width="3" height="3" xoffset="2" yoffset="12" xadvance="7" page="0" chnl="15" />
    <char id="185" x="384" y="101" width="5" height="6" xoffset="1" yoffset="3" xadvance="7" page="0" chnl="15" />
    <char id="186" x="303" y="103" width="6" height="7" xoffset="1" yoffset="4" xadvance="7" page="0" chnl="15" />
    <char id="187" x="346" y="102" width="7" height="6" xoffset="0" yoffset="6" xadvance="7" page="0" chnl="15" />
    <char id="188" x="484" y="38" width="8" height="10" xoffset="0" yoffset="3" xadvance="7" page="0" chnl="15" />
    <char id="189" x="475" y="38" width="8" height="10" xoffset="0" yoffset="3" xadvance="7" page="0" chnl="15" />
    <char id="190" x="288" y="51" width="8" height="10" xoffset="0" yoffset="3" xadvance="7" page="0" chnl="15" />
    <char id="191" x="359" y="91" width="6" height="9" xoffset="0" yoffset="6" xadvance="7" page="0" chnl="15" />
    <char id="192" x="422" y="0" width="8" height="12" xoffset="0" yoffset="1" xadvance="7" page="0" chnl="15" />
    <char id="193" x="431" y="0" width="8" height="12" xoffset="0" yoffset="1" xadvance="7" page="0" chnl="15" />
    <char id="194" x="440" y="0" width="8" height="12" xoffset="0" yoffset="1" xadvance="7" page="0" chnl="15" />
    <char id="195" x="458" y="0" width="8" height="12" xoffset="0" yoffset="1" xadvance="7" page="0" chnl="15" />
    <char id="196" x="485" y="0" width="8" height="12" xoffset="0" yoffset="1" xadvance="7" page="0" chnl="15" />
    <char id="197" x="494" y="0" width="8" height="12" xoffset="0" yoffset="1" xadvance="7" page="0" chnl="15" />
    <char id="198" x="36" y="85" width="8" height="9" xoffset="0" yoffset="4" xadvance="7" page="0" chnl="15" />
    <char id="199" x="204" y="39" width="7" height="11" xoffset="0" yoffset="4" xadvance="7" page="0" chnl="15" />
    <char id="200" x="441" y="13" width="7" height="12" xoffset="0" yoffset="1" xadvance="7" page="0" chnl="15" />
    <char id="201" x="223" y="26" width="6" height="12" xoffset="1" yoffset="1" xadvance="7" page="0" chnl="15" />
    <char id="202" x="230" y="26" width="6" height="12" xoffset="1" yoffset="1" xadvance="7" page="0" chnl="15" />
    <char id="203" x="258" y="26" width="6" height="12" xoffset="1" yoffset="1" xadvance="7" page="0" chnl="15" />
    <char id="204" x="56" y="27" width="7" height="12" xoffset="0" yoffset="1" xadvance="7" page="0" chnl="15" />
    <char id="205" x="80" y="27" width="7" height="12" xoffset="0" yoffset="1" xadvance="7" page="0" chnl="15" />
    <char id="206" x="313" y="13" width="7" height="12" xoffset="0" yoffset="1" xadvance="7" page="0" chnl="15" />
    <char id="207" x="96" y="27" width="7" height="12" xoffset="0" yoffset="1" xadvance="7" page="0" chnl="15" />
    <char id="208" x="45" y="84" width="8" height="9" xoffset="0" yoffset="4" xadvance="7" page="0" chnl="15" />
    <char id="209" x="120" y="27" width="7" height="12" xoffset="0" yoffset="1" xadvance="7" page="0" chnl="15" />
    <char id="210" x="503" y="0" width="8" height="12" xoffset="0" yoffset="1" xadvance="7" page="0" chnl="15" />
    <char id="211" x="0" y="15" width="8" height="12" xoffset="0" yoffset="1" xadvance="7" page="0" chnl="15" />
    <char id="212" x="36" y="14" width="8" height="12" xoffset="0" yoffset="1" xadvance="7" page="0" chnl="15" />
    <char id="213" x="45" y="14" width="8" height="12" xoffset="0" yoffset="1" xadvance="7" page="0" chnl="15" />
    <char id="214" x="54" y="14" width="8" height="12" xoffset="0" yoffset="1" xadvance="7" page="0" chnl="15" />
    <char id="215" x="354" y="102" width="7" height="6" xoffset="0" yoffset="6" xadvance="7" page="0" chnl="15" />
    <char id="216" x="81" y="14" width="8" height="12" xoffset="0" yoffset="2" xadvance="7" page="0" chnl="15" />
    <char id="217" x="90" y="14" width="8" height="12" xoffset="0" yoffset="1" xadvance="7" page="0" chnl="15" />
    <char id="218" x="99" y="14" width="8" height="12" xoffset="0" yoffset="1" xadvance="7" page="0" chnl="15" />
    <char id="219" x="108" y="14" width="8" height="12" xoffset="0" yoffset="1" xadvance="7" page="0" chnl="15" />
    <char id="220" x="126" y="14" width="8" height="12" xoffset="0" yoffset="1" xadvance="7" page="0" chnl="15" />
    <char id="221" x="18" y="15" width="8" height="12" xoffset="0" yoffset="1" xadvance="7" page="0" chnl="15" />
    <char id="222" x="415" y="81" width="7" height="9" xoffset="0" yoffset="4" xadvance="7" page="0" chnl="15" />
    <char id="223" x="112" y="63" width="7" height="10" xoffset="0" yoffset="3" xadvance="7" page="0" chnl="15" />
    <char id="224" x="104" y="63" width="7" height="10" xoffset="0" yoffset="3" xadvance="7" page="0" chnl="15" />
    <char id="225" x="72" y="63" width="7" height="10" xoffset="0" yoffset="3" xadvance="7" page="0" chnl="15" />
    <char id="226" x="64" y="63" width="7" height="10" xoffset="0" yoffset="3" xadvance="7" page="0" chnl="15" />
    <char id="227" x="40" y="63" width="7" height="10" xoffset="0" yoffset="3" xadvance="7" page="0" chnl="15" />
    <char id="228" x="32" y="64" width="7" height="10" xoffset="0" yoffset="3" xadvance="7" page="0" chnl="15" />
    <char id="229" x="212" y="39" width="7" height="11" xoffset="0" yoffset="2" xadvance="7" page="0" chnl="15" />
    <char id="230" x="126" y="104" width="8" height="7" xoffset="0" yoffset="6" xadvance="7" page="0" chnl="15" />
    <char id="231" x="352" y="92" width="6" height="9" xoffset="0" yoffset="6" xadvance="7" page="0" chnl="15" />
    <char id="232" x="344" y="61" width="7" height="10" xoffset="0" yoffset="3" xadvance="7" page="0" chnl="15" />
    <char id="233" x="304" y="62" width="7" height="10" xoffset="0" yoffset="3" xadvance="7" page="0" chnl="15" />
    <char id="234" x="280" y="62" width="7" height="10" xoffset="0" yoffset="3" xadvance="7" page="0" chnl="15" />
    <char id="235" x="264" y="62" width="7" height="10" xoffset="0" yoffset="3" xadvance="7" page="0" chnl="15" />
    <char id="236" x="216" y="62" width="7" height="10" xoffset="0" yoffset="3" xadvance="7" page="0" chnl="15" />
    <char id="237" x="136" y="63" width="7" height="10" xoffset="0" yoffset="3" xadvance="7" page="0" chnl="15" />
    <char id="238" x="128" y="63" width="7" height="10" xoffset="0" yoffset="3" xadvance="7" page="0" chnl="15" />
    <char id="239" x="120" y="63" width="7" height="10" xoffset="0" yoffset="3" xadvance="7" page="0" chnl="15" />
    <char id="240" x="96" y="63" width="7" height="10" xoffset="0" yoffset="3" xadvance="7" page="0" chnl="15" />
    <char id="241" x="80" y="63" width="7" height="10" xoffset="0" yoffset="3" xadvance="7" page="0" chnl="15" />
    <char id="242" x="171" y="52" width="8" height="10" xoffset="0" yoffset="3" xadvance="7" page="0" chnl="15" />
    <char id="243" x="36" y="52" width="8" height="10" xoffset="0" yoffset="3" xadvance="7" page="0" chnl="15" />
    <char id="244" x="466" y="38" width="8" height="10" xoffset="0" yoffset="3" xadvance="7" page="0" chnl="15" />
    <char id="245" x="90" y="52" width="8" height="10" xoffset="0" yoffset="3" xadvance="7" page="0" chnl="15" />
    <char id="246" x="216" y="51" width="8" height="10" xoffset="0" yoffset="3" xadvance="7" page="0" chnl="15" />
    <char id="247" x="439" y="91" width="8" height="8" xoffset="0" yoffset="5" xadvance="7" page="0" chnl="15" />
    <char id="248" x="225" y="51" width="8" height="10" xoffset="0" yoffset="4" xadvance="7" page="0" chnl="15" />
    <char id="249" x="160" y="63" width="7" height="10" xoffset="0" yoffset="3" xadvance="7" page="0" chnl="15" />
    <char id="250" x="176" y="63" width="7" height="10" xoffset="0" yoffset="3" xadvance="7" page="0" chnl="15" />
    <char id="251" x="312" y="62" width="7" height="10" xoffset="0" yoffset="3" xadvance="7" page="0" chnl="15" />
    <char id="252" x="240" y="62" width="7" height="10" xoffset="0" yoffset="3" xadvance="7" page="0" chnl="15" />
    <char id="253" x="189" y="13" width="8" height="12" xoffset="0" yoffset="3" xadvance="7" page="0" chnl="15" />
    <char id="254" x="369" y="13" width="7" height="12" xoffset="0" yoffset="3" xadvance="7" page="0" chnl="15" />
    <char id="255" x="314" y="0" width="8" height="12" xoffset="0" yoffset="3" xadvance="7" page="0" chnl="15" />
    <char id="256" x="427" y="26" width="8" height="11" xoffset="0" yoffset="2" xadvance="7" page="0" chnl="15" />
    <char id="257" x="367" y="81" width="7" height="9" xoffset="0" yoffset="4" xadvance="7" page="0" chnl="15" />
    <char id="258" x="251" y="0" width="8" height="12" xoffset="0" yoffset="1" xadvance="7" page="0" chnl="15" />
    <char id="259" x="0" y="64" width="7" height="10" xoffset="0" yoffset="3" xadvance="7" page="0" chnl="15" />
    <char id="260" x="81" y="40" width="8" height="11" xoffset="0" yoffset="4" xadvance="7" page="0" chnl="15" />
    <char id="261" x="351" y="82" width="7" height="9" xoffset="0" yoffset="6" xadvance="7" page="0" chnl="15" />
    <char id="262" x="8" y="28" width="7" height="12" xoffset="0" yoffset="1" xadvance="7" page="0" chnl="15" />
    <char id="263" x="88" y="63" width="7" height="10" xoffset="0" yoffset="3" xadvance="7" page="0" chnl="15" />
    <char id="264" x="409" y="13" width="7" height="12" xoffset="0" yoffset="1" xadvance="7" page="0" chnl="15" />
    <char id="265" x="432" y="60" width="6" height="10" xoffset="0" yoffset="3" xadvance="7" page="0" chnl="15" />
    <char id="266" x="401" y="13" width="7" height="12" xoffset="0" yoffset="1" xadvance="7" page="0" chnl="15" />
    <char id="267" x="453" y="60" width="6" height="10" xoffset="0" yoffset="3" xadvance="7" page="0" chnl="15" />
    <char id="268" x="337" y="13" width="7" height="12" xoffset="0" yoffset="1" xadvance="7" page="0" chnl="15" />
    <char id="269" x="467" y="60" width="6" height="10" xoffset="0" yoffset="3" xadvance="7" page="0" chnl="15" />
    <char id="270" x="261" y="13" width="8" height="12" xoffset="0" yoffset="1" xadvance="7" page="0" chnl="15" />
    <char id="271" x="406" y="38" width="9" height="10" xoffset="0" yoffset="3" xadvance="7" page="0" chnl="15" />
    <char id="272" x="63" y="84" width="8" height="9" xoffset="0" yoffset="4" xadvance="7" page="0" chnl="15" />
    <char id="273" x="279" y="51" width="8" height="10" xoffset="0" yoffset="3" xadvance="7" page="0" chnl="15" />
    <char id="274" x="330" y="38" width="6" height="11" xoffset="1" yoffset="2" xadvance="7" page="0" chnl="15" />
    <char id="275" x="343" y="82" width="7" height="9" xoffset="0" yoffset="4" xadvance="7" page="0" chnl="15" />
    <char id="276" x="307" y="26" width="6" height="12" xoffset="1" yoffset="1" xadvance="7" page="0" chnl="15" />
    <char id="277" x="152" y="63" width="7" height="10" xoffset="0" yoffset="3" xadvance="7" page="0" chnl="15" />
    <char id="278" x="300" y="26" width="6" height="12" xoffset="1" yoffset="1" xadvance="7" page="0" chnl="15" />
    <char id="279" x="328" y="62" width="7" height="10" xoffset="0" yoffset="3" xadvance="7" page="0" chnl="15" />
    <char id="280" x="337" y="38" width="6" height="11" xoffset="1" yoffset="4" xadvance="7" page="0" chnl="15" />
    <char id="281" x="335" y="83" width="7" height="9" xoffset="0" yoffset="6" xadvance="7" page="0" chnl="15" />
    <char id="282" x="286" y="26" width="6" height="12" xoffset="1" yoffset="1" xadvance="7" page="0" chnl="15" />
    <char id="283" x="408" y="60" width="7" height="10" xoffset="0" yoffset="3" xadvance="7" page="0" chnl="15" />
    <char id="284" x="198" y="13" width="8" height="12" xoffset="0" yoffset="1" xadvance="7" page="0" chnl="15" />
    <char id="285" x="180" y="13" width="8" height="12" xoffset="0" yoffset="3" xadvance="7" page="0" chnl="15" />
    <char id="286" x="171" y="13" width="8" height="12" xoffset="0" yoffset="1" xadvance="7" page="0" chnl="15" />
    <char id="287" x="162" y="13" width="8" height="12" xoffset="0" yoffset="3" xadvance="7" page="0" chnl="15" />
    <char id="288" x="153" y="14" width="8" height="12" xoffset="0" yoffset="1" xadvance="7" page="0" chnl="15" />
    <char id="289" x="144" y="14" width="8" height="12" xoffset="0" yoffset="3" xadvance="7" page="0" chnl="15" />
    <char id="290" x="490" y="26" width="8" height="11" xoffset="0" yoffset="4" xadvance="7" page="0" chnl="15" />
    <char id="291" x="135" y="14" width="8" height="12" xoffset="0" yoffset="3" xadvance="7" page="0" chnl="15" />
    <char id="292" x="136" y="27" width="7" height="12" xoffset="0" yoffset="1" xadvance="7" page="0" chnl="15" />
    <char id="293" x="112" y="27" width="7" height="12" xoffset="0" yoffset="1" xadvance="7" page="0" chnl="15" />
    <char id="294" x="30" y="75" width="9" height="9" xoffset="0" yoffset="4" xadvance="7" page="0" chnl="15" />
    <char id="295" x="180" y="51" width="8" height="10" xoffset="0" yoffset="3" xadvance="7" page="0" chnl="15" />
    <char id="296" x="192" y="26" width="7" height="12" xoffset="0" yoffset="1" xadvance="7" page="0" chnl="15" />
    <char id="297" x="168" y="63" width="7" height="10" xoffset="0" yoffset="3" xadvance="7" page="0" chnl="15" />
    <char id="298" x="236" y="39" width="7" height="11" xoffset="0" yoffset="2" xadvance="7" page="0" chnl="15" />
    <char id="299" x="304" y="93" width="7" height="9" xoffset="0" yoffset="4" xadvance="7" page="0" chnl="15" />
    <char id="300" x="176" y="26" width="7" height="12" xoffset="0" yoffset="1" xadvance="7" page="0" chnl="15" />
    <char id="301" x="184" y="62" width="7" height="10" xoffset="0" yoffset="3" xadvance="7" page="0" chnl="15" />
    <char id="302" x="244" y="39" width="7" height="11" xoffset="0" yoffset="4" xadvance="7" page="0" chnl="15" />
    <char id="303" x="168" y="26" width="7" height="12" xoffset="0" yoffset="3" xadvance="7" page="0" chnl="15" />
    <char id="304" x="144" y="27" width="7" height="12" xoffset="0" yoffset="1" xadvance="7" page="0" chnl="15" />
    <char id="305" x="248" y="103" width="7" height="7" xoffset="0" yoffset="6" xadvance="7" page="0" chnl="15" />
    <char id="306" x="311" y="83" width="7" height="9" xoffset="0" yoffset="4" xadvance="7" page="0" chnl="15" />
    <char id="307" x="104" y="27" width="7" height="12" xoffset="0" yoffset="3" xadvance="7" page="0" chnl="15" />
    <char id="308" x="251" y="26" width="6" height="12" xoffset="1" yoffset="1" xadvance="7" page="0" chnl="15" />
    <char id="309" x="279" y="26" width="6" height="12" xoffset="0" yoffset="3" xadvance="7" page="0" chnl="15" />
    <char id="310" x="260" y="39" width="7" height="11" xoffset="0" yoffset="4" xadvance="7" page="0" chnl="15" />
    <char id="311" x="128" y="27" width="7" height="12" xoffset="0" yoffset="3" xadvance="7" page="0" chnl="15" />
    <char id="312" x="144" y="104" width="7" height="7" xoffset="0" yoffset="6" xadvance="7" page="0" chnl="15" />
    <char id="313" x="244" y="26" width="6" height="12" xoffset="1" yoffset="1" xadvance="7" page="0" chnl="15" />
    <char id="314" x="152" y="27" width="7" height="12" xoffset="0" yoffset="1" xadvance="7" page="0" chnl="15" />
    <char id="315" x="323" y="39" width="6" height="11" xoffset="1" yoffset="4" xadvance="7" page="0" chnl="15" />
    <char id="316" x="72" y="27" width="7" height="12" xoffset="0" yoffset="3" xadvance="7" page="0" chnl="15" />
    <char id="317" x="439" y="60" width="6" height="10" xoffset="1" yoffset="3" xadvance="7" page="0" chnl="15" />
    <char id="318" x="117" y="52" width="8" height="10" xoffset="0" yoffset="3" xadvance="7" page="0" chnl="15" />
    <char id="319" x="72" y="84" width="8" height="9" xoffset="0" yoffset="4" xadvance="7" page="0" chnl="15" />
    <char id="320" x="366" y="38" width="9" height="10" xoffset="0" yoffset="3" xadvance="7" page="0" chnl="15" />
    <char id="321" x="88" y="94" width="7" height="9" xoffset="0" yoffset="4" xadvance="7" page="0" chnl="15" />
    <char id="322" x="320" y="62" width="7" height="10" xoffset="0" yoffset="3" xadvance="7" page="0" chnl="15" />
    <char id="323" x="160" y="27" width="7" height="12" xoffset="0" yoffset="1" xadvance="7" page="0" chnl="15" />
    <char id="324" x="336" y="61" width="7" height="10" xoffset="0" yoffset="3" xadvance="7" page="0" chnl="15" />
    <char id="325" x="268" y="39" width="7" height="11" xoffset="0" yoffset="4" xadvance="7" page="0" chnl="15" />
    <char id="326" x="495" y="80" width="7" height="9" xoffset="0" yoffset="6" xadvance="7" page="0" chnl="15" />
    <char id="327" x="329" y="13" width="7" height="12" xoffset="0" yoffset="1" xadvance="7" page="0" chnl="15" />
    <char id="328" x="416" y="60" width="7" height="10" xoffset="0" yoffset="3" xadvance="7" page="0" chnl="15" />
    <char id="329" x="499" y="26" width="8" height="11" xoffset="0" yoffset="2" xadvance="7" page="0" chnl="15" />
    <char id="330" x="276" y="39" width="7" height="11" xoffset="0" yoffset="4" xadvance="7" page="0" chnl="15" />
    <char id="331" x="359" y="81" width="7" height="9" xoffset="0" yoffset="6" xadvance="7" page="0" chnl="15" />
    <char id="332" x="90" y="40" width="8" height="11" xoffset="0" yoffset="2" xadvance="7" page="0" chnl="15" />
    <char id="333" x="81" y="84" width="8" height="9" xoffset="0" yoffset="4" xadvance="7" page="0" chnl="15" />
    <char id="334" x="225" y="13" width="8" height="12" xoffset="0" yoffset="1" xadvance="7" page="0" chnl="15" />
    <char id="335" x="27" y="53" width="8" height="10" xoffset="0" yoffset="3" xadvance="7" page="0" chnl="15" />
    <char id="336" x="222" y="0" width="9" height="12" xoffset="0" yoffset="1" xadvance="7" page="0" chnl="15" />
    <char id="337" x="45" y="52" width="8" height="10" xoffset="0" yoffset="3" xadvance="7" page="0" chnl="15" />
    <char id="338" x="90" y="84" width="8" height="9" xoffset="0" yoffset="4" xadvance="7" page="0" chnl="15" />
    <char id="339" x="135" y="104" width="8" height="7" xoffset="0" yoffset="6" xadvance="7" page="0" chnl="15" />
    <char id="340" x="64" y="27" width="7" height="12" xoffset="0" yoffset="1" xadvance="7" page="0" chnl="15" />
    <char id="341" x="288" y="62" width="7" height="10" xoffset="1" yoffset="3" xadvance="7" page="0" chnl="15" />
    <char id="342" x="284" y="39" width="7" height="11" xoffset="0" yoffset="4" xadvance="7" page="0" chnl="15" />
    <char id="343" x="136" y="94" width="7" height="9" xoffset="1" yoffset="6" xadvance="7" page="0" chnl="15" />
    <char id="344" x="24" y="28" width="7" height="12" xoffset="0" yoffset="1" xadvance="7" page="0" chnl="15" />
    <char id="345" x="426" y="49" width="7" height="10" xoffset="1" yoffset="3" xadvance="7" page="0" chnl="15" />
    <char id="346" x="481" y="13" width="7" height="12" xoffset="0" yoffset="1" xadvance="7" page="0" chnl="15" />
    <char id="347" x="442" y="49" width="7" height="10" xoffset="0" yoffset="3" xadvance="7" page="0" chnl="15" />
    <char id="348" x="473" y="13" width="7" height="12" xoffset="0" yoffset="1" xadvance="7" page="0" chnl="15" />
    <char id="349" x="450" y="49" width="7" height="10" xoffset="0" yoffset="3" xadvance="7" page="0" chnl="15" />
    <char id="350" x="292" y="39" width="7" height="11" xoffset="0" yoffset="4" xadvance="7" page="0" chnl="15" />
    <char id="351" x="152" y="94" width="7" height="9" xoffset="0" yoffset="6" xadvance="7" page="0" chnl="15" />
    <char id="352" x="345" y="13" width="7" height="12" xoffset="0" yoffset="1" xadvance="7" page="0" chnl="15" />
    <char id="353" x="490" y="49" width="7" height="10" xoffset="0" yoffset="3" xadvance="7" page="0" chnl="15" />
    <char id="354" x="481" y="26" width="8" height="11" xoffset="0" yoffset="4" xadvance="7" page="0" chnl="15" />
    <char id="355" x="148" y="40" width="7" height="11" xoffset="0" yoffset="4" xadvance="7" page="0" chnl="15" />
    <char id="356" x="476" y="0" width="8" height="12" xoffset="0" yoffset="1" xadvance="7" page="0" chnl="15" />
    <char id="357" x="261" y="51" width="8" height="10" xoffset="0" yoffset="3" xadvance="7" page="0" chnl="15" />
    <char id="358" x="99" y="84" width="8" height="9" xoffset="0" yoffset="4" xadvance="7" page="0" chnl="15" />
    <char id="359" x="144" y="94" width="7" height="9" xoffset="0" yoffset="4" xadvance="7" page="0" chnl="15" />
    <char id="360" x="72" y="14" width="8" height="12" xoffset="0" yoffset="1" xadvance="7" page="0" chnl="15" />
    <char id="361" x="434" y="49" width="7" height="10" xoffset="0" yoffset="3" xadvance="7" page="0" chnl="15" />
    <char id="362" x="63" y="40" width="8" height="11" xoffset="0" yoffset="2" xadvance="7" page="0" chnl="15" />
    <char id="363" x="8" y="95" width="7" height="9" xoffset="0" yoffset="4" xadvance="7" page="0" chnl="15" />
    <char id="364" x="216" y="13" width="8" height="12" xoffset="0" yoffset="1" xadvance="7" page="0" chnl="15" />
    <char id="365" x="424" y="60" width="7" height="10" xoffset="0" yoffset="3" xadvance="7" page="0" chnl="15" />
    <char id="366" x="278" y="0" width="8" height="12" xoffset="0" yoffset="1" xadvance="7" page="0" chnl="15" />
    <char id="367" x="188" y="39" width="7" height="11" xoffset="0" yoffset="2" xadvance="7" page="0" chnl="15" />
    <char id="368" x="202" y="0" width="9" height="12" xoffset="0" yoffset="1" xadvance="7" page="0" chnl="15" />
    <char id="369" x="72" y="52" width="8" height="10" xoffset="0" yoffset="3" xadvance="7" page="0" chnl="15" />
    <char id="370" x="472" y="26" width="8" height="11" xoffset="0" yoffset="4" xadvance="7" page="0" chnl="15" />
    <char id="371" x="423" y="81" width="7" height="9" xoffset="0" yoffset="6" xadvance="7" page="0" chnl="15" />
    <char id="372" x="252" y="13" width="8" height="12" xoffset="0" yoffset="1" xadvance="7" page="0" chnl="15" />
    <char id="373" x="126" y="52" width="8" height="10" xoffset="0" yoffset="3" xadvance="7" page="0" chnl="15" />
    <char id="374" x="243" y="13" width="8" height="12" xoffset="0" yoffset="1" xadvance="7" page="0" chnl="15" />
    <char id="375" x="207" y="13" width="8" height="12" xoffset="0" yoffset="3" xadvance="7" page="0" chnl="15" />
    <char id="376" x="27" y="14" width="8" height="12" xoffset="0" yoffset="1" xadvance="7" page="0" chnl="15" />
    <char id="377" x="184" y="26" width="7" height="12" xoffset="0" yoffset="1" xadvance="7" page="0" chnl="15" />
    <char id="378" x="144" y="63" width="7" height="10" xoffset="0" yoffset="3" xadvance="7" page="0" chnl="15" />
    <char id="379" x="497" y="13" width="7" height="12" xoffset="0" yoffset="1" xadvance="7" page="0" chnl="15" />
    <char id="380" x="458" y="49" width="7" height="10" xoffset="0" yoffset="3" xadvance="7" page="0" chnl="15" />
    <char id="381" x="305" y="13" width="7" height="12" xoffset="0" yoffset="1" xadvance="7" page="0" chnl="15" />
    <char id="382" x="418" y="49" width="7" height="10" xoffset="0" yoffset="3" xadvance="7" page="0" chnl="15" />
    <char id="383" x="446" y="60" width="6" height="10" xoffset="1" yoffset="3" xadvance="7" page="0" chnl="15" />
    <char id="384" x="493" y="38" width="8" height="10" xoffset="0" yoffset="3" xadvance="7" page="0" chnl="15" />
    <char id="385" x="126" y="84" width="8" height="9" xoffset="0" yoffset="4" xadvance="7" page="0" chnl="15" />
    <char id="386" x="455" y="81" width="7" height="9" xoffset="0" yoffset="4" xadvance="7" page="0" chnl="15" />
    <char id="387" x="368" y="60" width="7" height="10" xoffset="0" yoffset="3" xadvance="7" page="0" chnl="15" />
    <char id="388" x="144" y="84" width="8" height="9" xoffset="0" yoffset="4" xadvance="7" page="0" chnl="15" />
    <char id="389" x="198" y="51" width="8" height="10" xoffset="0" yoffset="3" xadvance="7" page="0" chnl="15" />
    <char id="390" x="128" y="94" width="7" height="9" xoffset="0" yoffset="4" xadvance="7" page="0" chnl="15" />
    <char id="391" x="399" y="26" width="9" height="11" xoffset="0" yoffset="2" xadvance="7" page="0" chnl="15" />
    <char id="392" x="153" y="84" width="8" height="9" xoffset="0" yoffset="4" xadvance="7" page="0" chnl="15" />
    <char id="393" x="162" y="84" width="8" height="9" xoffset="0" yoffset="4" xadvance="7" page="0" chnl="15" />
    <char id="394" x="171" y="84" width="8" height="9" xoffset="0" yoffset="4" xadvance="7" page="0" chnl="15" />
    <char id="395" x="319" y="83" width="7" height="9" xoffset="0" yoffset="4" xadvance="7" page="0" chnl="15" />
    <char id="396" x="224" y="62" width="7" height="10" xoffset="0" yoffset="3" xadvance="7" page="0" chnl="15" />
    <char id="397" x="18" y="53" width="8" height="10" xoffset="0" yoffset="3" xadvance="7" page="0" chnl="15" />
    <char id="398" x="401" y="91" width="6" height="9" xoffset="0" yoffset="4" xadvance="7" page="0" chnl="15" />
    <char id="399" x="180" y="84" width="8" height="9" xoffset="0" yoffset="4" xadvance="7" page="0" chnl="15" />
    <char id="400" x="503" y="80" width="7" height="9" xoffset="0" yoffset="4" xadvance="7" page="0" chnl="15" />
    <char id="401" x="234" y="13" width="8" height="12" xoffset="-1" yoffset="4" xadvance="7" page="0" chnl="15" />
    <char id="402" x="409" y="26" width="8" height="11" xoffset="0" yoffset="3" xadvance="7" page="0" chnl="15" />
    <char id="403" x="369" y="26" width="9" height="11" xoffset="0" yoffset="2" xadvance="7" page="0" chnl="15" />
    <char id="404" x="50" y="74" width="8" height="9" xoffset="0" yoffset="4" xadvance="7" page="0" chnl="15" />
    <char id="405" x="252" y="51" width="8" height="10" xoffset="0" yoffset="3" xadvance="7" page="0" chnl="15" />
    <char id="406" x="506" y="49" width="5" height="10" xoffset="2" yoffset="3" xadvance="7" page="0" chnl="15" />
    <char id="407" x="207" y="83" width="7" height="9" xoffset="0" yoffset="4" xadvance="7" page="0" chnl="15" />
    <char id="408" x="391" y="81" width="7" height="9" xoffset="0" yoffset="4" xadvance="7" page="0" chnl="15" />
    <char id="409" x="400" y="60" width="7" height="10" xoffset="0" yoffset="3" xadvance="7" page="0" chnl="15" />
    <char id="410" x="192" y="62" width="7" height="10" xoffset="0" yoffset="3" xadvance="7" page="0" chnl="15" />
    <char id="411" x="243" y="51" width="8" height="10" xoffset="0" yoffset="3" xadvance="7" page="0" chnl="15" />
    <char id="412" x="59" y="74" width="8" height="9" xoffset="0" yoffset="4" xadvance="7" page="0" chnl="15" />
    <char id="413" x="389" y="26" width="9" height="11" xoffset="-1" yoffset="4" xadvance="7" page="0" chnl="15" />
    <char id="414" x="327" y="83" width="7" height="9" xoffset="0" yoffset="6" xadvance="7" page="0" chnl="15" />
    <char id="415" x="68" y="74" width="8" height="9" xoffset="0" yoffset="4" xadvance="7" page="0" chnl="15" />
    <char id="416" x="396" y="38" width="9" height="10" xoffset="0" yoffset="3" xadvance="7" page="0" chnl="15" />
    <char id="417" x="457" y="91" width="8" height="8" xoffset="0" yoffset="5" xadvance="7" page="0" chnl="15" />
    <char id="418" x="77" y="74" width="8" height="9" xoffset="0" yoffset="4" xadvance="7" page="0" chnl="15" />
    <char id="419" x="36" y="105" width="8" height="7" xoffset="0" yoffset="6" xadvance="7" page="0" chnl="15" />
    <char id="420" x="86" y="74" width="8" height="9" xoffset="0" yoffset="4" xadvance="7" page="0" chnl="15" />
    <char id="421" x="200" y="26" width="7" height="12" xoffset="0" yoffset="3" xadvance="7" page="0" chnl="15" />
    <char id="422" x="200" y="62" width="7" height="10" xoffset="0" yoffset="4" xadvance="7" page="0" chnl="15" />
    <char id="423" x="40" y="95" width="7" height="9" xoffset="0" yoffset="4" xadvance="7" page="0" chnl="15" />
    <char id="424" x="160" y="104" width="7" height="7" xoffset="0" yoffset="6" xadvance="7" page="0" chnl="15" />
    <char id="425" x="64" y="94" width="7" height="9" xoffset="0" yoffset="4" xadvance="7" page="0" chnl="15" />
    <char id="426" x="133" y="0" width="7" height="13" xoffset="0" yoffset="2" xadvance="7" page="0" chnl="15" />
    <char id="427" x="196" y="39" width="7" height="11" xoffset="0" yoffset="4" xadvance="7" page="0" chnl="15" />
    <char id="428" x="104" y="74" width="8" height="9" xoffset="0" yoffset="4" xadvance="7" page="0" chnl="15" />
    <char id="429" x="208" y="62" width="7" height="10" xoffset="0" yoffset="3" xadvance="7" page="0" chnl="15" />
    <char id="430" x="436" y="26" width="8" height="11" xoffset="0" yoffset="4" xadvance="7" page="0" chnl="15" />
    <char id="431" x="386" y="38" width="9" height="10" xoffset="0" yoffset="3" xadvance="7" page="0" chnl="15" />
    <char id="432" x="448" y="91" width="8" height="8" xoffset="0" yoffset="5" xadvance="7" page="0" chnl="15" />
    <char id="433" x="113" y="74" width="8" height="9" xoffset="0" yoffset="4" xadvance="7" page="0" chnl="15" />
    <char id="434" x="140" y="74" width="8" height="9" xoffset="0" yoffset="4" xadvance="7" page="0" chnl="15" />
    <char id="435" x="149" y="74" width="8" height="9" xoffset="0" yoffset="4" xadvance="7" page="0" chnl="15" />
    <char id="436" x="167" y="74" width="8" height="9" xoffset="0" yoffset="6" xadvance="7" page="0" chnl="15" />
    <char id="437" x="160" y="94" width="7" height="9" xoffset="0" yoffset="4" xadvance="7" page="0" chnl="15" />
    <char id="438" x="152" y="104" width="7" height="7" xoffset="0" yoffset="6" xadvance="7" page="0" chnl="15" />
    <char id="439" x="184" y="94" width="7" height="9" xoffset="0" yoffset="4" xadvance="7" page="0" chnl="15" />
    <char id="440" x="192" y="93" width="7" height="9" xoffset="0" yoffset="4" xadvance="7" page="0" chnl="15" />
    <char id="441" x="200" y="93" width="7" height="9" xoffset="0" yoffset="6" xadvance="7" page="0" chnl="15" />
    <char id="442" x="232" y="62" width="7" height="10" xoffset="0" yoffset="6" xadvance="7" page="0" chnl="15" />
    <char id="443" x="216" y="93" width="7" height="9" xoffset="0" yoffset="4" xadvance="7" page="0" chnl="15" />
    <char id="444" x="224" y="93" width="7" height="9" xoffset="0" yoffset="4" xadvance="7" page="0" chnl="15" />
    <char id="445" x="184" y="104" width="7" height="7" xoffset="0" yoffset="6" xadvance="7" page="0" chnl="15" />
    <char id="446" x="408" y="91" width="6" height="9" xoffset="1" yoffset="4" xadvance="7" page="0" chnl="15" />
    <char id="447" x="256" y="93" width="7" height="9" xoffset="0" yoffset="6" xadvance="7" page="0" chnl="15" />
    <char id="448" x="21" y="0" width="3" height="14" xoffset="2" yoffset="1" xadvance="7" page="0" chnl="15" />
    <char id="449" x="7" y="0" width="5" height="14" xoffset="1" yoffset="1" xadvance="7" page="0" chnl="15" />
    <char id="450" x="0" y="0" width="6" height="14" xoffset="1" yoffset="1" xadvance="7" page="0" chnl="15" />
    <char id="451" x="481" y="60" width="3" height="10" xoffset="2" yoffset="3" xadvance="7" page="0" chnl="15" />
    <char id="452" x="413" y="0" width="8" height="12" xoffset="0" yoffset="1" xadvance="7" page="0" chnl="15" />
    <char id="453" x="54" y="52" width="8" height="10" xoffset="0" yoffset="3" xadvance="7" page="0" chnl="15" />
    <char id="454" x="63" y="52" width="8" height="10" xoffset="0" yoffset="3" xadvance="7" page="0" chnl="15" />
    <char id="455" x="491" y="70" width="8" height="9" xoffset="0" yoffset="4" xadvance="7" page="0" chnl="15" />
    <char id="456" x="377" y="0" width="8" height="12" xoffset="0" yoffset="3" xadvance="7" page="0" chnl="15" />
    <char id="457" x="368" y="0" width="8" height="12" xoffset="0" yoffset="3" xadvance="7" page="0" chnl="15" />
    <char id="458" x="185" y="73" width="8" height="9" xoffset="0" yoffset="4" xadvance="7" page="0" chnl="15" />
    <char id="459" x="350" y="0" width="8" height="12" xoffset="0" yoffset="3" xadvance="7" page="0" chnl="15" />
    <char id="460" x="332" y="0" width="8" height="12" xoffset="0" yoffset="3" xadvance="7" page="0" chnl="15" />
    <char id="461" x="323" y="0" width="8" height="12" xoffset="0" yoffset="1" xadvance="7" page="0" chnl="15" />
    <char id="462" x="248" y="62" width="7" height="10" xoffset="0" yoffset="3" xadvance="7" page="0" chnl="15" />
    <char id="463" x="457" y="13" width="7" height="12" xoffset="0" yoffset="1" xadvance="7" page="0" chnl="15" />
    <char id="464" x="296" y="62" width="7" height="10" xoffset="0" yoffset="3" xadvance="7" page="0" chnl="15" />
    <char id="465" x="287" y="0" width="8" height="12" xoffset="0" yoffset="1" xadvance="7" page="0" chnl="15" />
    <char id="466" x="207" y="51" width="8" height="10" xoffset="0" yoffset="3" xadvance="7" page="0" chnl="15" />
    <char id="467" x="260" y="0" width="8" height="12" xoffset="0" yoffset="1" xadvance="7" page="0" chnl="15" />
    <char id="468" x="384" y="60" width="7" height="10" xoffset="0" yoffset="3" xadvance="7" page="0" chnl="15" />
    <char id="469" x="97" y="0" width="8" height="13" xoffset="0" yoffset="0" xadvance="7" page="0" chnl="15" />
    <char id="470" x="180" y="39" width="7" height="11" xoffset="0" yoffset="2" xadvance="7" page="0" chnl="15" />
    <char id="471" x="79" y="0" width="8" height="13" xoffset="0" yoffset="0" xadvance="7" page="0" chnl="15" />
    <char id="472" x="297" y="13" width="7" height="12" xoffset="0" yoffset="1" xadvance="7" page="0" chnl="15" />
    <char id="473" x="61" y="0" width="8" height="13" xoffset="0" yoffset="0" xadvance="7" page="0" chnl="15" />
    <char id="474" x="32" y="27" width="7" height="12" xoffset="0" yoffset="1" xadvance="7" page="0" chnl="15" />
    <char id="475" x="43" y="0" width="8" height="13" xoffset="0" yoffset="0" xadvance="7" page="0" chnl="15" />
    <char id="476" x="88" y="27" width="7" height="12" xoffset="0" yoffset="1" xadvance="7" page="0" chnl="15" />
    <char id="477" x="216" y="103" width="7" height="7" xoffset="0" yoffset="6" xadvance="7" page="0" chnl="15" />
    <char id="478" x="70" y="0" width="8" height="13" xoffset="0" yoffset="0" xadvance="7" page="0" chnl="15" />
    <char id="479" x="172" y="39" width="7" height="11" xoffset="0" yoffset="2" xadvance="7" page="0" chnl="15" />
    <char id="480" x="34" y="0" width="8" height="13" xoffset="0" yoffset="0" xadvance="7" page="0" chnl="15" />
    <char id="481" x="164" y="40" width="7" height="11" xoffset="0" yoffset="2" xadvance="7" page="0" chnl="15" />
    <char id="482" x="72" y="40" width="8" height="11" xoffset="0" yoffset="2" xadvance="7" page="0" chnl="15" />
    <char id="483" x="203" y="73" width="8" height="9" xoffset="0" yoffset="4" xadvance="7" page="0" chnl="15" />
    <char id="484" x="212" y="73" width="8" height="9" xoffset="0" yoffset="4" xadvance="7" page="0" chnl="15" />
    <char id="485" x="496" y="60" width="9" height="9" xoffset="0" yoffset="6" xadvance="7" page="0" chnl="15" />
    <char id="486" x="117" y="14" width="8" height="12" xoffset="0" yoffset="1" xadvance="7" page="0" chnl="15" />
    <char id="487" x="63" y="14" width="8" height="12" xoffset="0" yoffset="3" xadvance="7" page="0" chnl="15" />
    <char id="488" x="465" y="13" width="7" height="12" xoffset="0" yoffset="1" xadvance="7" page="0" chnl="15" />
    <char id="489" x="449" y="13" width="7" height="12" xoffset="0" yoffset="1" xadvance="7" page="0" chnl="15" />
    <char id="490" x="54" y="40" width="8" height="11" xoffset="0" yoffset="4" xadvance="7" page="0" chnl="15" />
    <char id="491" x="221" y="73" width="8" height="9" xoffset="0" yoffset="6" xadvance="7" page="0" chnl="15" />
    <char id="492" x="88" y="0" width="8" height="13" xoffset="0" yoffset="2" xadvance="7" page="0" chnl="15" />
    <char id="493" x="36" y="40" width="8" height="11" xoffset="0" yoffset="4" xadvance="7" page="0" chnl="15" />
    <char id="494" x="433" y="13" width="7" height="12" xoffset="0" yoffset="1" xadvance="7" page="0" chnl="15" />
    <char id="495" x="425" y="13" width="7" height="12" xoffset="0" yoffset="3" xadvance="7" page="0" chnl="15" />
    <char id="496" x="216" y="26" width="6" height="12" xoffset="0" yoffset="3" xadvance="7" page="0" chnl="15" />
    <char id="497" x="248" y="73" width="8" height="9" xoffset="0" yoffset="4" xadvance="7" page="0" chnl="15" />
    <char id="498" x="257" y="73" width="8" height="9" xoffset="0" yoffset="4" xadvance="7" page="0" chnl="15" />
    <char id="499" x="502" y="38" width="8" height="10" xoffset="0" yoffset="3" xadvance="7" page="0" chnl="15" />
    <char id="500" x="467" y="0" width="8" height="12" xoffset="0" yoffset="1" xadvance="7" page="0" chnl="15" />
    <char id="501" x="449" y="0" width="8" height="12" xoffset="0" yoffset="3" xadvance="7" page="0" chnl="15" />
    <char id="502" x="266" y="73" width="8" height="9" xoffset="0" yoffset="4" xadvance="7" page="0" chnl="15" />
    <char id="503" x="140" y="40" width="7" height="11" xoffset="0" yoffset="4" xadvance="7" page="0" chnl="15" />
    <char id="504" x="377" y="13" width="7" height="12" xoffset="0" yoffset="1" xadvance="7" page="0" chnl="15" />
    <char id="505" x="48" y="63" width="7" height="10" xoffset="0" yoffset="3" xadvance="7" page="0" chnl="15" />
    <char id="506" x="124" y="0" width="8" height="13" xoffset="0" yoffset="0" xadvance="7" page="0" chnl="15" />
    <char id="507" x="141" y="0" width="7" height="13" xoffset="0" yoffset="0" xadvance="7" page="0" chnl="15" />
    <char id="508" x="404" y="0" width="8" height="12" xoffset="0" yoffset="1" xadvance="7" page="0" chnl="15" />
    <char id="509" x="0" y="53" width="8" height="10" xoffset="0" yoffset="3" xadvance="7" page="0" chnl="15" />
    <char id="510" x="106" y="0" width="8" height="13" xoffset="0" yoffset="1" xadvance="7" page="0" chnl="15" />
    <char id="511" x="386" y="0" width="8" height="12" xoffset="0" yoffset="2" xadvance="7" page="0" chnl="15" />
    <char id="512" x="232" y="0" width="9" height="12" xoffset="-1" yoffset="1" xadvance="7" page="0" chnl="15" />
    <char id="513" x="99" y="52" width="8" height="10" xoffset="0" yoffset="3" xadvance="7" page="0" chnl="15" />
    <char id="514" x="359" y="0" width="8" height="12" xoffset="0" yoffset="1" xadvance="7" page="0" chnl="15" />
    <char id="515" x="498" y="49" width="7" height="10" xoffset="0" yoffset="3" xadvance="7" page="0" chnl="15" />
    <char id="516" x="341" y="0" width="8" height="12" xoffset="-1" yoffset="1" xadvance="7" page="0" chnl="15" />
    <char id="517" x="108" y="52" width="8" height="10" xoffset="0" yoffset="3" xadvance="7" page="0" chnl="15" />
    <char id="518" x="505" y="13" width="6" height="12" xoffset="1" yoffset="1" xadvance="7" page="0" chnl="15" />
    <char id="519" x="16" y="64" width="7" height="10" xoffset="0" yoffset="3" xadvance="7" page="0" chnl="15" />
    <char id="520" x="296" y="0" width="8" height="12" xoffset="-1" yoffset="1" xadvance="7" page="0" chnl="15" />
    <char id="521" x="144" y="52" width="8" height="10" xoffset="0" yoffset="3" xadvance="7" page="0" chnl="15" />
    <char id="522" x="321" y="13" width="7" height="12" xoffset="0" yoffset="1" xadvance="7" page="0" chnl="15" />
    <char id="523" x="56" y="63" width="7" height="10" xoffset="0" yoffset="3" xadvance="7" page="0" chnl="15" />
    <char id="524" x="192" y="0" width="9" height="12" xoffset="-1" yoffset="1" xadvance="7" page="0" chnl="15" />
    <char id="525" x="234" y="51" width="8" height="10" xoffset="0" yoffset="3" xadvance="7" page="0" chnl="15" />
    <char id="526" x="9" y="15" width="8" height="12" xoffset="0" yoffset="1" xadvance="7" page="0" chnl="15" />
    <char id="527" x="333" y="50" width="8" height="10" xoffset="0" yoffset="3" xadvance="7" page="0" chnl="15" />
    <char id="528" x="212" y="0" width="9" height="12" xoffset="-1" yoffset="1" xadvance="7" page="0" chnl="15" />
    <char id="529" x="9" y="53" width="8" height="10" xoffset="0" yoffset="3" xadvance="7" page="0" chnl="15" />
    <char id="530" x="385" y="13" width="7" height="12" xoffset="0" yoffset="1" xadvance="7" page="0" chnl="15" />
    <char id="531" x="466" y="49" width="7" height="10" xoffset="1" yoffset="3" xadvance="7" page="0" chnl="15" />
    <char id="532" x="172" y="0" width="9" height="12" xoffset="-1" yoffset="1" xadvance="7" page="0" chnl="15" />
    <char id="533" x="135" y="52" width="8" height="10" xoffset="0" yoffset="3" xadvance="7" page="0" chnl="15" />
    <char id="534" x="395" y="0" width="8" height="12" xoffset="0" yoffset="1" xadvance="7" page="0" chnl="15" />
    <char id="535" x="482" y="49" width="7" height="10" xoffset="0" yoffset="3" xadvance="7" page="0" chnl="15" />
    <char id="536" x="300" y="39" width="7" height="11" xoffset="0" yoffset="4" xadvance="7" page="0" chnl="15" />
    <char id="537" x="439" y="81" width="7" height="9" xoffset="0" yoffset="6" xadvance="7" page="0" chnl="15" />
    <char id="538" x="18" y="41" width="8" height="11" xoffset="0" yoffset="4" xadvance="7" page="0" chnl="15" />
    <char id="539" x="108" y="40" width="7" height="11" xoffset="0" yoffset="4" xadvance="7" page="0" chnl="15" />
    <char id="540" x="463" y="81" width="7" height="9" xoffset="0" yoffset="4" xadvance="7" page="0" chnl="15" />
    <char id="541" x="471" y="81" width="7" height="9" xoffset="0" yoffset="6" xadvance="7" page="0" chnl="15" />
    <char id="542" x="361" y="13" width="7" height="12" xoffset="0" yoffset="1" xadvance="7" page="0" chnl="15" />
    <char id="543" x="353" y="13" width="7" height="12" xoffset="0" yoffset="1" xadvance="7" page="0" chnl="15" />
    <char id="544" x="116" y="40" width="7" height="11" xoffset="0" yoffset="4" xadvance="7" page="0" chnl="15" />
    <char id="545" x="161" y="0" width="10" height="12" xoffset="0" yoffset="3" xadvance="7" page="0" chnl="15" />
    <char id="546" x="0" y="95" width="7" height="9" xoffset="0" yoffset="4" xadvance="7" page="0" chnl="15" />
    <char id="547" x="8" y="64" width="7" height="10" xoffset="0" yoffset="3" xadvance="7" page="0" chnl="15" />
    <char id="548" x="124" y="40" width="7" height="11" xoffset="0" yoffset="4" xadvance="7" page="0" chnl="15" />
    <char id="549" x="24" y="95" width="7" height="9" xoffset="0" yoffset="6" xadvance="7" page="0" chnl="15" />
    <char id="550" x="305" y="0" width="8" height="12" xoffset="0" yoffset="1" xadvance="7" page="0" chnl="15" />
    <char id="551" x="24" y="64" width="7" height="10" xoffset="0" yoffset="3" xadvance="7" page="0" chnl="15" />
    <char id="552" x="316" y="39" width="6" height="11" xoffset="1" yoffset="4" xadvance="7" page="0" chnl="15" />
    <char id="553" x="56" y="94" width="7" height="9" xoffset="0" yoffset="6" xadvance="7" page="0" chnl="15" />
    <char id="554" x="52" y="0" width="8" height="13" xoffset="0" yoffset="0" xadvance="7" page="0" chnl="15" />
    <char id="555" x="9" y="41" width="8" height="11" xoffset="0" yoffset="2" xadvance="7" page="0" chnl="15" />
    <char id="556" x="25" y="0" width="8" height="13" xoffset="0" yoffset="0" xadvance="7" page="0" chnl="15" />
    <char id="557" x="0" y="41" width="8" height="11" xoffset="0" yoffset="2" xadvance="7" page="0" chnl="15" />
    <char id="558" x="242" y="0" width="8" height="12" xoffset="0" yoffset="1" xadvance="7" page="0" chnl="15" />
    <char id="559" x="162" y="52" width="8" height="10" xoffset="0" yoffset="3" xadvance="7" page="0" chnl="15" />
    <char id="560" x="115" y="0" width="8" height="13" xoffset="0" yoffset="0" xadvance="7" page="0" chnl="15" />
    <char id="561" x="445" y="26" width="8" height="11" xoffset="0" yoffset="2" xadvance="7" page="0" chnl="15" />
    <char id="562" x="454" y="26" width="8" height="11" xoffset="0" yoffset="2" xadvance="7" page="0" chnl="15" />
    <char id="563" x="463" y="26" width="8" height="11" xoffset="0" yoffset="4" xadvance="7" page="0" chnl="15" />
    <char id="564" x="393" y="13" width="7" height="12" xoffset="1" yoffset="3" xadvance="7" page="0" chnl="15" />
    <char id="565" x="485" y="60" width="10" height="9" xoffset="0" yoffset="6" xadvance="7" page="0" chnl="15" />
    <char id="566" x="228" y="39" width="7" height="11" xoffset="0" yoffset="4" xadvance="7" page="0" chnl="15" />
    <char id="567" x="366" y="91" width="6" height="9" xoffset="0" yoffset="6" xadvance="7" page="0" chnl="15" />
    <char id="568" x="189" y="51" width="8" height="10" xoffset="0" yoffset="3" xadvance="7" page="0" chnl="15" />
    <char id="569" x="95" y="74" width="8" height="9" xoffset="0" yoffset="6" xadvance="7" page="0" chnl="15" />
    <char id="570" x="336" y="26" width="10" height="11" xoffset="-1" yoffset="3" xadvance="7" page="0" chnl="15" />
    <char id="571" x="347" y="26" width="10" height="11" xoffset="-1" yoffset="3" xadvance="7" page="0" chnl="15" />
    <char id="572" x="122" y="74" width="8" height="9" xoffset="0" yoffset="5" xadvance="7" page="0" chnl="15" />
    <char id="573" x="131" y="74" width="8" height="9" xoffset="0" yoffset="4" xadvance="7" page="0" chnl="15" />
    <char id="574" x="325" y="26" width="10" height="11" xoffset="-1" yoffset="3" xadvance="7" page="0" chnl="15" />
    <char id="575" x="232" y="93" width="7" height="9" xoffset="0" yoffset="6" xadvance="7" page="0" chnl="15" />
    <char id="576" x="240" y="93" width="7" height="9" xoffset="0" yoffset="6" xadvance="7" page="0" chnl="15" />
    <char id="577" x="460" y="60" width="6" height="10" xoffset="1" yoffset="3" xadvance="7" page="0" chnl="15" />
    <char id="578" x="505" y="90" width="6" height="7" xoffset="1" yoffset="6" xadvance="7" page="0" chnl="15" />
    <char id="579" x="158" y="74" width="8" height="9" xoffset="0" yoffset="4" xadvance="7" page="0" chnl="15" />
    <char id="580" x="0" y="75" width="9" height="9" xoffset="0" yoffset="4" xadvance="7" page="0" chnl="15" />
    <char id="581" x="176" y="74" width="8" height="9" xoffset="0" yoffset="4" xadvance="7" page="0" chnl="15" />
    <char id="582" x="358" y="26" width="10" height="11" xoffset="-1" yoffset="3" xadvance="7" page="0" chnl="15" />
    <char id="583" x="194" y="73" width="8" height="9" xoffset="0" yoffset="5" xadvance="7" page="0" chnl="15" />
    <char id="584" x="272" y="93" width="7" height="9" xoffset="1" yoffset="4" xadvance="7" page="0" chnl="15" />
    <char id="585" x="208" y="26" width="7" height="12" xoffset="0" yoffset="3" xadvance="7" page="0" chnl="15" />
    <char id="586" x="379" y="26" width="9" height="11" xoffset="0" yoffset="4" xadvance="7" page="0" chnl="15" />
    <char id="587" x="40" y="74" width="9" height="9" xoffset="0" yoffset="6" xadvance="7" page="0" chnl="15" />
    <char id="588" x="230" y="73" width="8" height="9" xoffset="0" yoffset="4" xadvance="7" page="0" chnl="15" />
    <char id="589" x="45" y="105" width="8" height="7" xoffset="0" yoffset="6" xadvance="7" page="0" chnl="15" />
    <char id="590" x="239" y="73" width="8" height="9" xoffset="0" yoffset="4" xadvance="7" page="0" chnl="15" />
    <char id="591" x="20" y="75" width="9" height="9" xoffset="0" yoffset="6" xadvance="7" page="0" chnl="15" />
    <char id="894" x="506" y="60" width="5" height="9" xoffset="1" yoffset="6" xadvance="7" page="0" chnl="15" />
    <char id="900" x="42" y="113" width="4" height="2" xoffset="2" yoffset="3" xadvance="7" page="0" chnl="15" />
    <char id="901" x="473" y="100" width="7" height="3" xoffset="0" yoffset="2" xadvance="7" page="0" chnl="15" />
    <char id="902" x="416" y="38" width="9" height="10" xoffset="0" yoffset="3" xadvance="7" page="0" chnl="15" />
    <char id="903" x="496" y="98" width="4" height="3" xoffset="2" yoffset="4" xadvance="7" page="0" chnl="15" />
    <char id="904" x="426" y="38" width="9" height="10" xoffset="-1" yoffset="3" xadvance="7" page="0" chnl="15" />
    <char id="905" x="344" y="38" width="10" height="10" xoffset="-2" yoffset="3" xadvance="7" page="0" chnl="15" />
    <char id="906" x="436" y="38" width="9" height="10" xoffset="-1" yoffset="3" xadvance="7" page="0" chnl="15" />
    <char id="908" x="446" y="38" width="9" height="10" xoffset="-1" yoffset="3" xadvance="7" page="0" chnl="15" />
    <char id="910" x="355" y="38" width="10" height="10" xoffset="-2" yoffset="3" xadvance="7" page="0" chnl="15" />
    <char id="911" x="456" y="38" width="9" height="10" xoffset="-1" yoffset="3" xadvance="7" page="0" chnl="15" />
    <char id="912" x="220" y="39" width="7" height="11" xoffset="0" yoffset="2" xadvance="7" page="0" chnl="15" />
    <char id="913" x="329" y="73" width="8" height="9" xoffset="0" yoffset="4" xadvance="7" page="0" chnl="15" />
    <char id="914" x="312" y="93" width="7" height="9" xoffset="0" yoffset="4" xadvance="7" page="0" chnl="15" />
    <char id="915" x="394" y="91" width="6" height="9" xoffset="1" yoffset="4" xadvance="7" page="0" chnl="15" />
    <char id="916" x="338" y="72" width="8" height="9" xoffset="0" yoffset="4" xadvance="7" page="0" chnl="15" />
    <char id="917" x="380" y="91" width="6" height="9" xoffset="1" yoffset="4" xadvance="7" page="0" chnl="15" />
    <char id="918" x="296" y="93" width="7" height="9" xoffset="0" yoffset="4" xadvance="7" page="0" chnl="15" />
    <char id="919" x="288" y="93" width="7" height="9" xoffset="0" yoffset="4" xadvance="7" page="0" chnl="15" />
    <char id="920" x="108" y="84" width="8" height="9" xoffset="0" yoffset="4" xadvance="7" page="0" chnl="15" />
    <char id="921" x="280" y="93" width="7" height="9" xoffset="0" yoffset="4" xadvance="7" page="0" chnl="15" />
    <char id="922" x="264" y="93" width="7" height="9" xoffset="0" yoffset="4" xadvance="7" page="0" chnl="15" />
    <char id="923" x="347" y="72" width="8" height="9" xoffset="0" yoffset="4" xadvance="7" page="0" chnl="15" />
    <char id="924" x="356" y="71" width="8" height="9" xoffset="0" yoffset="4" xadvance="7" page="0" chnl="15" />
    <char id="925" x="208" y="93" width="7" height="9" xoffset="0" yoffset="4" xadvance="7" page="0" chnl="15" />
    <char id="926" x="104" y="94" width="7" height="9" xoffset="0" yoffset="4" xadvance="7" page="0" chnl="15" />
    <char id="927" x="365" y="71" width="8" height="9" xoffset="0" yoffset="4" xadvance="7" page="0" chnl="15" />
    <char id="928" x="96" y="94" width="7" height="9" xoffset="0" yoffset="4" xadvance="7" page="0" chnl="15" />
    <char id="929" x="80" y="94" width="7" height="9" xoffset="0" yoffset="4" xadvance="7" page="0" chnl="15" />
    <char id="931" x="248" y="93" width="7" height="9" xoffset="0" yoffset="4" xadvance="7" page="0" chnl="15" />
    <char id="932" x="374" y="71" width="8" height="9" xoffset="0" yoffset="4" xadvance="7" page="0" chnl="15" />
    <char id="933" x="383" y="71" width="8" height="9" xoffset="0" yoffset="4" xadvance="7" page="0" chnl="15" />
    <char id="934" x="270" y="51" width="8" height="10" xoffset="0" yoffset="3" xadvance="7" page="0" chnl="15" />
    <char id="935" x="401" y="71" width="8" height="9" xoffset="0" yoffset="4" xadvance="7" page="0" chnl="15" />
    <char id="936" x="410" y="71" width="8" height="9" xoffset="0" yoffset="4" xadvance="7" page="0" chnl="15" />
    <char id="937" x="419" y="71" width="8" height="9" xoffset="0" yoffset="4" xadvance="7" page="0" chnl="15" />
    <char id="938" x="417" y="13" width="7" height="12" xoffset="0" yoffset="1" xadvance="7" page="0" chnl="15" />
    <char id="939" x="270" y="13" width="8" height="12" xoffset="0" yoffset="1" xadvance="7" page="0" chnl="15" />
    <char id="940" x="297" y="51" width="8" height="10" xoffset="0" yoffset="3" xadvance="7" page="0" chnl="15" />
    <char id="941" x="256" y="62" width="7" height="10" xoffset="0" yoffset="3" xadvance="7" page="0" chnl="15" />
    <char id="942" x="489" y="13" width="7" height="12" xoffset="0" yoffset="3" xadvance="7" page="0" chnl="15" />
    <char id="943" x="272" y="62" width="7" height="10" xoffset="0" yoffset="3" xadvance="7" page="0" chnl="15" />
    <char id="944" x="252" y="39" width="7" height="11" xoffset="0" yoffset="2" xadvance="7" page="0" chnl="15" />
    <char id="945" x="9" y="105" width="8" height="7" xoffset="0" yoffset="6" xadvance="7" page="0" chnl="15" />
    <char id="946" x="0" y="28" width="7" height="12" xoffset="0" yoffset="3" xadvance="7" page="0" chnl="15" />
    <char id="947" x="500" y="70" width="8" height="9" xoffset="0" yoffset="6" xadvance="7" page="0" chnl="15" />
    <char id="948" x="306" y="51" width="8" height="10" xoffset="0" yoffset="3" xadvance="7" page="0" chnl="15" />
    <char id="949" x="264" y="103" width="7" height="7" xoffset="0" yoffset="6" xadvance="7" page="0" chnl="15" />
    <char id="950" x="16" y="28" width="7" height="12" xoffset="0" yoffset="3" xadvance="7" page="0" chnl="15" />
    <char id="951" x="287" y="83" width="7" height="9" xoffset="0" yoffset="6" xadvance="7" page="0" chnl="15" />
    <char id="952" x="315" y="51" width="8" height="10" xoffset="0" yoffset="3" xadvance="7" page="0" chnl="15" />
    <char id="953" x="280" y="103" width="7" height="7" xoffset="0" yoffset="6" xadvance="7" page="0" chnl="15" />
    <char id="954" x="288" y="103" width="7" height="7" xoffset="0" yoffset="6" xadvance="7" page="0" chnl="15" />
    <char id="955" x="324" y="51" width="8" height="10" xoffset="0" yoffset="3" xadvance="7" page="0" chnl="15" />
    <char id="956" x="328" y="93" width="7" height="9" xoffset="0" yoffset="6" xadvance="7" page="0" chnl="15" />
    <char id="957" x="72" y="104" width="8" height="7" xoffset="0" yoffset="6" xadvance="7" page="0" chnl="15" />
    <char id="958" x="40" y="27" width="7" height="12" xoffset="0" yoffset="3" xadvance="7" page="0" chnl="15" />
    <char id="959" x="108" y="104" width="8" height="7" xoffset="0" yoffset="6" xadvance="7" page="0" chnl="15" />
    <char id="960" x="117" y="104" width="8" height="7" xoffset="0" yoffset="6" xadvance="7" page="0" chnl="15" />
    <char id="961" x="344" y="92" width="7" height="9" xoffset="0" yoffset="6" xadvance="7" page="0" chnl="15" />
    <char id="962" x="303" y="83" width="7" height="9" xoffset="0" yoffset="6" xadvance="7" page="0" chnl="15" />
    <char id="963" x="81" y="104" width="8" height="7" xoffset="0" yoffset="6" xadvance="7" page="0" chnl="15" />
    <char id="964" x="224" y="103" width="7" height="7" xoffset="0" yoffset="6" xadvance="7" page="0" chnl="15" />
    <char id="965" x="232" y="103" width="7" height="7" xoffset="0" yoffset="6" xadvance="7" page="0" chnl="15" />
    <char id="966" x="279" y="13" width="8" height="12" xoffset="0" yoffset="3" xadvance="7" page="0" chnl="15" />
    <char id="967" x="54" y="84" width="8" height="9" xoffset="0" yoffset="6" xadvance="7" page="0" chnl="15" />
    <char id="968" x="288" y="13" width="8" height="12" xoffset="0" yoffset="3" xadvance="7" page="0" chnl="15" />
    <char id="969" x="90" y="104" width="8" height="7" xoffset="0" yoffset="6" xadvance="7" page="0" chnl="15" />
    <char id="970" x="352" y="60" width="7" height="10" xoffset="0" yoffset="3" xadvance="7" page="0" chnl="15" />
    <char id="971" x="360" y="60" width="7" height="10" xoffset="0" yoffset="3" xadvance="7" page="0" chnl="15" />
    <char id="972" x="342" y="50" width="8" height="10" xoffset="0" yoffset="3" xadvance="7" page="0" chnl="15" />
    <char id="973" x="376" y="60" width="7" height="10" xoffset="0" yoffset="3" xadvance="7" page="0" chnl="15" />
    <char id="974" x="351" y="49" width="8" height="10" xoffset="0" yoffset="3" xadvance="7" page="0" chnl="15" />
    <char id="8355" x="431" y="81" width="7" height="9" xoffset="0" yoffset="4" xadvance="7" page="0" chnl="15" />
    <char id="8356" x="447" y="81" width="7" height="9" xoffset="0" yoffset="4" xadvance="7" page="0" chnl="15" />
    <char id="8359" x="117" y="84" width="8" height="9" xoffset="0" yoffset="4" xadvance="7" page="0" chnl="15" />
    <char id="8364" x="479" y="81" width="7" height="9" xoffset="0" yoffset="4" xadvance="7" page="0" chnl="15" />
    <char id="8706" x="392" y="60" width="7" height="10" xoffset="0" yoffset="3" xadvance="7" page="0" chnl="15" />
    <char id="8710" x="135" y="84" width="8" height="9" xoffset="0" yoffset="4" xadvance="7" page="0" chnl="15" />
    <char id="8719" x="99" y="40" width="8" height="11" xoffset="0" yoffset="3" xadvance="7" page="0" chnl="15" />
    <char id="8721" x="308" y="39" width="7" height="11" xoffset="0" yoffset="3" xadvance="7" page="0" chnl="15" />
    <char id="8722" x="10" y="113" width="7" height="2" xoffset="0" yoffset="8" xadvance="7" page="0" chnl="15" />
    <char id="8725" x="360" y="49" width="8" height="10" xoffset="0" yoffset="3" xadvance="7" page="0" chnl="15" />
    <char id="8729" x="486" y="100" width="4" height="3" xoffset="2" yoffset="7" xadvance="7" page="0" chnl="15" />
    <char id="8730" x="369" y="49" width="8" height="10" xoffset="0" yoffset="3" xadvance="7" page="0" chnl="15" />
    <char id="8734" x="390" y="101" width="9" height="5" xoffset="0" yoffset="6" xadvance="7" page="0" chnl="15" />
    <char id="8747" x="48" y="27" width="7" height="12" xoffset="0" yoffset="3" xadvance="7" page="0" chnl="15" />
    <char id="8776" x="338" y="103" width="7" height="6" xoffset="0" yoffset="6" xadvance="7" page="0" chnl="15" />
    <char id="8800" x="474" y="91" width="7" height="8" xoffset="0" yoffset="5" xadvance="7" page="0" chnl="15" />
    <char id="8804" x="120" y="94" width="7" height="9" xoffset="0" yoffset="4" xadvance="7" page="0" chnl="15" />
    <char id="8805" x="168" y="94" width="7" height="9" xoffset="0" yoffset="4" xadvance="7" page="0" chnl="15" />
    <char id="9633" x="272" y="103" width="7" height="7" xoffset="0" yoffset="6" xadvance="7" page="0" chnl="15" />
    <char id="9642" x="453" y="100" width="5" height="4" xoffset="1" yoffset="7" xadvance="7" page="0" chnl="15" />
    <char id="9643" x="459" y="100" width="4" height="4" xoffset="2" yoffset="6" xadvance="7" page="0" chnl="15" />
    <char id="9674" x="189" y="83" width="8" height="9" xoffset="0" yoffset="4" xadvance="7" page="0" chnl="15" />
    <char id="9679" x="330" y="103" width="7" height="6" xoffset="0" yoffset="6" xadvance="7" page="0" chnl="15" />
    <char id="9702" x="464" y="100" width="4" height="4" xoffset="1" yoffset="6" xadvance="7" page="0" chnl="15" />
  </chars>
</font>
