<?xml version="1.0"?>
<font>
  <info face="Consolas" size="32" bold="0" italic="0" charset="" unicode="1" stretchH="100" smooth="1" aa="2" padding="0,0,0,0" spacing="1,1" outline="0"/>
  <common lineHeight="32" base="25" scaleW="512" scaleH="512" pages="1" packed="0" alphaChnl="0" redChnl="4" greenChnl="4" blueChnl="4"/>
  <pages>
    <page id="0" file="Consolas_32_0.png" />
  </pages>
  <chars count="625">
    <char id="-1" x="445" y="289" width="13" height="18" xoffset="1" yoffset="7" xadvance="15" page="0" chnl="15" />
    <char id="32" x="509" y="97" width="2" height="1" xoffset="0" yoffset="31" xadvance="15" page="0" chnl="15" />
    <char id="33" x="506" y="76" width="4" height="20" xoffset="5" yoffset="6" xadvance="15" page="0" chnl="15" />
    <char id="34" x="295" y="347" width="9" height="7" xoffset="3" yoffset="6" xadvance="15" page="0" chnl="15" />
    <char id="35" x="269" y="274" width="15" height="18" xoffset="0" yoffset="7" xadvance="15" page="0" chnl="15" />
    <char id="36" x="60" y="104" width="13" height="23" xoffset="1" yoffset="5" xadvance="15" page="0" chnl="15" />
    <char id="37" x="58" y="153" width="15" height="21" xoffset="0" yoffset="5" xadvance="15" page="0" chnl="15" />
    <char id="38" x="450" y="147" width="15" height="20" xoffset="0" yoffset="6" xadvance="15" page="0" chnl="15" />
    <char id="39" x="506" y="226" width="4" height="7" xoffset="5" yoffset="6" xadvance="15" page="0" chnl="15" />
    <char id="40" x="286" y="0" width="9" height="26" xoffset="3" yoffset="5" xadvance="15" page="0" chnl="15" />
    <char id="41" x="296" y="0" width="9" height="26" xoffset="3" yoffset="5" xadvance="15" page="0" chnl="15" />
    <char id="42" x="103" y="352" width="11" height="12" xoffset="2" yoffset="6" xadvance="15" page="0" chnl="15" />
    <char id="43" x="24" y="353" width="14" height="13" xoffset="0" yoffset="11" xadvance="15" page="0" chnl="15" />
    <char id="44" x="196" y="348" width="8" height="10" xoffset="2" yoffset="20" xadvance="15" page="0" chnl="15" />
    <char id="45" x="413" y="342" width="9" height="2" xoffset="3" yoffset="17" xadvance="15" page="0" chnl="15" />
    <char id="46" x="505" y="325" width="5" height="5" xoffset="5" yoffset="21" xadvance="15" page="0" chnl="15" />
    <char id="47" x="439" y="124" width="12" height="22" xoffset="1" yoffset="6" xadvance="15" page="0" chnl="15" />
    <char id="48" x="366" y="231" width="13" height="19" xoffset="1" yoffset="7" xadvance="15" page="0" chnl="15" />
    <char id="49" x="251" y="312" width="12" height="18" xoffset="1" yoffset="7" xadvance="15" page="0" chnl="15" />
    <char id="50" x="305" y="293" width="13" height="18" xoffset="1" yoffset="7" xadvance="15" page="0" chnl="15" />
    <char id="51" x="425" y="250" width="12" height="19" xoffset="2" yoffset="7" xadvance="15" page="0" chnl="15" />
    <char id="52" x="221" y="274" width="15" height="18" xoffset="0" yoffset="7" xadvance="15" page="0" chnl="15" />
    <char id="53" x="438" y="250" width="12" height="19" xoffset="2" yoffset="7" xadvance="15" page="0" chnl="15" />
    <char id="54" x="352" y="231" width="13" height="19" xoffset="1" yoffset="7" xadvance="15" page="0" chnl="15" />
    <char id="55" x="291" y="293" width="13" height="18" xoffset="1" yoffset="7" xadvance="15" page="0" chnl="15" />
    <char id="56" x="112" y="256" width="13" height="19" xoffset="1" yoffset="7" xadvance="15" page="0" chnl="15" />
    <char id="57" x="224" y="312" width="13" height="18" xoffset="1" yoffset="7" xadvance="15" page="0" chnl="15" />
    <char id="58" x="505" y="210" width="5" height="15" xoffset="5" yoffset="11" xadvance="15" page="0" chnl="15" />
    <char id="59" x="35" y="279" width="7" height="19" xoffset="3" yoffset="11" xadvance="15" page="0" chnl="15" />
    <char id="60" x="494" y="308" width="11" height="16" xoffset="1" yoffset="10" xadvance="15" page="0" chnl="15" />
    <char id="61" x="282" y="347" width="12" height="7" xoffset="1" yoffset="14" xadvance="15" page="0" chnl="15" />
    <char id="62" x="0" y="337" width="11" height="16" xoffset="2" yoffset="10" xadvance="15" page="0" chnl="15" />
    <char id="63" x="318" y="213" width="9" height="20" xoffset="3" yoffset="6" xadvance="15" page="0" chnl="15" />
    <char id="64" x="60" y="0" width="16" height="26" xoffset="0" yoffset="5" xadvance="15" page="0" chnl="15" />
    <char id="65" x="51" y="279" width="16" height="18" xoffset="0" yoffset="7" xadvance="15" page="0" chnl="15" />
    <char id="66" x="196" y="313" width="13" height="18" xoffset="1" yoffset="7" xadvance="15" page="0" chnl="15" />
    <char id="67" x="42" y="259" width="13" height="19" xoffset="1" yoffset="7" xadvance="15" page="0" chnl="15" />
    <char id="68" x="96" y="297" width="14" height="18" xoffset="1" yoffset="7" xadvance="15" page="0" chnl="15" />
    <char id="69" x="276" y="312" width="11" height="18" xoffset="2" yoffset="7" xadvance="15" page="0" chnl="15" />
    <char id="70" x="300" y="312" width="11" height="18" xoffset="2" yoffset="7" xadvance="15" page="0" chnl="15" />
    <char id="71" x="219" y="234" width="14" height="19" xoffset="0" yoffset="7" xadvance="15" page="0" chnl="15" />
    <char id="72" x="182" y="313" width="13" height="18" xoffset="1" yoffset="7" xadvance="15" page="0" chnl="15" />
    <char id="73" x="312" y="312" width="11" height="18" xoffset="2" yoffset="7" xadvance="15" page="0" chnl="15" />
    <char id="74" x="24" y="279" width="10" height="19" xoffset="2" yoffset="7" xadvance="15" page="0" chnl="15" />
    <char id="75" x="168" y="314" width="13" height="18" xoffset="1" yoffset="7" xadvance="15" page="0" chnl="15" />
    <char id="76" x="372" y="310" width="11" height="18" xoffset="2" yoffset="7" xadvance="15" page="0" chnl="15" />
    <char id="77" x="365" y="271" width="15" height="18" xoffset="0" yoffset="7" xadvance="15" page="0" chnl="15" />
    <char id="78" x="140" y="314" width="13" height="18" xoffset="1" yoffset="7" xadvance="15" page="0" chnl="15" />
    <char id="79" x="204" y="234" width="14" height="19" xoffset="0" yoffset="7" xadvance="15" page="0" chnl="15" />
    <char id="80" x="126" y="314" width="13" height="18" xoffset="1" yoffset="7" xadvance="15" page="0" chnl="15" />
    <char id="81" x="396" y="76" width="15" height="23" xoffset="0" yoffset="7" xadvance="15" page="0" chnl="15" />
    <char id="82" x="112" y="315" width="13" height="18" xoffset="2" yoffset="7" xadvance="15" page="0" chnl="15" />
    <char id="83" x="450" y="230" width="13" height="19" xoffset="1" yoffset="7" xadvance="15" page="0" chnl="15" />
    <char id="84" x="216" y="293" width="14" height="18" xoffset="0" yoffset="7" xadvance="15" page="0" chnl="15" />
    <char id="85" x="14" y="259" width="13" height="19" xoffset="1" yoffset="7" xadvance="15" page="0" chnl="15" />
    <char id="86" x="85" y="278" width="16" height="18" xoffset="0" yoffset="7" xadvance="15" page="0" chnl="15" />
    <char id="87" x="429" y="270" width="15" height="18" xoffset="0" yoffset="7" xadvance="15" page="0" chnl="15" />
    <char id="88" x="445" y="270" width="15" height="18" xoffset="0" yoffset="7" xadvance="15" page="0" chnl="15" />
    <char id="89" x="187" y="275" width="16" height="18" xoffset="0" yoffset="7" xadvance="15" page="0" chnl="15" />
    <char id="90" x="98" y="316" width="13" height="18" xoffset="1" yoffset="7" xadvance="15" page="0" chnl="15" />
    <char id="91" x="315" y="0" width="7" height="26" xoffset="4" yoffset="5" xadvance="15" page="0" chnl="15" />
    <char id="92" x="452" y="124" width="12" height="22" xoffset="2" yoffset="6" xadvance="15" page="0" chnl="15" />
    <char id="93" x="306" y="0" width="8" height="26" xoffset="3" yoffset="5" xadvance="15" page="0" chnl="15" />
    <char id="94" x="221" y="348" width="13" height="9" xoffset="1" yoffset="7" xadvance="15" page="0" chnl="15" />
    <char id="95" x="363" y="346" width="16" height="3" xoffset="0" yoffset="28" xadvance="15" page="0" chnl="15" />
    <char id="96" x="341" y="346" width="7" height="4" xoffset="2" yoffset="6" xadvance="15" page="0" chnl="15" />
    <char id="97" x="281" y="331" width="12" height="15" xoffset="1" yoffset="11" xadvance="15" page="0" chnl="15" />
    <char id="98" x="208" y="213" width="12" height="20" xoffset="2" yoffset="6" xadvance="15" page="0" chnl="15" />
    <char id="99" x="268" y="331" width="12" height="15" xoffset="1" yoffset="11" xadvance="15" page="0" chnl="15" />
    <char id="100" x="195" y="213" width="12" height="20" xoffset="1" yoffset="6" xadvance="15" page="0" chnl="15" />
    <char id="101" x="134" y="333" width="13" height="15" xoffset="1" yoffset="11" xadvance="15" page="0" chnl="15" />
    <char id="102" x="156" y="172" width="14" height="20" xoffset="0" yoffset="5" xadvance="15" page="0" chnl="15" />
    <char id="103" x="171" y="172" width="14" height="20" xoffset="1" yoffset="11" xadvance="15" page="0" chnl="15" />
    <char id="104" x="451" y="250" width="12" height="19" xoffset="2" yoffset="6" xadvance="15" page="0" chnl="15" />
    <char id="105" x="464" y="250" width="12" height="19" xoffset="2" yoffset="6" xadvance="15" page="0" chnl="15" />
    <char id="106" x="252" y="27" width="11" height="25" xoffset="1" yoffset="6" xadvance="15" page="0" chnl="15" />
    <char id="107" x="408" y="230" width="13" height="19" xoffset="2" yoffset="6" xadvance="15" page="0" chnl="15" />
    <char id="108" x="477" y="250" width="12" height="19" xoffset="2" yoffset="6" xadvance="15" page="0" chnl="15" />
    <char id="109" x="425" y="326" width="13" height="14" xoffset="1" yoffset="11" xadvance="15" page="0" chnl="15" />
    <char id="110" x="479" y="326" width="12" height="14" xoffset="2" yoffset="11" xadvance="15" page="0" chnl="15" />
    <char id="111" x="162" y="333" width="13" height="15" xoffset="1" yoffset="11" xadvance="15" page="0" chnl="15" />
    <char id="112" x="297" y="192" width="12" height="20" xoffset="2" yoffset="11" xadvance="15" page="0" chnl="15" />
    <char id="113" x="323" y="190" width="12" height="20" xoffset="1" yoffset="11" xadvance="15" page="0" chnl="15" />
    <char id="114" x="492" y="325" width="12" height="14" xoffset="2" yoffset="11" xadvance="15" page="0" chnl="15" />
    <char id="115" x="294" y="331" width="11" height="15" xoffset="2" yoffset="11" xadvance="15" page="0" chnl="15" />
    <char id="116" x="338" y="232" width="13" height="19" xoffset="0" yoffset="7" xadvance="15" page="0" chnl="15" />
    <char id="117" x="242" y="331" width="12" height="15" xoffset="2" yoffset="11" xadvance="15" page="0" chnl="15" />
    <char id="118" x="381" y="329" width="14" height="14" xoffset="0" yoffset="11" xadvance="15" page="0" chnl="15" />
    <char id="119" x="318" y="331" width="15" height="14" xoffset="0" yoffset="11" xadvance="15" page="0" chnl="15" />
    <char id="120" x="366" y="331" width="14" height="14" xoffset="0" yoffset="11" xadvance="15" page="0" chnl="15" />
    <char id="121" x="186" y="171" width="14" height="20" xoffset="0" yoffset="11" xadvance="15" page="0" chnl="15" />
    <char id="122" x="0" y="354" width="12" height="14" xoffset="2" yoffset="11" xadvance="15" page="0" chnl="15" />
    <char id="123" x="274" y="0" width="11" height="26" xoffset="2" yoffset="5" xadvance="15" page="0" chnl="15" />
    <char id="124" x="23" y="0" width="3" height="28" xoffset="6" yoffset="3" xadvance="15" page="0" chnl="15" />
    <char id="125" x="262" y="0" width="11" height="26" xoffset="2" yoffset="5" xadvance="15" page="0" chnl="15" />
    <char id="126" x="313" y="347" width="14" height="6" xoffset="0" yoffset="15" xadvance="15" page="0" chnl="15" />
    <char id="160" x="506" y="97" width="2" height="1" xoffset="0" yoffset="31" xadvance="15" page="0" chnl="15" />
    <char id="161" x="346" y="211" width="4" height="20" xoffset="5" yoffset="11" xadvance="15" page="0" chnl="15" />
    <char id="162" x="65" y="78" width="11" height="24" xoffset="1" yoffset="5" xadvance="15" page="0" chnl="15" />
    <char id="163" x="375" y="290" width="13" height="18" xoffset="1" yoffset="7" xadvance="15" page="0" chnl="15" />
    <char id="164" x="480" y="308" width="13" height="16" xoffset="1" yoffset="8" xadvance="15" page="0" chnl="15" />
    <char id="165" x="156" y="295" width="14" height="18" xoffset="0" yoffset="7" xadvance="15" page="0" chnl="15" />
    <char id="166" x="27" y="0" width="3" height="28" xoffset="6" yoffset="3" xadvance="15" page="0" chnl="15" />
    <char id="167" x="499" y="51" width="12" height="24" xoffset="1" yoffset="5" xadvance="15" page="0" chnl="15" />
    <char id="168" x="393" y="344" width="10" height="3" xoffset="3" yoffset="6" xadvance="15" page="0" chnl="15" />
    <char id="169" x="48" y="239" width="15" height="19" xoffset="0" yoffset="7" xadvance="15" page="0" chnl="15" />
    <char id="170" x="67" y="353" width="10" height="13" xoffset="2" yoffset="7" xadvance="15" page="0" chnl="15" />
    <char id="171" x="161" y="349" width="12" height="11" xoffset="1" yoffset="12" xadvance="15" page="0" chnl="15" />
    <char id="172" x="268" y="347" width="13" height="7" xoffset="1" yoffset="16" xadvance="15" page="0" chnl="15" />
    <char id="173" x="423" y="342" width="9" height="2" xoffset="3" yoffset="17" xadvance="15" page="0" chnl="15" />
    <char id="174" x="53" y="353" width="13" height="13" xoffset="1" yoffset="5" xadvance="15" page="0" chnl="15" />
    <char id="175" x="404" y="343" width="8" height="3" xoffset="3" yoffset="6" xadvance="15" page="0" chnl="15" />
    <char id="176" x="185" y="349" width="10" height="10" xoffset="2" yoffset="5" xadvance="15" page="0" chnl="15" />
    <char id="177" x="440" y="308" width="13" height="17" xoffset="1" yoffset="8" xadvance="15" page="0" chnl="15" />
    <char id="178" x="115" y="351" width="9" height="12" xoffset="3" yoffset="5" xadvance="15" page="0" chnl="15" />
    <char id="179" x="125" y="350" width="9" height="12" xoffset="3" yoffset="5" xadvance="15" page="0" chnl="15" />
    <char id="180" x="349" y="346" width="7" height="4" xoffset="6" yoffset="6" xadvance="15" page="0" chnl="15" />
    <char id="181" x="497" y="168" width="13" height="20" xoffset="2" yoffset="11" xadvance="15" page="0" chnl="15" />
    <char id="182" x="354" y="100" width="13" height="23" xoffset="1" yoffset="6" xadvance="15" page="0" chnl="15" />
    <char id="183" x="506" y="234" width="5" height="5" xoffset="5" yoffset="15" xadvance="15" page="0" chnl="15" />
    <char id="184" x="506" y="314" width="4" height="4" xoffset="5" yoffset="25" xadvance="15" page="0" chnl="15" />
    <char id="185" x="174" y="349" width="10" height="11" xoffset="2" yoffset="6" xadvance="15" page="0" chnl="15" />
    <char id="186" x="78" y="352" width="10" height="13" xoffset="2" yoffset="7" xadvance="15" page="0" chnl="15" />
    <char id="187" x="135" y="349" width="12" height="11" xoffset="2" yoffset="12" xadvance="15" page="0" chnl="15" />
    <char id="188" x="32" y="175" width="15" height="20" xoffset="0" yoffset="5" xadvance="15" page="0" chnl="15" />
    <char id="189" x="80" y="238" width="15" height="19" xoffset="0" yoffset="6" xadvance="15" page="0" chnl="15" />
    <char id="190" x="16" y="176" width="15" height="20" xoffset="0" yoffset="5" xadvance="15" page="0" chnl="15" />
    <char id="191" x="328" y="211" width="9" height="20" xoffset="2" yoffset="11" xadvance="15" page="0" chnl="15" />
    <char id="192" x="158" y="78" width="16" height="23" xoffset="0" yoffset="2" xadvance="15" page="0" chnl="15" />
    <char id="193" x="175" y="78" width="16" height="23" xoffset="0" yoffset="2" xadvance="15" page="0" chnl="15" />
    <char id="194" x="192" y="78" width="16" height="23" xoffset="0" yoffset="2" xadvance="15" page="0" chnl="15" />
    <char id="195" x="209" y="78" width="16" height="23" xoffset="0" yoffset="2" xadvance="15" page="0" chnl="15" />
    <char id="196" x="226" y="78" width="16" height="23" xoffset="0" yoffset="2" xadvance="15" page="0" chnl="15" />
    <char id="197" x="281" y="27" width="16" height="24" xoffset="0" yoffset="1" xadvance="15" page="0" chnl="15" />
    <char id="198" x="119" y="276" width="16" height="18" xoffset="-1" yoffset="7" xadvance="15" page="0" chnl="15" />
    <char id="199" x="397" y="124" width="13" height="22" xoffset="1" yoffset="7" xadvance="15" page="0" chnl="15" />
    <char id="200" x="96" y="127" width="11" height="23" xoffset="2" yoffset="2" xadvance="15" page="0" chnl="15" />
    <char id="201" x="36" y="129" width="11" height="23" xoffset="2" yoffset="2" xadvance="15" page="0" chnl="15" />
    <char id="202" x="473" y="100" width="11" height="23" xoffset="2" yoffset="2" xadvance="15" page="0" chnl="15" />
    <char id="203" x="168" y="126" width="11" height="23" xoffset="2" yoffset="2" xadvance="15" page="0" chnl="15" />
    <char id="204" x="72" y="128" width="11" height="23" xoffset="2" yoffset="2" xadvance="15" page="0" chnl="15" />
    <char id="205" x="497" y="100" width="11" height="23" xoffset="2" yoffset="2" xadvance="15" page="0" chnl="15" />
    <char id="206" x="60" y="128" width="11" height="23" xoffset="2" yoffset="2" xadvance="15" page="0" chnl="15" />
    <char id="207" x="84" y="127" width="11" height="23" xoffset="2" yoffset="2" xadvance="15" page="0" chnl="15" />
    <char id="208" x="397" y="271" width="15" height="18" xoffset="0" yoffset="7" xadvance="15" page="0" chnl="15" />
    <char id="209" x="144" y="102" width="13" height="23" xoffset="1" yoffset="2" xadvance="15" page="0" chnl="15" />
    <char id="210" x="362" y="26" width="14" height="24" xoffset="0" yoffset="2" xadvance="15" page="0" chnl="15" />
    <char id="211" x="497" y="26" width="14" height="24" xoffset="0" yoffset="2" xadvance="15" page="0" chnl="15" />
    <char id="212" x="452" y="26" width="14" height="24" xoffset="0" yoffset="2" xadvance="15" page="0" chnl="15" />
    <char id="213" x="437" y="26" width="14" height="24" xoffset="0" yoffset="2" xadvance="15" page="0" chnl="15" />
    <char id="214" x="377" y="26" width="14" height="24" xoffset="0" yoffset="2" xadvance="15" page="0" chnl="15" />
    <char id="215" x="148" y="349" width="12" height="11" xoffset="1" yoffset="12" xadvance="15" page="0" chnl="15" />
    <char id="216" x="0" y="55" width="14" height="24" xoffset="0" yoffset="4" xadvance="15" page="0" chnl="15" />
    <char id="217" x="135" y="53" width="13" height="24" xoffset="1" yoffset="2" xadvance="15" page="0" chnl="15" />
    <char id="218" x="261" y="53" width="13" height="24" xoffset="1" yoffset="2" xadvance="15" page="0" chnl="15" />
    <char id="219" x="457" y="51" width="13" height="24" xoffset="1" yoffset="2" xadvance="15" page="0" chnl="15" />
    <char id="220" x="345" y="51" width="13" height="24" xoffset="1" yoffset="2" xadvance="15" page="0" chnl="15" />
    <char id="221" x="311" y="77" width="16" height="23" xoffset="0" yoffset="2" xadvance="15" page="0" chnl="15" />
    <char id="222" x="487" y="289" width="13" height="18" xoffset="1" yoffset="7" xadvance="15" page="0" chnl="15" />
    <char id="223" x="166" y="150" width="13" height="21" xoffset="1" yoffset="5" xadvance="15" page="0" chnl="15" />
    <char id="224" x="0" y="218" width="12" height="20" xoffset="1" yoffset="6" xadvance="15" page="0" chnl="15" />
    <char id="225" x="479" y="189" width="12" height="20" xoffset="1" yoffset="6" xadvance="15" page="0" chnl="15" />
    <char id="226" x="427" y="189" width="12" height="20" xoffset="1" yoffset="6" xadvance="15" page="0" chnl="15" />
    <char id="227" x="276" y="149" width="12" height="21" xoffset="1" yoffset="5" xadvance="15" page="0" chnl="15" />
    <char id="228" x="284" y="192" width="12" height="20" xoffset="1" yoffset="6" xadvance="15" page="0" chnl="15" />
    <char id="229" x="289" y="149" width="12" height="21" xoffset="1" yoffset="5" xadvance="15" page="0" chnl="15" />
    <char id="230" x="12" y="337" width="15" height="15" xoffset="0" yoffset="11" xadvance="15" page="0" chnl="15" />
    <char id="231" x="238" y="312" width="12" height="18" xoffset="1" yoffset="11" xadvance="15" page="0" chnl="15" />
    <char id="232" x="245" y="171" width="13" height="20" xoffset="1" yoffset="6" xadvance="15" page="0" chnl="15" />
    <char id="233" x="498" y="147" width="13" height="20" xoffset="1" yoffset="6" xadvance="15" page="0" chnl="15" />
    <char id="234" x="441" y="168" width="13" height="20" xoffset="1" yoffset="6" xadvance="15" page="0" chnl="15" />
    <char id="235" x="399" y="168" width="13" height="20" xoffset="1" yoffset="6" xadvance="15" page="0" chnl="15" />
    <char id="236" x="126" y="256" width="12" height="19" xoffset="2" yoffset="6" xadvance="15" page="0" chnl="15" />
    <char id="237" x="139" y="256" width="12" height="19" xoffset="2" yoffset="6" xadvance="15" page="0" chnl="15" />
    <char id="238" x="152" y="256" width="12" height="19" xoffset="2" yoffset="6" xadvance="15" page="0" chnl="15" />
    <char id="239" x="165" y="255" width="12" height="19" xoffset="2" yoffset="6" xadvance="15" page="0" chnl="15" />
    <char id="240" x="287" y="171" width="13" height="20" xoffset="1" yoffset="6" xadvance="15" page="0" chnl="15" />
    <char id="241" x="193" y="192" width="12" height="20" xoffset="2" yoffset="5" xadvance="15" page="0" chnl="15" />
    <char id="242" x="413" y="168" width="13" height="20" xoffset="1" yoffset="6" xadvance="15" page="0" chnl="15" />
    <char id="243" x="329" y="169" width="13" height="20" xoffset="1" yoffset="6" xadvance="15" page="0" chnl="15" />
    <char id="244" x="483" y="168" width="13" height="20" xoffset="1" yoffset="6" xadvance="15" page="0" chnl="15" />
    <char id="245" x="208" y="149" width="13" height="21" xoffset="1" yoffset="5" xadvance="15" page="0" chnl="15" />
    <char id="246" x="0" y="197" width="13" height="20" xoffset="1" yoffset="6" xadvance="15" page="0" chnl="15" />
    <char id="247" x="91" y="336" width="14" height="15" xoffset="0" yoffset="10" xadvance="15" page="0" chnl="15" />
    <char id="248" x="14" y="197" width="13" height="20" xoffset="1" yoffset="8" xadvance="15" page="0" chnl="15" />
    <char id="249" x="336" y="190" width="12" height="20" xoffset="2" yoffset="6" xadvance="15" page="0" chnl="15" />
    <char id="250" x="258" y="192" width="12" height="20" xoffset="2" yoffset="6" xadvance="15" page="0" chnl="15" />
    <char id="251" x="13" y="218" width="12" height="20" xoffset="2" yoffset="6" xadvance="15" page="0" chnl="15" />
    <char id="252" x="26" y="218" width="12" height="20" xoffset="2" yoffset="6" xadvance="15" page="0" chnl="15" />
    <char id="253" x="486" y="0" width="14" height="25" xoffset="0" yoffset="6" xadvance="15" page="0" chnl="15" />
    <char id="254" x="175" y="27" width="12" height="25" xoffset="2" yoffset="6" xadvance="15" page="0" chnl="15" />
    <char id="255" x="456" y="0" width="14" height="25" xoffset="0" yoffset="6" xadvance="15" page="0" chnl="15" />
    <char id="256" x="256" y="126" width="16" height="22" xoffset="0" yoffset="3" xadvance="15" page="0" chnl="15" />
    <char id="257" x="39" y="218" width="12" height="20" xoffset="1" yoffset="6" xadvance="15" page="0" chnl="15" />
    <char id="258" x="260" y="78" width="16" height="23" xoffset="0" yoffset="2" xadvance="15" page="0" chnl="15" />
    <char id="259" x="52" y="217" width="12" height="20" xoffset="1" yoffset="6" xadvance="15" page="0" chnl="15" />
    <char id="260" x="277" y="77" width="16" height="23" xoffset="0" yoffset="7" xadvance="15" page="0" chnl="15" />
    <char id="261" x="394" y="230" width="13" height="19" xoffset="1" yoffset="11" xadvance="15" page="0" chnl="15" />
    <char id="262" x="415" y="51" width="13" height="24" xoffset="1" yoffset="2" xadvance="15" page="0" chnl="15" />
    <char id="263" x="492" y="189" width="12" height="20" xoffset="1" yoffset="6" xadvance="15" page="0" chnl="15" />
    <char id="264" x="317" y="52" width="13" height="24" xoffset="1" yoffset="2" xadvance="15" page="0" chnl="15" />
    <char id="265" x="440" y="189" width="12" height="20" xoffset="1" yoffset="6" xadvance="15" page="0" chnl="15" />
    <char id="266" x="485" y="51" width="13" height="24" xoffset="1" yoffset="2" xadvance="15" page="0" chnl="15" />
    <char id="267" x="65" y="217" width="12" height="20" xoffset="1" yoffset="6" xadvance="15" page="0" chnl="15" />
    <char id="268" x="191" y="53" width="13" height="24" xoffset="1" yoffset="2" xadvance="15" page="0" chnl="15" />
    <char id="269" x="206" y="192" width="12" height="20" xoffset="1" yoffset="6" xadvance="15" page="0" chnl="15" />
    <char id="270" x="45" y="105" width="14" height="23" xoffset="1" yoffset="2" xadvance="15" page="0" chnl="15" />
    <char id="271" x="41" y="153" width="16" height="21" xoffset="0" yoffset="5" xadvance="15" page="0" chnl="15" />
    <char id="272" x="349" y="272" width="15" height="18" xoffset="0" yoffset="7" xadvance="15" page="0" chnl="15" />
    <char id="273" x="466" y="147" width="15" height="20" xoffset="1" yoffset="6" xadvance="15" page="0" chnl="15" />
    <char id="274" x="489" y="124" width="11" height="22" xoffset="2" yoffset="3" xadvance="15" page="0" chnl="15" />
    <char id="275" x="259" y="171" width="13" height="20" xoffset="1" yoffset="6" xadvance="15" page="0" chnl="15" />
    <char id="276" x="120" y="127" width="11" height="23" xoffset="2" yoffset="2" xadvance="15" page="0" chnl="15" />
    <char id="277" x="28" y="197" width="13" height="20" xoffset="1" yoffset="6" xadvance="15" page="0" chnl="15" />
    <char id="278" x="132" y="126" width="11" height="23" xoffset="2" yoffset="2" xadvance="15" page="0" chnl="15" />
    <char id="279" x="70" y="196" width="13" height="20" xoffset="1" yoffset="6" xadvance="15" page="0" chnl="15" />
    <char id="280" x="48" y="129" width="11" height="23" xoffset="2" yoffset="7" xadvance="15" page="0" chnl="15" />
    <char id="281" x="436" y="230" width="13" height="19" xoffset="1" yoffset="11" xadvance="15" page="0" chnl="15" />
    <char id="282" x="0" y="129" width="11" height="23" xoffset="2" yoffset="2" xadvance="15" page="0" chnl="15" />
    <char id="283" x="84" y="195" width="13" height="20" xoffset="1" yoffset="6" xadvance="15" page="0" chnl="15" />
    <char id="284" x="467" y="26" width="14" height="24" xoffset="0" yoffset="2" xadvance="15" page="0" chnl="15" />
    <char id="285" x="75" y="27" width="14" height="25" xoffset="1" yoffset="6" xadvance="15" page="0" chnl="15" />
    <char id="286" x="75" y="53" width="14" height="24" xoffset="0" yoffset="2" xadvance="15" page="0" chnl="15" />
    <char id="287" x="90" y="27" width="14" height="25" xoffset="1" yoffset="6" xadvance="15" page="0" chnl="15" />
    <char id="288" x="105" y="53" width="14" height="24" xoffset="0" yoffset="2" xadvance="15" page="0" chnl="15" />
    <char id="289" x="441" y="0" width="14" height="25" xoffset="1" yoffset="6" xadvance="15" page="0" chnl="15" />
    <char id="290" x="120" y="53" width="14" height="24" xoffset="0" yoffset="7" xadvance="15" page="0" chnl="15" />
    <char id="291" x="122" y="0" width="14" height="26" xoffset="1" yoffset="5" xadvance="15" page="0" chnl="15" />
    <char id="292" x="158" y="102" width="13" height="23" xoffset="1" yoffset="2" xadvance="15" page="0" chnl="15" />
    <char id="293" x="0" y="80" width="12" height="24" xoffset="2" yoffset="1" xadvance="15" page="0" chnl="15" />
    <char id="294" x="301" y="274" width="15" height="18" xoffset="0" yoffset="7" xadvance="15" page="0" chnl="15" />
    <char id="295" x="264" y="234" width="14" height="19" xoffset="0" yoffset="6" xadvance="15" page="0" chnl="15" />
    <char id="296" x="24" y="129" width="11" height="23" xoffset="2" yoffset="2" xadvance="15" page="0" chnl="15" />
    <char id="297" x="414" y="189" width="12" height="20" xoffset="2" yoffset="5" xadvance="15" page="0" chnl="15" />
    <char id="298" x="465" y="124" width="11" height="22" xoffset="2" yoffset="3" xadvance="15" page="0" chnl="15" />
    <char id="299" x="295" y="254" width="12" height="19" xoffset="2" yoffset="6" xadvance="15" page="0" chnl="15" />
    <char id="300" x="485" y="100" width="11" height="23" xoffset="2" yoffset="2" xadvance="15" page="0" chnl="15" />
    <char id="301" x="178" y="255" width="12" height="19" xoffset="2" yoffset="6" xadvance="15" page="0" chnl="15" />
    <char id="302" x="395" y="100" width="12" height="23" xoffset="2" yoffset="7" xadvance="15" page="0" chnl="15" />
    <char id="303" x="52" y="79" width="12" height="24" xoffset="2" yoffset="6" xadvance="15" page="0" chnl="15" />
    <char id="304" x="144" y="126" width="11" height="23" xoffset="2" yoffset="2" xadvance="15" page="0" chnl="15" />
    <char id="305" x="453" y="326" width="12" height="14" xoffset="2" yoffset="11" xadvance="15" page="0" chnl="15" />
    <char id="306" x="478" y="230" width="13" height="19" xoffset="1" yoffset="7" xadvance="15" page="0" chnl="15" />
    <char id="307" x="194" y="0" width="13" height="26" xoffset="1" yoffset="5" xadvance="15" page="0" chnl="15" />
    <char id="308" x="113" y="78" width="10" height="24" xoffset="2" yoffset="2" xadvance="15" page="0" chnl="15" />
    <char id="309" x="240" y="27" width="11" height="25" xoffset="1" yoffset="6" xadvance="15" page="0" chnl="15" />
    <char id="310" x="331" y="51" width="13" height="24" xoffset="1" yoffset="7" xadvance="15" page="0" chnl="15" />
    <char id="311" x="133" y="27" width="13" height="25" xoffset="2" yoffset="6" xadvance="15" page="0" chnl="15" />
    <char id="312" x="411" y="327" width="13" height="14" xoffset="2" yoffset="11" xadvance="15" page="0" chnl="15" />
    <char id="313" x="156" y="126" width="11" height="23" xoffset="2" yoffset="2" xadvance="15" page="0" chnl="15" />
    <char id="314" x="13" y="80" width="12" height="24" xoffset="2" yoffset="1" xadvance="15" page="0" chnl="15" />
    <char id="315" x="77" y="78" width="11" height="24" xoffset="2" yoffset="7" xadvance="15" page="0" chnl="15" />
    <char id="316" x="201" y="27" width="12" height="25" xoffset="2" yoffset="6" xadvance="15" page="0" chnl="15" />
    <char id="317" x="270" y="213" width="11" height="20" xoffset="2" yoffset="5" xadvance="15" page="0" chnl="15" />
    <char id="318" x="343" y="169" width="13" height="20" xoffset="2" yoffset="5" xadvance="15" page="0" chnl="15" />
    <char id="319" x="261" y="293" width="14" height="18" xoffset="2" yoffset="7" xadvance="15" page="0" chnl="15" />
    <char id="320" x="370" y="211" width="17" height="19" xoffset="1" yoffset="6" xadvance="15" page="0" chnl="15" />
    <char id="321" x="186" y="294" width="14" height="18" xoffset="0" yoffset="7" xadvance="15" page="0" chnl="15" />
    <char id="322" x="191" y="255" width="12" height="19" xoffset="2" yoffset="6" xadvance="15" page="0" chnl="15" />
    <char id="323" x="214" y="102" width="13" height="23" xoffset="1" yoffset="2" xadvance="15" page="0" chnl="15" />
    <char id="324" x="204" y="254" width="12" height="19" xoffset="2" yoffset="6" xadvance="15" page="0" chnl="15" />
    <char id="325" x="303" y="52" width="13" height="24" xoffset="1" yoffset="7" xadvance="15" page="0" chnl="15" />
    <char id="326" x="180" y="193" width="12" height="20" xoffset="2" yoffset="11" xadvance="15" page="0" chnl="15" />
    <char id="327" x="284" y="101" width="13" height="23" xoffset="1" yoffset="2" xadvance="15" page="0" chnl="15" />
    <char id="328" x="217" y="254" width="12" height="19" xoffset="2" yoffset="6" xadvance="15" page="0" chnl="15" />
    <char id="329" x="122" y="151" width="14" height="21" xoffset="0" yoffset="4" xadvance="15" page="0" chnl="15" />
    <char id="330" x="429" y="51" width="13" height="24" xoffset="1" yoffset="7" xadvance="15" page="0" chnl="15" />
    <char id="331" x="117" y="215" width="12" height="20" xoffset="2" yoffset="11" xadvance="15" page="0" chnl="15" />
    <char id="332" x="476" y="76" width="14" height="23" xoffset="0" yoffset="3" xadvance="15" page="0" chnl="15" />
    <char id="333" x="427" y="168" width="13" height="20" xoffset="1" yoffset="6" xadvance="15" page="0" chnl="15" />
    <char id="334" x="45" y="54" width="14" height="24" xoffset="0" yoffset="2" xadvance="15" page="0" chnl="15" />
    <char id="335" x="357" y="169" width="13" height="20" xoffset="1" yoffset="6" xadvance="15" page="0" chnl="15" />
    <char id="336" x="330" y="26" width="15" height="24" xoffset="0" yoffset="2" xadvance="15" page="0" chnl="15" />
    <char id="337" x="216" y="171" width="14" height="20" xoffset="1" yoffset="6" xadvance="15" page="0" chnl="15" />
    <char id="338" x="32" y="239" width="15" height="19" xoffset="0" yoffset="7" xadvance="15" page="0" chnl="15" />
    <char id="339" x="44" y="337" width="15" height="15" xoffset="0" yoffset="11" xadvance="15" page="0" chnl="15" />
    <char id="340" x="298" y="101" width="13" height="23" xoffset="2" yoffset="2" xadvance="15" page="0" chnl="15" />
    <char id="341" x="230" y="254" width="12" height="19" xoffset="2" yoffset="6" xadvance="15" page="0" chnl="15" />
    <char id="342" x="233" y="53" width="13" height="24" xoffset="2" yoffset="7" xadvance="15" page="0" chnl="15" />
    <char id="343" x="453" y="189" width="12" height="20" xoffset="2" yoffset="11" xadvance="15" page="0" chnl="15" />
    <char id="344" x="340" y="101" width="13" height="23" xoffset="2" yoffset="2" xadvance="15" page="0" chnl="15" />
    <char id="345" x="256" y="254" width="12" height="19" xoffset="2" yoffset="6" xadvance="15" page="0" chnl="15" />
    <char id="346" x="219" y="53" width="13" height="24" xoffset="1" yoffset="2" xadvance="15" page="0" chnl="15" />
    <char id="347" x="282" y="213" width="11" height="20" xoffset="2" yoffset="6" xadvance="15" page="0" chnl="15" />
    <char id="348" x="205" y="53" width="13" height="24" xoffset="1" yoffset="2" xadvance="15" page="0" chnl="15" />
    <char id="349" x="294" y="213" width="11" height="20" xoffset="2" yoffset="6" xadvance="15" page="0" chnl="15" />
    <char id="350" x="411" y="124" width="13" height="22" xoffset="1" yoffset="7" xadvance="15" page="0" chnl="15" />
    <char id="351" x="264" y="312" width="11" height="18" xoffset="2" yoffset="11" xadvance="15" page="0" chnl="15" />
    <char id="352" x="177" y="53" width="13" height="24" xoffset="1" yoffset="2" xadvance="15" page="0" chnl="15" />
    <char id="353" x="306" y="213" width="11" height="20" xoffset="2" yoffset="6" xadvance="15" page="0" chnl="15" />
    <char id="354" x="340" y="125" width="14" height="22" xoffset="0" yoffset="7" xadvance="15" page="0" chnl="15" />
    <char id="355" x="369" y="124" width="13" height="22" xoffset="0" yoffset="7" xadvance="15" page="0" chnl="15" />
    <char id="356" x="15" y="105" width="14" height="23" xoffset="0" yoffset="2" xadvance="15" page="0" chnl="15" />
    <char id="357" x="137" y="150" width="14" height="21" xoffset="0" yoffset="5" xadvance="15" page="0" chnl="15" />
    <char id="358" x="201" y="294" width="14" height="18" xoffset="0" yoffset="7" xadvance="15" page="0" chnl="15" />
    <char id="359" x="492" y="230" width="13" height="19" xoffset="0" yoffset="7" xadvance="15" page="0" chnl="15" />
    <char id="360" x="163" y="53" width="13" height="24" xoffset="1" yoffset="2" xadvance="15" page="0" chnl="15" />
    <char id="361" x="250" y="149" width="12" height="21" xoffset="2" yoffset="5" xadvance="15" page="0" chnl="15" />
    <char id="362" x="186" y="102" width="13" height="23" xoffset="1" yoffset="3" xadvance="15" page="0" chnl="15" />
    <char id="363" x="182" y="214" width="12" height="20" xoffset="2" yoffset="6" xadvance="15" page="0" chnl="15" />
    <char id="364" x="149" y="53" width="13" height="24" xoffset="1" yoffset="2" xadvance="15" page="0" chnl="15" />
    <char id="365" x="245" y="192" width="12" height="20" xoffset="2" yoffset="6" xadvance="15" page="0" chnl="15" />
    <char id="366" x="119" y="27" width="13" height="25" xoffset="1" yoffset="1" xadvance="15" page="0" chnl="15" />
    <char id="367" x="263" y="149" width="12" height="21" xoffset="2" yoffset="5" xadvance="15" page="0" chnl="15" />
    <char id="368" x="346" y="26" width="15" height="24" xoffset="1" yoffset="2" xadvance="15" page="0" chnl="15" />
    <char id="369" x="98" y="194" width="13" height="20" xoffset="2" yoffset="6" xadvance="15" page="0" chnl="15" />
    <char id="370" x="256" y="102" width="13" height="23" xoffset="1" yoffset="7" xadvance="15" page="0" chnl="15" />
    <char id="371" x="282" y="254" width="12" height="19" xoffset="2" yoffset="11" xadvance="15" page="0" chnl="15" />
    <char id="372" x="428" y="76" width="15" height="23" xoffset="0" yoffset="2" xadvance="15" page="0" chnl="15" />
    <char id="373" x="128" y="236" width="15" height="19" xoffset="0" yoffset="6" xadvance="15" page="0" chnl="15" />
    <char id="374" x="345" y="76" width="16" height="23" xoffset="0" yoffset="2" xadvance="15" page="0" chnl="15" />
    <char id="375" x="45" y="28" width="14" height="25" xoffset="0" yoffset="6" xadvance="15" page="0" chnl="15" />
    <char id="376" x="328" y="77" width="16" height="23" xoffset="0" yoffset="2" xadvance="15" page="0" chnl="15" />
    <char id="377" x="200" y="102" width="13" height="23" xoffset="1" yoffset="2" xadvance="15" page="0" chnl="15" />
    <char id="378" x="308" y="254" width="12" height="19" xoffset="2" yoffset="6" xadvance="15" page="0" chnl="15" />
    <char id="379" x="116" y="103" width="13" height="23" xoffset="1" yoffset="2" xadvance="15" page="0" chnl="15" />
    <char id="380" x="321" y="254" width="12" height="19" xoffset="2" yoffset="6" xadvance="15" page="0" chnl="15" />
    <char id="381" x="130" y="102" width="13" height="23" xoffset="1" yoffset="2" xadvance="15" page="0" chnl="15" />
    <char id="382" x="334" y="254" width="12" height="19" xoffset="2" yoffset="6" xadvance="15" page="0" chnl="15" />
    <char id="383" x="246" y="213" width="11" height="20" xoffset="3" yoffset="5" xadvance="15" page="0" chnl="15" />
    <char id="384" x="434" y="147" width="15" height="20" xoffset="0" yoffset="6" xadvance="15" page="0" chnl="15" />
    <char id="385" x="237" y="274" width="15" height="18" xoffset="0" yoffset="7" xadvance="15" page="0" chnl="15" />
    <char id="386" x="389" y="290" width="13" height="18" xoffset="1" yoffset="7" xadvance="15" page="0" chnl="15" />
    <char id="387" x="219" y="192" width="12" height="20" xoffset="2" yoffset="6" xadvance="15" page="0" chnl="15" />
    <char id="388" x="285" y="274" width="15" height="18" xoffset="0" yoffset="7" xadvance="15" page="0" chnl="15" />
    <char id="389" x="294" y="234" width="14" height="19" xoffset="0" yoffset="7" xadvance="15" page="0" chnl="15" />
    <char id="390" x="464" y="230" width="13" height="19" xoffset="1" yoffset="7" xadvance="15" page="0" chnl="15" />
    <char id="391" x="412" y="76" width="15" height="23" xoffset="1" yoffset="3" xadvance="15" page="0" chnl="15" />
    <char id="392" x="126" y="295" width="14" height="18" xoffset="1" yoffset="8" xadvance="15" page="0" chnl="15" />
    <char id="393" x="317" y="274" width="15" height="18" xoffset="0" yoffset="7" xadvance="15" page="0" chnl="15" />
    <char id="394" x="333" y="274" width="15" height="18" xoffset="0" yoffset="7" xadvance="15" page="0" chnl="15" />
    <char id="395" x="431" y="289" width="13" height="18" xoffset="1" yoffset="7" xadvance="15" page="0" chnl="15" />
    <char id="396" x="154" y="193" width="12" height="20" xoffset="1" yoffset="6" xadvance="15" page="0" chnl="15" />
    <char id="397" x="180" y="149" width="13" height="21" xoffset="1" yoffset="5" xadvance="15" page="0" chnl="15" />
    <char id="398" x="336" y="312" width="11" height="18" xoffset="2" yoffset="7" xadvance="15" page="0" chnl="15" />
    <char id="399" x="189" y="235" width="14" height="19" xoffset="0" yoffset="7" xadvance="15" page="0" chnl="15" />
    <char id="400" x="84" y="258" width="13" height="19" xoffset="1" yoffset="7" xadvance="15" page="0" chnl="15" />
    <char id="401" x="0" y="105" width="14" height="23" xoffset="-1" yoffset="7" xadvance="15" page="0" chnl="15" />
    <char id="402" x="15" y="55" width="14" height="24" xoffset="0" yoffset="5" xadvance="15" page="0" chnl="15" />
    <char id="403" x="243" y="78" width="16" height="23" xoffset="0" yoffset="3" xadvance="15" page="0" chnl="15" />
    <char id="404" x="381" y="271" width="15" height="18" xoffset="0" yoffset="7" xadvance="15" page="0" chnl="15" />
    <char id="405" x="112" y="194" width="13" height="20" xoffset="1" yoffset="6" xadvance="15" page="0" chnl="15" />
    <char id="406" x="338" y="211" width="7" height="20" xoffset="5" yoffset="6" xadvance="15" page="0" chnl="15" />
    <char id="407" x="360" y="312" width="11" height="18" xoffset="2" yoffset="7" xadvance="15" page="0" chnl="15" />
    <char id="408" x="42" y="318" width="13" height="18" xoffset="1" yoffset="7" xadvance="15" page="0" chnl="15" />
    <char id="409" x="126" y="194" width="13" height="20" xoffset="2" yoffset="5" xadvance="15" page="0" chnl="15" />
    <char id="410" x="347" y="252" width="12" height="19" xoffset="2" yoffset="6" xadvance="15" page="0" chnl="15" />
    <char id="411" x="106" y="151" width="15" height="21" xoffset="0" yoffset="5" xadvance="15" page="0" chnl="15" />
    <char id="412" x="0" y="259" width="13" height="19" xoffset="1" yoffset="7" xadvance="15" page="0" chnl="15" />
    <char id="413" x="298" y="27" width="15" height="24" xoffset="-1" yoffset="7" xadvance="15" page="0" chnl="15" />
    <char id="414" x="310" y="192" width="12" height="20" xoffset="1" yoffset="11" xadvance="15" page="0" chnl="15" />
    <char id="415" x="309" y="234" width="14" height="19" xoffset="0" yoffset="7" xadvance="15" page="0" chnl="15" />
    <char id="416" x="24" y="153" width="16" height="21" xoffset="0" yoffset="5" xadvance="15" page="0" chnl="15" />
    <char id="417" x="408" y="309" width="15" height="17" xoffset="0" yoffset="9" xadvance="15" page="0" chnl="15" />
    <char id="418" x="98" y="257" width="13" height="19" xoffset="1" yoffset="7" xadvance="15" page="0" chnl="15" />
    <char id="419" x="148" y="333" width="13" height="15" xoffset="1" yoffset="11" xadvance="15" page="0" chnl="15" />
    <char id="420" x="16" y="299" width="15" height="18" xoffset="0" yoffset="7" xadvance="15" page="0" chnl="15" />
    <char id="421" x="236" y="0" width="12" height="26" xoffset="2" yoffset="5" xadvance="15" page="0" chnl="15" />
    <char id="422" x="315" y="169" width="13" height="20" xoffset="2" yoffset="7" xadvance="15" page="0" chnl="15" />
    <char id="423" x="373" y="251" width="12" height="19" xoffset="1" yoffset="7" xadvance="15" page="0" chnl="15" />
    <char id="424" x="306" y="331" width="11" height="15" xoffset="2" yoffset="11" xadvance="15" page="0" chnl="15" />
    <char id="425" x="319" y="293" width="13" height="18" xoffset="1" yoffset="7" xadvance="15" page="0" chnl="15" />
    <char id="426" x="46" y="0" width="13" height="27" xoffset="0" yoffset="4" xadvance="15" page="0" chnl="15" />
    <char id="427" x="401" y="51" width="13" height="24" xoffset="0" yoffset="7" xadvance="15" page="0" chnl="15" />
    <char id="428" x="253" y="274" width="15" height="18" xoffset="0" yoffset="7" xadvance="15" page="0" chnl="15" />
    <char id="429" x="236" y="149" width="13" height="21" xoffset="0" yoffset="5" xadvance="15" page="0" chnl="15" />
    <char id="430" x="90" y="53" width="14" height="24" xoffset="0" yoffset="7" xadvance="15" page="0" chnl="15" />
    <char id="431" x="74" y="152" width="15" height="21" xoffset="1" yoffset="5" xadvance="15" page="0" chnl="15" />
    <char id="432" x="424" y="308" width="15" height="17" xoffset="1" yoffset="9" xadvance="15" page="0" chnl="15" />
    <char id="433" x="0" y="239" width="15" height="19" xoffset="0" yoffset="7" xadvance="15" page="0" chnl="15" />
    <char id="434" x="380" y="231" width="13" height="19" xoffset="1" yoffset="7" xadvance="15" page="0" chnl="15" />
    <char id="435" x="153" y="276" width="16" height="18" xoffset="0" yoffset="7" xadvance="15" page="0" chnl="15" />
    <char id="436" x="64" y="175" width="15" height="20" xoffset="0" yoffset="11" xadvance="15" page="0" chnl="15" />
    <char id="437" x="347" y="293" width="13" height="18" xoffset="1" yoffset="7" xadvance="15" page="0" chnl="15" />
    <char id="438" x="466" y="326" width="12" height="14" xoffset="2" yoffset="11" xadvance="15" page="0" chnl="15" />
    <char id="439" x="490" y="250" width="11" height="19" xoffset="2" yoffset="7" xadvance="15" page="0" chnl="15" />
    <char id="440" x="386" y="251" width="12" height="19" xoffset="2" yoffset="7" xadvance="15" page="0" chnl="15" />
    <char id="441" x="12" y="279" width="11" height="19" xoffset="2" yoffset="11" xadvance="15" page="0" chnl="15" />
    <char id="442" x="232" y="192" width="12" height="20" xoffset="1" yoffset="11" xadvance="15" page="0" chnl="15" />
    <char id="443" x="361" y="291" width="13" height="18" xoffset="1" yoffset="7" xadvance="15" page="0" chnl="15" />
    <char id="444" x="174" y="235" width="14" height="19" xoffset="0" yoffset="7" xadvance="15" page="0" chnl="15" />
    <char id="445" x="190" y="332" width="12" height="15" xoffset="1" yoffset="11" xadvance="15" page="0" chnl="15" />
    <char id="446" x="501" y="289" width="10" height="18" xoffset="1" yoffset="8" xadvance="15" page="0" chnl="15" />
    <char id="447" x="167" y="193" width="12" height="20" xoffset="2" yoffset="11" xadvance="15" page="0" chnl="15" />
    <char id="448" x="19" y="0" width="3" height="28" xoffset="6" yoffset="3" xadvance="15" page="0" chnl="15" />
    <char id="449" x="11" y="0" width="7" height="28" xoffset="4" yoffset="3" xadvance="15" page="0" chnl="15" />
    <char id="450" x="0" y="0" width="10" height="28" xoffset="2" yoffset="3" xadvance="15" page="0" chnl="15" />
    <char id="451" x="505" y="189" width="4" height="20" xoffset="5" yoffset="6" xadvance="15" page="0" chnl="15" />
    <char id="452" x="460" y="76" width="15" height="23" xoffset="0" yoffset="2" xadvance="15" page="0" chnl="15" />
    <char id="453" x="16" y="239" width="15" height="19" xoffset="0" yoffset="6" xadvance="15" page="0" chnl="15" />
    <char id="454" x="48" y="175" width="15" height="20" xoffset="0" yoffset="6" xadvance="15" page="0" chnl="15" />
    <char id="455" x="417" y="289" width="13" height="18" xoffset="1" yoffset="7" xadvance="15" page="0" chnl="15" />
    <char id="456" x="161" y="27" width="13" height="25" xoffset="1" yoffset="6" xadvance="15" page="0" chnl="15" />
    <char id="457" x="60" y="27" width="14" height="25" xoffset="0" yoffset="6" xadvance="15" page="0" chnl="15" />
    <char id="458" x="111" y="296" width="14" height="18" xoffset="0" yoffset="7" xadvance="15" page="0" chnl="15" />
    <char id="459" x="393" y="0" width="15" height="25" xoffset="0" yoffset="6" xadvance="15" page="0" chnl="15" />
    <char id="460" x="425" y="0" width="15" height="25" xoffset="0" yoffset="6" xadvance="15" page="0" chnl="15" />
    <char id="461" x="294" y="77" width="16" height="23" xoffset="0" yoffset="2" xadvance="15" page="0" chnl="15" />
    <char id="462" x="221" y="213" width="12" height="20" xoffset="1" yoffset="6" xadvance="15" page="0" chnl="15" />
    <char id="463" x="108" y="127" width="11" height="23" xoffset="2" yoffset="2" xadvance="15" page="0" chnl="15" />
    <char id="464" x="399" y="250" width="12" height="19" xoffset="2" yoffset="6" xadvance="15" page="0" chnl="15" />
    <char id="465" x="30" y="55" width="14" height="24" xoffset="0" yoffset="2" xadvance="15" page="0" chnl="15" />
    <char id="466" x="385" y="168" width="13" height="20" xoffset="1" yoffset="6" xadvance="15" page="0" chnl="15" />
    <char id="467" x="471" y="51" width="13" height="24" xoffset="1" yoffset="2" xadvance="15" page="0" chnl="15" />
    <char id="468" x="401" y="189" width="12" height="20" xoffset="2" yoffset="6" xadvance="15" page="0" chnl="15" />
    <char id="469" x="180" y="0" width="13" height="26" xoffset="1" yoffset="0" xadvance="15" page="0" chnl="15" />
    <char id="470" x="460" y="100" width="12" height="23" xoffset="2" yoffset="3" xadvance="15" page="0" chnl="15" />
    <char id="471" x="222" y="0" width="13" height="26" xoffset="1" yoffset="0" xadvance="15" page="0" chnl="15" />
    <char id="472" x="447" y="100" width="12" height="23" xoffset="2" yoffset="3" xadvance="15" page="0" chnl="15" />
    <char id="473" x="152" y="0" width="13" height="26" xoffset="1" yoffset="0" xadvance="15" page="0" chnl="15" />
    <char id="474" x="227" y="27" width="12" height="25" xoffset="2" yoffset="1" xadvance="15" page="0" chnl="15" />
    <char id="475" x="208" y="0" width="13" height="26" xoffset="1" yoffset="0" xadvance="15" page="0" chnl="15" />
    <char id="476" x="434" y="100" width="12" height="23" xoffset="2" yoffset="3" xadvance="15" page="0" chnl="15" />
    <char id="477" x="176" y="333" width="13" height="15" xoffset="1" yoffset="11" xadvance="15" page="0" chnl="15" />
    <char id="478" x="376" y="0" width="16" height="25" xoffset="0" yoffset="0" xadvance="15" page="0" chnl="15" />
    <char id="479" x="421" y="100" width="12" height="23" xoffset="1" yoffset="3" xadvance="15" page="0" chnl="15" />
    <char id="480" x="359" y="0" width="16" height="25" xoffset="0" yoffset="0" xadvance="15" page="0" chnl="15" />
    <char id="481" x="382" y="100" width="12" height="23" xoffset="1" yoffset="3" xadvance="15" page="0" chnl="15" />
    <char id="482" x="273" y="126" width="16" height="22" xoffset="-1" yoffset="3" xadvance="15" page="0" chnl="15" />
    <char id="483" x="402" y="147" width="15" height="20" xoffset="0" yoffset="6" xadvance="15" page="0" chnl="15" />
    <char id="484" x="457" y="210" width="15" height="19" xoffset="0" yoffset="7" xadvance="15" page="0" chnl="15" />
    <char id="485" x="320" y="148" width="16" height="20" xoffset="0" yoffset="11" xadvance="15" page="0" chnl="15" />
    <char id="486" x="407" y="26" width="14" height="24" xoffset="0" yoffset="2" xadvance="15" page="0" chnl="15" />
    <char id="487" x="15" y="29" width="14" height="25" xoffset="1" yoffset="6" xadvance="15" page="0" chnl="15" />
    <char id="488" x="242" y="102" width="13" height="23" xoffset="1" yoffset="2" xadvance="15" page="0" chnl="15" />
    <char id="489" x="228" y="102" width="13" height="23" xoffset="2" yoffset="2" xadvance="15" page="0" chnl="15" />
    <char id="490" x="491" y="76" width="14" height="23" xoffset="0" yoffset="7" xadvance="15" page="0" chnl="15" />
    <char id="491" x="70" y="258" width="13" height="19" xoffset="1" yoffset="11" xadvance="15" page="0" chnl="15" />
    <char id="492" x="31" y="0" width="14" height="27" xoffset="0" yoffset="3" xadvance="15" page="0" chnl="15" />
    <char id="493" x="289" y="52" width="13" height="24" xoffset="1" yoffset="6" xadvance="15" page="0" chnl="15" />
    <char id="494" x="89" y="78" width="11" height="24" xoffset="2" yoffset="2" xadvance="15" page="0" chnl="15" />
    <char id="495" x="101" y="78" width="11" height="24" xoffset="2" yoffset="6" xadvance="15" page="0" chnl="15" />
    <char id="496" x="501" y="0" width="10" height="25" xoffset="1" yoffset="6" xadvance="15" page="0" chnl="15" />
    <char id="497" x="48" y="299" width="15" height="18" xoffset="0" yoffset="7" xadvance="15" page="0" chnl="15" />
    <char id="498" x="80" y="298" width="15" height="18" xoffset="0" yoffset="7" xadvance="15" page="0" chnl="15" />
    <char id="499" x="418" y="147" width="15" height="20" xoffset="0" yoffset="6" xadvance="15" page="0" chnl="15" />
    <char id="500" x="60" y="53" width="14" height="24" xoffset="0" yoffset="2" xadvance="15" page="0" chnl="15" />
    <char id="501" x="30" y="29" width="14" height="25" xoffset="1" yoffset="6" xadvance="15" page="0" chnl="15" />
    <char id="502" x="324" y="234" width="13" height="19" xoffset="1" yoffset="7" xadvance="15" page="0" chnl="15" />
    <char id="503" x="443" y="51" width="13" height="24" xoffset="1" yoffset="7" xadvance="15" page="0" chnl="15" />
    <char id="504" x="102" y="103" width="13" height="23" xoffset="1" yoffset="2" xadvance="15" page="0" chnl="15" />
    <char id="505" x="412" y="250" width="12" height="19" xoffset="2" yoffset="6" xadvance="15" page="0" chnl="15" />
    <char id="506" x="342" y="0" width="16" height="25" xoffset="0" yoffset="0" xadvance="15" page="0" chnl="15" />
    <char id="507" x="188" y="27" width="12" height="25" xoffset="1" yoffset="1" xadvance="15" page="0" chnl="15" />
    <char id="508" x="141" y="78" width="16" height="23" xoffset="-1" yoffset="2" xadvance="15" page="0" chnl="15" />
    <char id="509" x="80" y="174" width="15" height="20" xoffset="0" yoffset="6" xadvance="15" page="0" chnl="15" />
    <char id="510" x="137" y="0" width="14" height="26" xoffset="0" yoffset="2" xadvance="15" page="0" chnl="15" />
    <char id="511" x="425" y="124" width="13" height="22" xoffset="1" yoffset="6" xadvance="15" page="0" chnl="15" />
    <char id="512" x="362" y="76" width="16" height="23" xoffset="0" yoffset="2" xadvance="15" page="0" chnl="15" />
    <char id="513" x="469" y="168" width="13" height="20" xoffset="0" yoffset="6" xadvance="15" page="0" chnl="15" />
    <char id="514" x="307" y="125" width="16" height="22" xoffset="0" yoffset="3" xadvance="15" page="0" chnl="15" />
    <char id="515" x="349" y="190" width="12" height="20" xoffset="1" yoffset="6" xadvance="15" page="0" chnl="15" />
    <char id="516" x="312" y="101" width="13" height="23" xoffset="0" yoffset="2" xadvance="15" page="0" chnl="15" />
    <char id="517" x="201" y="171" width="14" height="20" xoffset="0" yoffset="6" xadvance="15" page="0" chnl="15" />
    <char id="518" x="12" y="153" width="11" height="22" xoffset="2" yoffset="3" xadvance="15" page="0" chnl="15" />
    <char id="519" x="273" y="171" width="13" height="20" xoffset="1" yoffset="6" xadvance="15" page="0" chnl="15" />
    <char id="520" x="270" y="102" width="13" height="23" xoffset="0" yoffset="2" xadvance="15" page="0" chnl="15" />
    <char id="521" x="279" y="234" width="14" height="19" xoffset="0" yoffset="6" xadvance="15" page="0" chnl="15" />
    <char id="522" x="0" y="153" width="11" height="22" xoffset="2" yoffset="3" xadvance="15" page="0" chnl="15" />
    <char id="523" x="243" y="254" width="12" height="19" xoffset="2" yoffset="6" xadvance="15" page="0" chnl="15" />
    <char id="524" x="314" y="27" width="15" height="24" xoffset="0" yoffset="2" xadvance="15" page="0" chnl="15" />
    <char id="525" x="96" y="173" width="14" height="20" xoffset="0" yoffset="6" xadvance="15" page="0" chnl="15" />
    <char id="526" x="30" y="105" width="14" height="23" xoffset="0" yoffset="3" xadvance="15" page="0" chnl="15" />
    <char id="527" x="42" y="196" width="13" height="20" xoffset="1" yoffset="6" xadvance="15" page="0" chnl="15" />
    <char id="528" x="444" y="76" width="15" height="23" xoffset="0" yoffset="2" xadvance="15" page="0" chnl="15" />
    <char id="529" x="249" y="234" width="14" height="19" xoffset="0" yoffset="6" xadvance="15" page="0" chnl="15" />
    <char id="530" x="355" y="124" width="13" height="22" xoffset="2" yoffset="3" xadvance="15" page="0" chnl="15" />
    <char id="531" x="360" y="251" width="12" height="19" xoffset="2" yoffset="6" xadvance="15" page="0" chnl="15" />
    <char id="532" x="422" y="26" width="14" height="24" xoffset="0" yoffset="2" xadvance="15" page="0" chnl="15" />
    <char id="533" x="111" y="173" width="14" height="20" xoffset="0" yoffset="6" xadvance="15" page="0" chnl="15" />
    <char id="534" x="172" y="102" width="13" height="23" xoffset="1" yoffset="3" xadvance="15" page="0" chnl="15" />
    <char id="535" x="466" y="189" width="12" height="20" xoffset="2" yoffset="6" xadvance="15" page="0" chnl="15" />
    <char id="536" x="387" y="51" width="13" height="24" xoffset="1" yoffset="7" xadvance="15" page="0" chnl="15" />
    <char id="537" x="234" y="213" width="11" height="20" xoffset="2" yoffset="11" xadvance="15" page="0" chnl="15" />
    <char id="538" x="392" y="26" width="14" height="24" xoffset="0" yoffset="7" xadvance="15" page="0" chnl="15" />
    <char id="539" x="373" y="51" width="13" height="24" xoffset="0" yoffset="7" xadvance="15" page="0" chnl="15" />
    <char id="540" x="0" y="279" width="11" height="19" xoffset="2" yoffset="7" xadvance="15" page="0" chnl="15" />
    <char id="541" x="288" y="312" width="11" height="18" xoffset="2" yoffset="11" xadvance="15" page="0" chnl="15" />
    <char id="542" x="326" y="101" width="13" height="23" xoffset="1" yoffset="2" xadvance="15" page="0" chnl="15" />
    <char id="543" x="408" y="100" width="12" height="23" xoffset="2" yoffset="2" xadvance="15" page="0" chnl="15" />
    <char id="544" x="359" y="51" width="13" height="24" xoffset="1" yoffset="7" xadvance="15" page="0" chnl="15" />
    <char id="545" x="323" y="0" width="18" height="25" xoffset="1" yoffset="6" xadvance="15" page="0" chnl="15" />
    <char id="546" x="56" y="259" width="13" height="19" xoffset="1" yoffset="7" xadvance="15" page="0" chnl="15" />
    <char id="547" x="455" y="168" width="13" height="20" xoffset="1" yoffset="6" xadvance="15" page="0" chnl="15" />
    <char id="548" x="88" y="103" width="13" height="23" xoffset="1" yoffset="7" xadvance="15" page="0" chnl="15" />
    <char id="549" x="78" y="217" width="12" height="20" xoffset="1" yoffset="11" xadvance="15" page="0" chnl="15" />
    <char id="550" x="379" y="76" width="16" height="23" xoffset="0" yoffset="2" xadvance="15" page="0" chnl="15" />
    <char id="551" x="104" y="215" width="12" height="20" xoffset="1" yoffset="6" xadvance="15" page="0" chnl="15" />
    <char id="552" x="477" y="124" width="11" height="22" xoffset="2" yoffset="7" xadvance="15" page="0" chnl="15" />
    <char id="553" x="333" y="293" width="13" height="18" xoffset="1" yoffset="11" xadvance="15" page="0" chnl="15" />
    <char id="554" x="77" y="0" width="14" height="26" xoffset="0" yoffset="0" xadvance="15" page="0" chnl="15" />
    <char id="555" x="74" y="103" width="13" height="23" xoffset="1" yoffset="3" xadvance="15" page="0" chnl="15" />
    <char id="556" x="92" y="0" width="14" height="26" xoffset="0" yoffset="0" xadvance="15" page="0" chnl="15" />
    <char id="557" x="247" y="53" width="13" height="24" xoffset="1" yoffset="2" xadvance="15" page="0" chnl="15" />
    <char id="558" x="482" y="26" width="14" height="24" xoffset="0" yoffset="2" xadvance="15" page="0" chnl="15" />
    <char id="559" x="56" y="196" width="13" height="20" xoffset="1" yoffset="6" xadvance="15" page="0" chnl="15" />
    <char id="560" x="107" y="0" width="14" height="26" xoffset="0" yoffset="0" xadvance="15" page="0" chnl="15" />
    <char id="561" x="368" y="100" width="13" height="23" xoffset="1" yoffset="3" xadvance="15" page="0" chnl="15" />
    <char id="562" x="290" y="125" width="16" height="22" xoffset="0" yoffset="3" xadvance="15" page="0" chnl="15" />
    <char id="563" x="0" y="29" width="14" height="25" xoffset="0" yoffset="6" xadvance="15" page="0" chnl="15" />
    <char id="564" x="105" y="27" width="13" height="25" xoffset="2" yoffset="6" xadvance="15" page="0" chnl="15" />
    <char id="565" x="302" y="148" width="17" height="20" xoffset="2" yoffset="11" xadvance="15" page="0" chnl="15" />
    <char id="566" x="275" y="52" width="13" height="24" xoffset="0" yoffset="7" xadvance="15" page="0" chnl="15" />
    <char id="567" x="501" y="124" width="10" height="20" xoffset="1" yoffset="11" xadvance="15" page="0" chnl="15" />
    <char id="568" x="144" y="236" width="14" height="19" xoffset="0" yoffset="6" xadvance="15" page="0" chnl="15" />
    <char id="569" x="126" y="173" width="14" height="20" xoffset="0" yoffset="11" xadvance="15" page="0" chnl="15" />
    <char id="570" x="218" y="126" width="18" height="22" xoffset="-1" yoffset="6" xadvance="15" page="0" chnl="15" />
    <char id="571" x="199" y="126" width="18" height="22" xoffset="-1" yoffset="6" xadvance="15" page="0" chnl="15" />
    <char id="572" x="413" y="270" width="15" height="18" xoffset="1" yoffset="10" xadvance="15" page="0" chnl="15" />
    <char id="573" x="403" y="290" width="13" height="18" xoffset="0" yoffset="7" xadvance="15" page="0" chnl="15" />
    <char id="574" x="237" y="126" width="18" height="22" xoffset="-1" yoffset="6" xadvance="15" page="0" chnl="15" />
    <char id="575" x="258" y="213" width="11" height="20" xoffset="2" yoffset="11" xadvance="15" page="0" chnl="15" />
    <char id="576" x="371" y="168" width="13" height="20" xoffset="2" yoffset="11" xadvance="15" page="0" chnl="15" />
    <char id="577" x="502" y="250" width="9" height="19" xoffset="3" yoffset="6" xadvance="15" page="0" chnl="15" />
    <char id="578" x="13" y="353" width="10" height="14" xoffset="3" yoffset="11" xadvance="15" page="0" chnl="15" />
    <char id="579" x="477" y="270" width="15" height="18" xoffset="0" yoffset="7" xadvance="15" page="0" chnl="15" />
    <char id="580" x="406" y="210" width="16" height="19" xoffset="0" yoffset="7" xadvance="15" page="0" chnl="15" />
    <char id="581" x="136" y="276" width="16" height="18" xoffset="0" yoffset="7" xadvance="15" page="0" chnl="15" />
    <char id="582" x="180" y="126" width="18" height="22" xoffset="-1" yoffset="6" xadvance="15" page="0" chnl="15" />
    <char id="583" x="0" y="299" width="15" height="18" xoffset="0" yoffset="10" xadvance="15" page="0" chnl="15" />
    <char id="584" x="422" y="230" width="13" height="19" xoffset="2" yoffset="7" xadvance="15" page="0" chnl="15" />
    <char id="585" x="147" y="27" width="13" height="25" xoffset="1" yoffset="6" xadvance="15" page="0" chnl="15" />
    <char id="586" x="264" y="27" width="16" height="24" xoffset="0" yoffset="7" xadvance="15" page="0" chnl="15" />
    <char id="587" x="386" y="147" width="15" height="20" xoffset="1" yoffset="11" xadvance="15" page="0" chnl="15" />
    <char id="588" x="64" y="298" width="15" height="18" xoffset="0" yoffset="7" xadvance="15" page="0" chnl="15" />
    <char id="589" x="350" y="331" width="15" height="14" xoffset="0" yoffset="11" xadvance="15" page="0" chnl="15" />
    <char id="590" x="170" y="275" width="16" height="18" xoffset="0" yoffset="7" xadvance="15" page="0" chnl="15" />
    <char id="591" x="482" y="147" width="15" height="20" xoffset="0" yoffset="11" xadvance="15" page="0" chnl="15" />
    <char id="894" x="43" y="279" width="7" height="19" xoffset="3" yoffset="11" xadvance="15" page="0" chnl="15" />
    <char id="900" x="357" y="346" width="5" height="4" xoffset="6" yoffset="6" xadvance="15" page="0" chnl="15" />
    <char id="901" x="328" y="346" width="12" height="4" xoffset="1" yoffset="6" xadvance="15" page="0" chnl="15" />
    <char id="902" x="423" y="210" width="16" height="19" xoffset="0" yoffset="6" xadvance="15" page="0" chnl="15" />
    <char id="903" x="506" y="240" width="5" height="5" xoffset="5" yoffset="9" xadvance="15" page="0" chnl="15" />
    <char id="904" x="96" y="237" width="15" height="19" xoffset="-1" yoffset="6" xadvance="15" page="0" chnl="15" />
    <char id="905" x="388" y="210" width="17" height="19" xoffset="-2" yoffset="6" xadvance="15" page="0" chnl="15" />
    <char id="906" x="112" y="236" width="15" height="19" xoffset="-2" yoffset="6" xadvance="15" page="0" chnl="15" />
    <char id="908" x="337" y="148" width="16" height="20" xoffset="-1" yoffset="6" xadvance="15" page="0" chnl="15" />
    <char id="910" x="351" y="211" width="18" height="19" xoffset="-3" yoffset="6" xadvance="15" page="0" chnl="15" />
    <char id="911" x="440" y="210" width="16" height="19" xoffset="-1" yoffset="6" xadvance="15" page="0" chnl="15" />
    <char id="912" x="156" y="214" width="12" height="20" xoffset="1" yoffset="6" xadvance="15" page="0" chnl="15" />
    <char id="913" x="68" y="279" width="16" height="18" xoffset="0" yoffset="7" xadvance="15" page="0" chnl="15" />
    <char id="914" x="459" y="289" width="13" height="18" xoffset="1" yoffset="7" xadvance="15" page="0" chnl="15" />
    <char id="915" x="324" y="312" width="11" height="18" xoffset="2" yoffset="7" xadvance="15" page="0" chnl="15" />
    <char id="916" x="276" y="293" width="14" height="18" xoffset="0" yoffset="7" xadvance="15" page="0" chnl="15" />
    <char id="917" x="348" y="312" width="11" height="18" xoffset="2" yoffset="7" xadvance="15" page="0" chnl="15" />
    <char id="918" x="473" y="289" width="13" height="18" xoffset="1" yoffset="7" xadvance="15" page="0" chnl="15" />
    <char id="919" x="0" y="318" width="13" height="18" xoffset="1" yoffset="7" xadvance="15" page="0" chnl="15" />
    <char id="920" x="234" y="234" width="14" height="19" xoffset="0" yoffset="7" xadvance="15" page="0" chnl="15" />
    <char id="921" x="384" y="309" width="11" height="18" xoffset="2" yoffset="7" xadvance="15" page="0" chnl="15" />
    <char id="922" x="14" y="318" width="13" height="18" xoffset="1" yoffset="7" xadvance="15" page="0" chnl="15" />
    <char id="923" x="204" y="274" width="16" height="18" xoffset="0" yoffset="7" xadvance="15" page="0" chnl="15" />
    <char id="924" x="32" y="299" width="15" height="18" xoffset="0" yoffset="7" xadvance="15" page="0" chnl="15" />
    <char id="925" x="28" y="318" width="13" height="18" xoffset="1" yoffset="7" xadvance="15" page="0" chnl="15" />
    <char id="926" x="396" y="309" width="11" height="18" xoffset="2" yoffset="7" xadvance="15" page="0" chnl="15" />
    <char id="927" x="159" y="235" width="14" height="19" xoffset="0" yoffset="7" xadvance="15" page="0" chnl="15" />
    <char id="928" x="56" y="318" width="13" height="18" xoffset="1" yoffset="7" xadvance="15" page="0" chnl="15" />
    <char id="929" x="70" y="317" width="13" height="18" xoffset="1" yoffset="7" xadvance="15" page="0" chnl="15" />
    <char id="931" x="84" y="317" width="13" height="18" xoffset="1" yoffset="7" xadvance="15" page="0" chnl="15" />
    <char id="932" x="171" y="294" width="14" height="18" xoffset="0" yoffset="7" xadvance="15" page="0" chnl="15" />
    <char id="933" x="102" y="277" width="16" height="18" xoffset="0" yoffset="7" xadvance="15" page="0" chnl="15" />
    <char id="934" x="370" y="147" width="15" height="20" xoffset="0" yoffset="6" xadvance="15" page="0" chnl="15" />
    <char id="935" x="493" y="270" width="15" height="18" xoffset="0" yoffset="7" xadvance="15" page="0" chnl="15" />
    <char id="936" x="231" y="293" width="14" height="18" xoffset="0" yoffset="7" xadvance="15" page="0" chnl="15" />
    <char id="937" x="461" y="270" width="15" height="18" xoffset="0" yoffset="7" xadvance="15" page="0" chnl="15" />
    <char id="938" x="12" y="129" width="11" height="23" xoffset="2" yoffset="2" xadvance="15" page="0" chnl="15" />
    <char id="939" x="124" y="78" width="16" height="23" xoffset="0" yoffset="2" xadvance="15" page="0" chnl="15" />
    <char id="940" x="0" y="176" width="15" height="20" xoffset="0" yoffset="6" xadvance="15" page="0" chnl="15" />
    <char id="941" x="388" y="189" width="12" height="20" xoffset="1" yoffset="6" xadvance="15" page="0" chnl="15" />
    <char id="942" x="214" y="27" width="12" height="25" xoffset="1" yoffset="6" xadvance="15" page="0" chnl="15" />
    <char id="943" x="375" y="189" width="12" height="20" xoffset="1" yoffset="6" xadvance="15" page="0" chnl="15" />
    <char id="944" x="362" y="190" width="12" height="20" xoffset="1" yoffset="6" xadvance="15" page="0" chnl="15" />
    <char id="945" x="60" y="337" width="15" height="15" xoffset="0" yoffset="11" xadvance="15" page="0" chnl="15" />
    <char id="946" x="249" y="0" width="12" height="26" xoffset="2" yoffset="5" xadvance="15" page="0" chnl="15" />
    <char id="947" x="301" y="171" width="13" height="20" xoffset="0" yoffset="11" xadvance="15" page="0" chnl="15" />
    <char id="948" x="194" y="149" width="13" height="21" xoffset="1" yoffset="5" xadvance="15" page="0" chnl="15" />
    <char id="949" x="216" y="332" width="12" height="15" xoffset="1" yoffset="11" xadvance="15" page="0" chnl="15" />
    <char id="950" x="26" y="80" width="12" height="24" xoffset="1" yoffset="6" xadvance="15" page="0" chnl="15" />
    <char id="951" x="271" y="192" width="12" height="20" xoffset="1" yoffset="11" xadvance="15" page="0" chnl="15" />
    <char id="952" x="222" y="149" width="13" height="21" xoffset="1" yoffset="5" xadvance="15" page="0" chnl="15" />
    <char id="953" x="203" y="332" width="12" height="15" xoffset="1" yoffset="11" xadvance="15" page="0" chnl="15" />
    <char id="954" x="439" y="326" width="13" height="14" xoffset="2" yoffset="11" xadvance="15" page="0" chnl="15" />
    <char id="955" x="90" y="151" width="15" height="21" xoffset="0" yoffset="5" xadvance="15" page="0" chnl="15" />
    <char id="956" x="231" y="171" width="13" height="20" xoffset="2" yoffset="11" xadvance="15" page="0" chnl="15" />
    <char id="957" x="396" y="328" width="14" height="14" xoffset="0" yoffset="11" xadvance="15" page="0" chnl="15" />
    <char id="958" x="39" y="80" width="12" height="24" xoffset="1" yoffset="6" xadvance="15" page="0" chnl="15" />
    <char id="959" x="106" y="335" width="13" height="15" xoffset="1" yoffset="11" xadvance="15" page="0" chnl="15" />
    <char id="960" x="334" y="331" width="15" height="14" xoffset="0" yoffset="11" xadvance="15" page="0" chnl="15" />
    <char id="961" x="91" y="216" width="12" height="20" xoffset="2" yoffset="11" xadvance="15" page="0" chnl="15" />
    <char id="962" x="269" y="254" width="12" height="19" xoffset="1" yoffset="11" xadvance="15" page="0" chnl="15" />
    <char id="963" x="76" y="336" width="14" height="15" xoffset="1" yoffset="11" xadvance="15" page="0" chnl="15" />
    <char id="964" x="120" y="334" width="13" height="15" xoffset="0" yoffset="11" xadvance="15" page="0" chnl="15" />
    <char id="965" x="229" y="331" width="12" height="15" xoffset="1" yoffset="11" xadvance="15" page="0" chnl="15" />
    <char id="966" x="409" y="0" width="15" height="25" xoffset="0" yoffset="6" xadvance="15" page="0" chnl="15" />
    <char id="967" x="141" y="172" width="14" height="20" xoffset="0" yoffset="11" xadvance="15" page="0" chnl="15" />
    <char id="968" x="471" y="0" width="14" height="25" xoffset="1" yoffset="6" xadvance="15" page="0" chnl="15" />
    <char id="969" x="28" y="337" width="15" height="15" xoffset="0" yoffset="11" xadvance="15" page="0" chnl="15" />
    <char id="970" x="130" y="215" width="12" height="20" xoffset="1" yoffset="6" xadvance="15" page="0" chnl="15" />
    <char id="971" x="143" y="215" width="12" height="20" xoffset="1" yoffset="6" xadvance="15" page="0" chnl="15" />
    <char id="972" x="140" y="194" width="13" height="20" xoffset="1" yoffset="6" xadvance="15" page="0" chnl="15" />
    <char id="973" x="169" y="214" width="12" height="20" xoffset="1" yoffset="6" xadvance="15" page="0" chnl="15" />
    <char id="974" x="354" y="148" width="15" height="20" xoffset="0" yoffset="6" xadvance="15" page="0" chnl="15" />
    <char id="8355" x="210" y="313" width="13" height="18" xoffset="1" yoffset="7" xadvance="15" page="0" chnl="15" />
    <char id="8356" x="154" y="314" width="13" height="18" xoffset="1" yoffset="7" xadvance="15" page="0" chnl="15" />
    <char id="8359" x="64" y="238" width="15" height="19" xoffset="0" yoffset="7" xadvance="15" page="0" chnl="15" />
    <char id="8364" x="28" y="259" width="13" height="19" xoffset="0" yoffset="7" xadvance="15" page="0" chnl="15" />
    <char id="8706" x="152" y="150" width="13" height="21" xoffset="1" yoffset="5" xadvance="15" page="0" chnl="15" />
    <char id="8710" x="141" y="295" width="14" height="18" xoffset="0" yoffset="7" xadvance="15" page="0" chnl="15" />
    <char id="8719" x="324" y="125" width="15" height="22" xoffset="0" yoffset="6" xadvance="15" page="0" chnl="15" />
    <char id="8721" x="383" y="124" width="13" height="22" xoffset="1" yoffset="6" xadvance="15" page="0" chnl="15" />
    <char id="8722" x="380" y="346" width="12" height="3" xoffset="1" yoffset="16" xadvance="15" page="0" chnl="15" />
    <char id="8725" x="489" y="210" width="15" height="19" xoffset="0" yoffset="6" xadvance="15" page="0" chnl="15" />
    <char id="8729" x="506" y="308" width="5" height="5" xoffset="5" yoffset="15" xadvance="15" page="0" chnl="15" />
    <char id="8730" x="473" y="210" width="15" height="19" xoffset="0" yoffset="6" xadvance="15" page="0" chnl="15" />
    <char id="8734" x="205" y="348" width="15" height="9" xoffset="0" yoffset="13" xadvance="15" page="0" chnl="15" />
    <char id="8747" x="166" y="0" width="13" height="26" xoffset="1" yoffset="5" xadvance="15" page="0" chnl="15" />
    <char id="8776" x="235" y="347" width="13" height="9" xoffset="1" yoffset="13" xadvance="15" page="0" chnl="15" />
    <char id="8800" x="255" y="331" width="12" height="15" xoffset="1" yoffset="10" xadvance="15" page="0" chnl="15" />
    <char id="8804" x="454" y="308" width="12" height="17" xoffset="1" yoffset="8" xadvance="15" page="0" chnl="15" />
    <char id="8805" x="467" y="308" width="12" height="17" xoffset="1" yoffset="8" xadvance="15" page="0" chnl="15" />
    <char id="9633" x="39" y="353" width="13" height="13" xoffset="1" yoffset="12" xadvance="15" page="0" chnl="15" />
    <char id="9642" x="259" y="347" width="8" height="9" xoffset="3" yoffset="13" xadvance="15" page="0" chnl="15" />
    <char id="9643" x="249" y="347" width="9" height="9" xoffset="3" yoffset="13" xadvance="15" page="0" chnl="15" />
    <char id="9674" x="246" y="293" width="14" height="18" xoffset="0" yoffset="7" xadvance="15" page="0" chnl="15" />
    <char id="9679" x="89" y="352" width="13" height="12" xoffset="1" yoffset="11" xadvance="15" page="0" chnl="15" />
    <char id="9702" x="305" y="347" width="7" height="7" xoffset="4" yoffset="13" xadvance="15" page="0" chnl="15" />
  </chars>
</font>
